COM4,59,27-Nov-18,2018-11-27 00:00:00,0.8729491525423699,0.7505254237288101,0.6987627118644101,0.6622203389830501,0.6610847457627099,0.5880677966101701,0.60661016949153,5.0
COM4,59,27-Nov-18,2018-11-27 01:00:00,0.80978333333333,0.6959,0.6501,0.6211,0.62105,0.5558,0.57203333333333,5.0
COM4,59,27-Nov-18,2018-11-27 02:00:00,0.98288333333333,0.83858333333333,0.78245,0.74725,0.74823333333333,0.66186666666667,0.6859833333333301,5.0
COM4,59,27-Nov-18,2018-11-27 03:00:00,1.1084666666667,0.96088333333333,0.90268333333333,0.86206666666667,0.86803333333333,0.76523333333333,0.7959999999999999,5.0
COM4,59,27-Nov-18,2018-11-27 04:00:00,0.82993333333333,0.72881666666667,0.6839,0.6534666666666701,0.6591,0.5795666666666701,0.6044833333333299,5.0
COM4,59,27-Nov-18,2018-11-27 05:00:00,0.67558333333333,0.58508333333333,0.5501333333333299,0.52681666666667,0.53058333333333,0.46626666666667,0.48525,5.0
COM4,59,27-Nov-18,2018-11-27 06:00:00,0.77538333333333,0.6647166666666701,0.62375,0.59526666666667,0.5996,0.52361666666667,0.54696666666667,5.0
COM4,59,27-Nov-18,2018-11-27 07:00:00,0.89595,0.79266666666667,0.73781666666667,0.70426666666667,0.71105,0.6276333333333299,0.6521333333333299,5.0
COM4,59,27-Nov-18,2018-11-27 08:00:00,1.0302166666666999,0.91698333333333,0.85638333333333,0.82138333333333,0.82661666666667,0.73491666666667,0.76188333333333,5.0
COM4,59,27-Nov-18,2018-11-27 09:00:00,0.69528333333333,0.60651666666667,0.5714833333333299,0.5534833333333299,0.5597,0.5015333333333301,0.52116666666667,4.5833333333333
COM4,59,27-Nov-18,2018-11-27 10:00:00,0.80773333333333,0.71915,0.6876,0.6686166666666701,0.6781,0.62585,0.6464,5.0
COM4,59,27-Nov-18,2018-11-27 11:00:00,0.60818333333333,0.5743,0.55088333333333,0.53758333333333,0.54521666666667,0.503,0.51956666666667,5.0
COM4,59,27-Nov-18,2018-11-27 12:00:00,0.8273,0.78403333333333,0.74756666666667,0.72658333333333,0.7377,0.6884,0.70735,5.0
COM4,59,27-Nov-18,2018-11-27 13:00:00,1.0229830508475,0.9561864406779699,0.9095254237288101,0.88233898305085,0.8951186440678001,0.8308813559321999,0.85527118644068,5.0
COM4,59,27-Nov-18,2018-11-27 14:00:00,0.95795,0.80231666666667,0.7677,0.74605,0.75911666666667,0.6703333333333299,0.70381666666667,5.0
COM4,59,27-Nov-18,2018-11-27 15:00:00,0.67625,0.5766666666666701,0.5526666666666701,0.53718333333333,0.54746666666667,0.4833,0.50751666666667,5.0
COM4,59,27-Nov-18,2018-11-27 16:00:00,0.6244666666666701,0.51743333333333,0.49298333333333,0.47626666666667,0.48288333333333,0.42541666666667,0.44445,5.0
COM4,59,27-Nov-18,2018-11-27 17:00:00,0.69755,0.53498333333333,0.50031666666667,0.47806666666666997,0.48206666666667,0.42583333333333,0.44181666666667,5.0
COM4,59,27-Nov-18,2018-11-27 18:00:00,0.6524,0.5489999999999999,0.51976666666667,0.50126666666667,0.50463333333333,0.4508,0.46688333333333,5.0
COM4,59,27-Nov-18,2018-11-27 19:00:00,0.60705,0.50728333333333,0.47778333333333,0.45968333333333,0.46196666666666997,0.4134,0.42536666666667,5.0
COM4,59,27-Nov-18,2018-11-27 20:00:00,0.63286666666667,0.51518333333333,0.48245,0.4608,0.46153333333333,0.41108333333333,0.42341666666667,5.0
COM4,59,27-Nov-18,2018-11-27 21:00:00,0.5898333333333299,0.49931666666667,0.47088333333333,0.45266666666667,0.45431666666667,0.40535,0.41916666666667,5.0
COM4,59,27-Nov-18,2018-11-27 22:00:00,0.73296666666667,0.60323333333333,0.56385,0.53701666666667,0.53851666666667,0.47708333333333003,0.49153333333333,5.0
COM4,59,27-Nov-18,2018-11-27 23:00:00,1.0278166666667,0.87545,0.81838333333333,0.7797166666666699,0.77813333333333,0.6849833333333301,0.70583333333333,5.0
