COM4,59,21-Nov-18,2018-11-21 00:00:00,1.8410338983051002,1.5685932203389998,1.4532033898305,1.3710677966101998,1.3545762711863998,1.172593220339,1.2005762711863999,5.0
COM4,59,21-Nov-18,2018-11-21 01:00:00,1.9680666666667,1.69915,1.5718333333333,1.4806833333333,1.4618666666667,1.2688,1.29635,5.0
COM4,59,21-Nov-18,2018-11-21 02:00:00,1.8822333333333001,1.6380833333333,1.5136333333333,1.4241833333333,1.4046833333333,1.2248166666667,1.2491333333333001,5.0
COM4,59,21-Nov-18,2018-11-21 03:00:00,1.9652166666667,1.7106333333333001,1.57545,1.4837166666666999,1.46015,1.27735,1.3018,5.0
COM4,59,21-Nov-18,2018-11-21 04:00:00,2.0876333333333,1.8254666666666999,1.6774833333333001,1.57775,1.5505333333333,1.3575166666667,1.3795166666667,5.0
COM4,59,21-Nov-18,2018-11-21 05:00:00,2.0838666666667,1.8522666666667,1.7023666666667,1.6038,1.5772666666667,1.3884166666667,1.4110166666667,5.0
COM4,59,21-Nov-18,2018-11-21 06:00:00,2.2559166666667,2.0480333333333,1.8878,1.7842,1.7574666666667,1.5568166666667,1.5830000000000002,5.0
COM4,59,21-Nov-18,2018-11-21 07:00:00,2.3746833333332997,2.18095,2.01265,1.9154166666666999,1.8922,1.6910166666667,1.7181333333333,5.0
COM4,59,21-Nov-18,2018-11-21 08:00:00,1.8402166666667,1.7035333333333,1.5820666666667,1.5081333333333,1.5029166666667,1.3217166666667,1.3575,5.0
COM4,59,21-Nov-18,2018-11-21 09:00:00,1.1263666666667,1.0219,0.98195,0.95915,0.97663333333333,0.899,0.93221666666667,4.6666666666667
COM4,59,21-Nov-18,2018-11-21 10:00:00,1.30055,1.2444333333333,1.1982166666667,1.1737166666667,1.1949166666667,1.1082,1.1464333333333,5.0
COM4,59,21-Nov-18,2018-11-21 11:00:00,0.9890338983050799,0.94650847457627,0.91691525423729,0.90084745762712,0.92045762711864,0.84069491525424,0.8773728813559302,5.0
COM4,59,21-Nov-18,2018-11-21 12:00:00,0.93738333333333,0.78841666666667,0.7752,0.7573,0.77768333333333,0.6280666666666701,0.68716666666667,5.0
COM4,59,21-Nov-18,2018-11-21 13:00:00,0.80525,0.67593333333333,0.6643666666666701,0.64745,0.66873333333333,0.53728333333333,0.5851,5.0
COM4,59,21-Nov-18,2018-11-21 14:00:00,0.75551666666667,0.6360666666666701,0.6244666666666701,0.6079666666666701,0.6266,0.50963333333333,0.5505,5.0
COM4,59,21-Nov-18,2018-11-21 15:00:00,0.72441666666667,0.61215,0.5992666666666701,0.5832,0.59961666666667,0.49588333333333,0.53308333333333,5.0
COM4,59,21-Nov-18,2018-11-21 16:00:00,0.68831666666667,0.59446666666667,0.5807833333333299,0.56465,0.5789,0.48645,0.51746666666667,5.0
COM4,59,21-Nov-18,2018-11-21 17:00:00,0.77543333333333,0.6691833333333299,0.64925,0.63165,0.64571666666667,0.55405,0.58541666666667,5.0
COM4,59,21-Nov-18,2018-11-21 18:00:00,1.0246166666667,0.86696666666667,0.83088333333333,0.79726666666667,0.80601666666667,0.68061666666667,0.71443333333333,5.0
COM4,59,21-Nov-18,2018-11-21 19:00:00,1.51475,1.2596166666667,1.1949166666667,1.1397833333333,1.1421,0.96035,1.00265,5.0
COM4,59,21-Nov-18,2018-11-21 20:00:00,1.5666166666666999,1.284,1.2092166666667,1.1410333333333,1.13825,0.95663333333333,0.99728333333333,5.0
COM4,59,21-Nov-18,2018-11-21 21:00:00,1.5608833333333,1.2489666666666999,1.1646666666667,1.0947666666667,1.0882833333333,0.91528333333333,0.95081666666667,5.0
COM4,59,21-Nov-18,2018-11-21 22:00:00,1.61615,1.2507833333333,1.1515166666667,1.0690166666667,1.0536666666666998,0.87733333333333,0.9097666666666699,5.0
COM4,59,21-Nov-18,2018-11-21 23:00:00,1.48075,1.1844,1.0898833333333,1.0095,0.99371666666667,0.82761666666667,0.85688333333333,5.0
