COM4,59,02-Jan-19,2019-01-02 00:00:00,0.64601694915254,0.5063050847457601,0.44483050847458006,0.39681355932203,0.37837288135592995,0.3706101694915301,0.35857627118644,5.0
COM4,59,02-Jan-19,2019-01-02 01:00:00,0.33636666666667,0.28928333333333,0.26175,0.2419,0.23346666666667004,0.23451666666667004,0.22538333333332997,5.0
COM4,59,02-Jan-19,2019-01-02 02:00:00,0.33268333333333,0.27093333333333,0.24241666666667003,0.22401666666667003,0.21416666666667003,0.21498333333332997,0.20585,5.0
COM4,59,02-Jan-19,2019-01-02 03:00:00,0.41206666666666997,0.33466666666667,0.30135,0.27899999999999997,0.26865,0.26505,0.25781666666667,5.0
COM4,59,02-Jan-19,2019-01-02 04:00:00,0.33613333333333,0.27865,0.24765,0.22998333333332996,0.22175,0.21675,0.21155,5.0
COM4,59,02-Jan-19,2019-01-02 05:00:00,0.36536666666667,0.30245,0.2761,0.25863333333333,0.2493,0.24453333333332997,0.23786666666667003,5.0
COM4,59,02-Jan-19,2019-01-02 06:00:00,0.50436666666667,0.42838333333333,0.38713333333333,0.36445,0.35261666666667,0.35028333333333,0.3407,5.0
COM4,59,02-Jan-19,2019-01-02 07:00:00,0.69675,0.61161666666667,0.5574333333333299,0.53023333333333,0.5164,0.51383333333333,0.50148333333333,5.0
COM4,59,02-Jan-19,2019-01-02 08:00:00,0.80486666666667,0.7202833333333301,0.6614666666666701,0.63435,0.6188,0.618,0.60445,5.0
COM4,59,02-Jan-19,2019-01-02 09:00:00,0.88701666666667,0.80101666666667,0.74645,0.72183333333333,0.71146666666667,0.6950833333333301,0.68995,5.0
COM4,59,02-Jan-19,2019-01-02 10:00:00,0.6206833333333299,0.5775166666666701,0.5431,0.52956666666667,0.52926666666667,0.5026,0.50961666666667,5.0
COM4,59,02-Jan-19,2019-01-02 11:00:00,0.36701666666667,0.34738333333333,0.33345,0.32863333333333,0.33325,0.29981666666667,0.31368333333333,5.0
COM4,59,02-Jan-19,2019-01-02 12:00:00,0.29876666666667,0.28335,0.27368333333332995,0.27156666666667,0.27918333333333,0.24828333333332997,0.26315,5.0
COM4,59,02-Jan-19,2019-01-02 13:00:00,0.17356666666667003,0.17888333333332998,0.17566666666667002,0.17428333333332996,0.18238333333332996,0.15291666666667,0.166,5.0
COM4,59,02-Jan-19,2019-01-02 14:00:00,0.13675,0.14426666666667,0.14386666666667,0.14438333333332998,0.15026666666667002,0.12456666666666999,0.13635,5.0
COM4,59,02-Jan-19,2019-01-02 15:00:00,0.21928333333332997,0.2128,0.2088,0.20518333333332997,0.21068333333332998,0.17743333333332997,0.19001666666667003,5.0
COM4,59,02-Jan-19,2019-01-02 16:00:00,0.31981666666666997,0.23891666666667002,0.23193333333332997,0.22778333333332998,0.23125,0.20413333333332997,0.21621666666667003,4.6666666666667
COM4,59,02-Jan-19,2019-01-02 17:00:00,0.51638333333333,0.40313333333333,0.38346666666667,0.3687,0.37231666666667,0.34661666666667,0.35461666666667,5.0
COM4,59,02-Jan-19,2019-01-02 18:00:00,0.6404166666666701,0.55768333333333,0.5214,0.49746666666667,0.49783333333333,0.45443333333333,0.46258333333333,5.0
COM4,59,02-Jan-19,2019-01-02 19:00:00,0.65486666666667,0.5644333333333299,0.53053333333333,0.50765,0.51075,0.47711666666667,0.48363333333333003,5.0
COM4,59,02-Jan-19,2019-01-02 20:00:00,0.87496666666667,0.76901666666667,0.7183,0.6836,0.6803,0.6159666666666701,0.62265,5.0
COM4,59,02-Jan-19,2019-01-02 21:00:00,1.0178305084746,0.7998305084745799,0.74864406779661,0.7032542372881401,0.6879661016949201,0.6454406779660999,0.6398813559322,5.0
COM4,59,02-Jan-19,2019-01-02 22:00:00,0.96465,0.69478333333333,0.63276666666667,0.58515,0.5630333333333299,0.5590333333333299,0.5428333333333301,5.0
COM4,59,02-Jan-19,2019-01-02 23:00:00,0.85211666666667,0.64876666666667,0.5993333333333299,0.5558666666666701,0.53715,0.5292,0.51751666666667,5.0
