COM4,59,05-Dec-18,2018-12-05 00:00:00,0.97377966101695,0.8501694915254201,0.80072881355932,0.768,0.7750169491525399,0.69798305084746,0.7243220338983101,5.0
COM4,59,05-Dec-18,2018-12-05 01:00:00,0.81163333333333,0.71493333333333,0.67341666666667,0.6482333333333299,0.65575,0.58813333333333,0.6120166666666701,5.0
COM4,59,05-Dec-18,2018-12-05 02:00:00,0.84271666666667,0.74968333333333,0.70725,0.68135,0.6898,0.61925,0.64491666666667,5.0
COM4,59,05-Dec-18,2018-12-05 03:00:00,0.67226666666667,0.6018666666666701,0.57036666666667,0.5531,0.5616333333333299,0.50101666666667,0.52423333333333,5.0
COM4,59,05-Dec-18,2018-12-05 04:00:00,0.49106666666667,0.44411666666667,0.42138333333333,0.40906666666667,0.41883333333333,0.37235,0.39045,5.0
COM4,59,05-Dec-18,2018-12-05 05:00:00,0.43201666666667,0.39446666666667,0.37673333333333,0.36625,0.37385,0.3324,0.3488,5.0
COM4,59,05-Dec-18,2018-12-05 06:00:00,0.47541666666667,0.44016666666667,0.41951666666667,0.4089,0.41903333333333,0.37278333333333,0.39086666666666997,5.0
COM4,59,05-Dec-18,2018-12-05 07:00:00,0.42893333333333,0.4092,0.39615,0.38848333333333,0.39956666666667,0.35786666666667,0.3751,5.0
COM4,59,05-Dec-18,2018-12-05 08:00:00,0.42153333333333,0.39308333333333,0.37533333333333,0.36715,0.37565,0.33716666666667,0.35243333333333,5.0
COM4,59,05-Dec-18,2018-12-05 09:00:00,0.32461666666667,0.29993333333333,0.29095,0.28456666666667,0.29313333333333,0.25731666666667,0.27441666666667003,4.6666666666667
COM4,59,05-Dec-18,2018-12-05 10:00:00,0.42893333333333,0.34768333333333,0.3379,0.33121666666667,0.3367,0.31316666666667,0.3232,5.0
COM4,59,05-Dec-18,2018-12-05 11:00:00,0.32928333333333,0.30086666666667,0.29063333333333,0.28426666666667,0.2891,0.266,0.27515,5.0
COM4,59,05-Dec-18,2018-12-05 12:00:00,0.36506666666667,0.34451666666666997,0.33406666666667,0.32745,0.3332,0.31003333333333,0.32005,5.0
COM4,59,05-Dec-18,2018-12-05 13:00:00,0.3722,0.35311666666667,0.3391,0.33126666666667,0.33713333333333,0.31385,0.32208333333333,5.0
COM4,59,05-Dec-18,2018-12-05 14:00:00,0.34548333333333,0.32655,0.31293333333333,0.306,0.31111666666667,0.28796666666667,0.29771666666667,5.0
COM4,59,05-Dec-18,2018-12-05 15:00:00,0.2252,0.21383333333332996,0.20628333333332996,0.2014,0.20601666666667004,0.19076666666667003,0.19716666666667004,5.0
COM4,59,05-Dec-18,2018-12-05 16:00:00,0.20316666666667002,0.19211666666667004,0.18478333333332997,0.1813,0.18438333333332996,0.17128333333332996,0.17676666666667004,5.0
COM4,59,05-Dec-18,2018-12-05 17:00:00,0.22076666666667003,0.20088333333332997,0.19096666666667003,0.18486666666667004,0.18728333333332997,0.17518333333332997,0.17851666666667004,5.0
COM4,59,05-Dec-18,2018-12-05 18:00:00,0.28803333333333003,0.26126666666667003,0.24828333333332997,0.24165,0.2451,0.23008333333332998,0.23551666666667004,5.0
COM4,59,05-Dec-18,2018-12-05 19:00:00,0.23675,0.21433333333332996,0.20371666666667004,0.19826666666667003,0.2005,0.18671666666667003,0.19128333333332997,5.0
COM4,59,05-Dec-18,2018-12-05 20:00:00,0.2525,0.23673333333332996,0.2261,0.22001666666667002,0.22461666666667005,0.2116,0.21675,5.0
COM4,59,05-Dec-18,2018-12-05 21:00:00,0.24803389830507996,0.20550847457626997,0.20340677966102,0.19996610169492002,0.20184745762711997,0.18494915254237,0.19167796610169002,5.0
COM4,59,05-Dec-18,2018-12-05 22:00:00,0.2338,0.18828333333332997,0.18743333333332995,0.18425,0.18703333333332997,0.16851666666667003,0.17526666666667004,5.0
COM4,59,05-Dec-18,2018-12-05 23:00:00,0.20946666666667002,0.16896666666667004,0.16731666666667,0.16435,0.1661,0.14858333333333,0.15463333333333,5.0
