COM4,59,10-Dec-18,2018-12-10 00:00:00,0.35969491525423997,0.30849152542373,0.30505084745763,0.29138983050846995,0.2915593220339,0.26706779661017,0.27405084745763,5.0
COM4,59,10-Dec-18,2018-12-10 01:00:00,0.34191666666667,0.29115,0.2878,0.27291666666667,0.27178333333333,0.24718333333332998,0.25341666666667,5.0
COM4,59,10-Dec-18,2018-12-10 02:00:00,0.3635,0.31056666666667,0.30631666666667,0.29215,0.28898333333333,0.26326666666667004,0.26911666666667006,5.0
COM4,59,10-Dec-18,2018-12-10 03:00:00,0.37486666666667,0.3206,0.3145,0.30306666666667,0.29985,0.27148333333332997,0.27716666666667,5.0
COM4,59,10-Dec-18,2018-12-10 04:00:00,0.36881666666667,0.313,0.30775,0.29918333333333,0.29541666666667,0.26315,0.2717,5.0
COM4,59,10-Dec-18,2018-12-10 05:00:00,0.4225,0.35853333333333,0.3534,0.34596666666667,0.345,0.3037,0.31316666666667,5.0
COM4,59,10-Dec-18,2018-12-10 06:00:00,0.53785,0.46406666666667,0.45241666666667,0.43933333333333,0.43918333333333,0.38905,0.3985,5.0
COM4,59,10-Dec-18,2018-12-10 07:00:00,0.6141,0.54061666666667,0.52436666666667,0.50996666666667,0.51143333333333,0.45711666666667,0.46571666666667,5.0
COM4,59,10-Dec-18,2018-12-10 08:00:00,0.49406666666667,0.42306666666667,0.41853333333333,0.40816666666667,0.41235,0.35746666666667,0.36943333333333,5.0
COM4,59,10-Dec-18,2018-12-10 09:00:00,0.50846666666667,0.43766666666667,0.42956666666667,0.4157,0.4216,0.37133333333333,0.38348333333333,4.6666666666667
COM4,59,10-Dec-18,2018-12-10 10:00:00,0.47573333333333,0.39746666666667,0.39178333333333,0.38645,0.3942,0.36525,0.38048333333333,5.0
COM4,59,10-Dec-18,2018-12-10 11:00:00,0.47921666666667,0.43763333333333,0.42808333333333,0.41931666666667,0.42633333333333,0.3945,0.40508333333333,5.0
COM4,59,10-Dec-18,2018-12-10 12:00:00,0.3712,0.3439,0.33686666666667,0.3306,0.33773333333333,0.31191666666667,0.32071666666667,5.0
COM4,59,10-Dec-18,2018-12-10 13:00:00,0.30476666666667,0.29023333333333,0.2785,0.27346666666667,0.27888333333333,0.25793333333332996,0.26456666666667006,5.0
COM4,59,10-Dec-18,2018-12-10 14:00:00,0.27223333333332994,0.25566666666667004,0.24758333333332996,0.2428,0.2473,0.22793333333332996,0.23328333333332996,5.0
COM4,59,10-Dec-18,2018-12-10 15:00:00,0.25755,0.24325,0.23411666666667003,0.22821666666667004,0.23251666666667004,0.21568333333332998,0.21935,5.0
COM4,59,10-Dec-18,2018-12-10 16:00:00,0.245,0.23208333333332998,0.2225,0.21715,0.22031666666667002,0.20728333333332996,0.20938333333332998,5.0
COM4,59,10-Dec-18,2018-12-10 17:00:00,0.32416666666667,0.29888333333333,0.28511666666667,0.27665,0.2793,0.25973333333333,0.26255,5.0
COM4,59,10-Dec-18,2018-12-10 18:00:00,0.24635,0.22663333333332997,0.21868333333332995,0.21383333333332996,0.2174,0.19733333333332997,0.20265,5.0
COM4,59,10-Dec-18,2018-12-10 19:00:00,0.24518333333332998,0.22806666666667003,0.22193333333332996,0.21721666666667003,0.2216,0.20083333333332998,0.20645,5.0
COM4,59,10-Dec-18,2018-12-10 20:00:00,0.24345,0.22841666666667004,0.21991666666667004,0.21401666666667002,0.218,0.20378333333332996,0.20633333333332995,5.0
COM4,59,10-Dec-18,2018-12-10 21:00:00,0.18928813559322,0.1591186440678,0.16376271186441,0.16149152542373002,0.16323728813559,0.15159322033898,0.15383050847458,5.0
COM4,59,10-Dec-18,2018-12-10 22:00:00,0.18483333333332996,0.1549,0.15738333333333,0.15698333333332998,0.15921666666667,0.14555,0.15035,5.0
COM4,59,10-Dec-18,2018-12-10 23:00:00,0.18095,0.1568,0.15946666666667,0.1596,0.16213333333333,0.15116666666667,0.1536,5.0
