COM4,59,28-Nov-18,2018-11-28 00:00:00,0.82989830508475,0.72442372881356,0.6813389830508501,0.65301694915254,0.65438983050847,0.5788983050847499,0.59633898305085,5.0
COM4,59,28-Nov-18,2018-11-28 01:00:00,0.6237,0.54573333333333,0.51623333333333,0.49583333333333,0.49923333333333003,0.44043333333333,0.45601666666667,5.0
COM4,59,28-Nov-18,2018-11-28 02:00:00,0.52553333333333,0.46511666666667,0.43921666666667,0.42386666666667,0.42718333333333003,0.38395,0.3948,5.0
COM4,59,28-Nov-18,2018-11-28 03:00:00,0.54185,0.47776666666667,0.45088333333333,0.43431666666667,0.43668333333333,0.39155,0.40226666666667,5.0
COM4,59,28-Nov-18,2018-11-28 04:00:00,0.79158333333333,0.6939,0.6521,0.62565,0.62765,0.5614333333333299,0.5765,5.0
COM4,59,28-Nov-18,2018-11-28 05:00:00,1.0066166666667,0.88595,0.82981666666667,0.79416666666667,0.79548333333333,0.71075,0.73085,5.0
COM4,59,28-Nov-18,2018-11-28 06:00:00,0.97201666666667,0.85956666666667,0.8059666666666699,0.7688,0.77046666666667,0.6839833333333301,0.70458333333333,5.0
COM4,59,28-Nov-18,2018-11-28 07:00:00,1.0747833333333001,0.95385,0.89373333333333,0.85608333333333,0.85863333333333,0.76013333333333,0.78363333333333,5.0
COM4,59,28-Nov-18,2018-11-28 08:00:00,1.14485,1.0235,0.95946666666667,0.91941666666667,0.92205,0.82191666666667,0.84536666666667,5.0
COM4,59,28-Nov-18,2018-11-28 09:00:00,0.75443333333333,0.6566,0.6219,0.59975,0.60461666666667,0.5382,0.5579166666666701,4.6666666666667
COM4,59,28-Nov-18,2018-11-28 10:00:00,0.42701666666667,0.3653,0.35613333333333,0.34828333333333,0.35381666666667,0.32798333333333,0.33793333333333003,5.0
COM4,59,28-Nov-18,2018-11-28 11:00:00,0.51503333333333,0.47981666666667,0.4598,0.44773333333333,0.45421666666667,0.42376666666667,0.43533333333333,5.0
COM4,59,28-Nov-18,2018-11-28 12:00:00,0.57205,0.54023333333333,0.51615,0.5016,0.50896666666667,0.4738,0.48603333333333,5.0
COM4,59,28-Nov-18,2018-11-28 13:00:00,0.5755333333333299,0.54333333333333,0.51753333333333,0.50266666666667,0.5095833333333301,0.47553333333333003,0.48716666666666997,5.0
COM4,59,28-Nov-18,2018-11-28 14:00:00,0.62076666666667,0.5940166666666701,0.56835,0.55415,0.5623,0.52555,0.53861666666667,5.0
COM4,59,28-Nov-18,2018-11-28 15:00:00,0.6354576271186401,0.60135593220339,0.57818644067797,0.56479661016949,0.57369491525424,0.5351694915254199,0.5498474576271201,5.0
COM4,59,28-Nov-18,2018-11-28 16:00:00,0.6685166666666701,0.5543166666666701,0.5361,0.5224,0.52703333333333,0.4837,0.49486666666667,5.0
COM4,59,28-Nov-18,2018-11-28 17:00:00,0.45438333333333003,0.37808333333333,0.366,0.3565,0.35855,0.32405,0.3321,5.0
COM4,59,28-Nov-18,2018-11-28 18:00:00,0.5281,0.44046666666667,0.42475,0.41236666666667,0.41408333333333003,0.3739,0.38378333333333,5.0
COM4,59,28-Nov-18,2018-11-28 19:00:00,0.47918333333333,0.40145,0.38718333333333,0.3746,0.37638333333333,0.33908333333333,0.34731666666667,5.0
COM4,59,28-Nov-18,2018-11-28 20:00:00,0.47613333333333,0.37923333333333,0.36056666666667,0.34701666666666997,0.34763333333333,0.31248333333333,0.32016666666667,5.0
COM4,59,28-Nov-18,2018-11-28 21:00:00,0.45338333333333003,0.3781,0.36015,0.34685,0.34693333333333,0.3122,0.31978333333333,5.0
COM4,59,28-Nov-18,2018-11-28 22:00:00,0.40873333333333,0.3435,0.32751666666667,0.31586666666667,0.31656666666667,0.28508333333333,0.29196666666667,5.0
COM4,59,28-Nov-18,2018-11-28 23:00:00,0.4169,0.35075,0.33398333333333,0.32163333333333,0.3212,0.28703333333333003,0.294,5.0
