COM6,0508,11-Dec-18,2018-12-11 00:00:00,0.34930508474576,0.34757627118644,0.3321186440678,0.33225423728814,0.31918644067797,0.3088813559322,0.3175593220339,5,0,0,0,0,0,0,0,0,0,0,0,0,0,0,0,0,0,0,0,0,0,0,0,0,0,0,0,0,0,0,0,0,0,0,0,0,0,0,0,0,0,0
COM6,0508,11-Dec-18,2018-12-11 01:00:00,0.42081666666667,0.43011666666667,0.4119,0.41315,0.39756666666667,0.38761666666667,0.39793333333333,5,0,0,0,0,0,0,0,0,0,0,0,0,0,0,0,0,0,0,0,0,0,0,0,0,0,0,0,0,0,0,0,0,0,0,0,0,0,0,0,0,0,0
COM6,0508,11-Dec-18,2018-12-11 02:00:00,0.4085,0.41981666666667,0.40193333333333,0.40601666666667,0.38785,0.37756666666667,0.38615,5,0,0,0,0,0,0,0,0,0,0,0,0,0,0,0,0,0,0,0,0,0,0,0,0,0,0,0,0,0,0,0,0,0,0,0,0,0,0,0,0,0,0
COM6,0508,11-Dec-18,2018-12-11 03:00:00,0.35021666666667,0.36051666666667,0.34445,0.34676666666667,0.33088333333333,0.32296666666667,0.33073333333333,5,0,0,0,0,0,0,0,0,0,0,0,0,0,0,0,0,0,0,0,0,0,0,0,0,0,0,0,0,0,0,0,0,0,0,0,0,0,0,0,0,0,0
COM6,0508,11-Dec-18,2018-12-11 04:00:00,0.31568333333333,0.32763333333333,0.3109,0.31428333333333,0.29851666666667,0.29013333333333,0.29541666666667,5,0,0,0,0,0,0,0,0,0,0,0,0,0,0,0,0,0,0,0,0,0,0,0,0,0,0,0,0,0,0,0,0,0,0,0,0,0,0,0,0,0,0
COM6,0508,11-Dec-18,2018-12-11 05:00:00,0.30878333333333,0.32111666666667,0.3058,0.3106,0.29323333333333,0.2864,0.29208333333333,5,0,0,0,0,0,0,0,0,0,0,0,0,0,0,0,0,0,0,0,0,0,0,0,0,0,0,0,0,0,0,0,0,0,0,0,0,0,0,0,0,0,0
COM6,0508,11-Dec-18,2018-12-11 06:00:00,0.27863333333333,0.28663333333333,0.27356666666667,0.27453333333333,0.26166666666667,0.2534,0.25886666666667,5,0,0,0,0,0,0,0,0,0,0,0,0,0,0,0,0,0,0,0,0,0,0,0,0,0,0,0,0,0,0,0,0,0,0,0,0,0,0,0,0,0,0
COM6,0508,11-Dec-18,2018-12-11 07:00:00,0.27061666666667,0.28463333333333,0.2705,0.27223333333333,0.25765,0.2528,0.2589,5,0,0,0,0,0,0,0,0,0,0,0,0,0,0,0,0,0,0,0,0,0,0,0,0,0,0,0,0,0,0,0,0,0,0,0,0,0,0,0,0,0,0
COM6,0508,11-Dec-18,2018-12-11 08:00:00,0.26186666666667,0.27168333333333,0.25775,0.26176666666667,0.24553333333333,0.24061666666667,0.24495,5,0,0,0,0,0,0,0,0,0,0,0,0,0,0,0,0,0,0,0,0,0,0,0,0,0,0,0,0,0,0,0,0,0,0,0,0,0,0,0,0,0,0
COM6,0508,11-Dec-18,2018-12-11 09:00:00,0.23296666666667,0.24691666666667,0.23341666666667,0.23766666666667,0.22313333333333,0.2191,0.22383333333333,5,0,0,0,0,0,0,0,0,0,0,0,0,0,0,0,0,0,0,0,0,0,0,0,0,0,0,0,0,0,0,0,0,0,0,0,0,0,0,0,0,0,0
COM6,0508,11-Dec-18,2018-12-11 10:00:00,0.2051,0.2128,0.20126666666667,0.20156666666667,0.18956666666667,0.18321666666667,0.18583333333333,5,0,0,0,0,0,0,0,0,0,0,0,0,0,0,0,0,0,0,0,0,0,0,0,0,0,0,0,0,0,0,0,0,0,0,0,0,0,0,0,0,0,0
COM6,0508,11-Dec-18,2018-12-11 11:00:00,0.35156666666667,0.34856666666667,0.33031666666667,0.32518333333333,0.31533333333333,0.2986,0.30648333333333,5,0,0,0,0,0,0,0,0,0,0,0,0,0,0,0,0,0,0,0,0,0,0,0,0,0,0,0,0,0,0,0,0,0,0,0,0,0,0,0,0,0,0
COM6,0508,11-Dec-18,2018-12-11 12:00:00,0.4524,0.43555,0.41178333333333,0.40071666666667,0.39005,0.36668333333333,0.37743333333333,5,0,0,0,0,0,0,0,0,0,0,0,0,0,0,0,0,0,0,0,0,0,0,0,0,0,0,0,0,0,0,0,0,0,0,0,0,0,0,0,0,0,0
COM6,0508,11-Dec-18,2018-12-11 13:00:00,0.51375,0.49403333333333,0.46923333333333,0.45608333333333,0.4486,0.42106666666667,0.43673333333333,5,0,0,0,0,0,0,0,0,0,0,0,0,0,0,0,0,0,0,0,0,0,0,0,0,0,0,0,0,0,0,0,0,0,0,0,0,0,0,0,0,0,0
COM6,0508,11-Dec-18,2018-12-11 14:00:00,0.57775,0.56525,0.53505,0.52051666666667,0.51116666666667,0.47908333333333,0.49783333333333,5,0,0,0,0,0,0,0,0,0,0,0,0,0,0,0,0,0,0,0,0,0,0,0,0,0,0,0,0,0,0,0,0,0,0,0,0,0,0,0,0,0,0
COM6,0508,11-Dec-18,2018-12-11 15:00:00,0.53553333333333,0.5306,0.5053,0.49603333333333,0.48448333333333,0.46248333333333,0.47863333333333,5,0,0,0,0,0,0,0,0,0,0,0,0,0,0,0,0,0,0,0,0,0,0,0,0,0,0,0,0,0,0,0,0,0,0,0,0,0,0,0,0,0,0
COM6,0508,11-Dec-18,2018-12-11 16:00:00,0.59551666666667,0.59443333333333,0.56358333333333,0.55651666666667,0.53911666666667,0.51381666666667,0.5277,5,0,0,0,0,0,0,0,0,0,0,0,0,0,0,0,0,0,0,0,0,0,0,0,0,0,0,0,0,0,0,0,0,0,0,0,0,0,0,0,0,0,0
COM6,0508,11-Dec-18,2018-12-11 17:00:00,0.55968333333333,0.5578,0.53088333333333,0.52285,0.50758333333333,0.48131666666667,0.49706666666667,5,0,0,0,0,0,0,0,0,0,0,0,0,0,0,0,0,0,0,0,0,0,0,0,0,0,0,0,0,0,0,0,0,0,0,0,0,0,0,0,0,0,0
COM6,0508,11-Dec-18,2018-12-11 18:00:00,0.60973333333333,0.6156,0.58633333333333,0.58261666666667,0.5607,0.53566666666667,0.55005,5,0,0,0,0,0,0,0,0,0,0,0,0,0,0,0,0,0,0,0,0,0,0,0,0,0,0,0,0,0,0,0,0,0,0,0,0,0,0,0,0,0,0
COM6,0508,11-Dec-18,2018-12-11 19:00:00,0.5651,0.57463333333333,0.5453,0.54568333333333,0.5231,0.49803333333333,0.51251666666667,5,0,0,0,0,0,0,0,0,0,0,0,0,0,0,0,0,0,0,0,0,0,0,0,0,0,0,0,0,0,0,0,0,0,0,0,0,0,0,0,0,0,0
COM6,0508,11-Dec-18,2018-12-11 20:00:00,0.6149,0.63258333333333,0.60035,0.60145,0.57523333333333,0.5528,0.56495,5,0,0,0,0,0,0,0,0,0,0,0,0,0,0,0,0,0,0,0,0,0,0,0,0,0,0,0,0,0,0,0,0,0,0,0,0,0,0,0,0,0,0
COM6,0508,11-Dec-18,2018-12-11 21:00:00,0.68686666666667,0.70801666666667,0.67346666666667,0.67498333333333,0.64341666666667,0.61731666666667,0.6307,5,0,0,0,0,0,0,0,0,0,0,0,0,0,0,0,0,0,0,0,0,0,0,0,0,0,0,0,0,0,0,0,0,0,0,0,0,0,0,0,0,0,0
COM6,0508,11-Dec-18,2018-12-11 22:00:00,0.77681666666667,0.79886666666667,0.75931666666667,0.76106666666667,0.72608333333333,0.6973,0.71286666666667,5,0,0,0,0,0,0,0,0,0,0,0,0,0,0,0,0,0,0,0,0,0,0,0,0,0,0,0,0,0,0,0,0,0,0,0,0,0,0,0,0,0,0
COM6,0508,11-Dec-18,2018-12-11 23:00:00,0.74018965517241,0.76689655172414,0.73101724137931,0.73812068965517,0.7041724137931,0.68315517241379,0.69893103448276,5,0,0,0,0,0,0,0,0,0,0,0,0,0,0,0,0,0,0,0,0,0,0,0,0,0,0,0,0,0,0,0,0,0,0,0,0,0,0,0,0,0,0
