COM6,0508,01-Dec-18,2018-12-01 00:00:00,0.21079661016949,0.15949152542373,0.14216949152542,0.13803389830508,0.12254237288136,0.1115593220339,0.11283050847458,5,0,0,0,0,0,0,0,0,0,0,0,0,0,0,0,0,0,0,0,0,0,0,0,0,0,0,0,0,0,0,0,0,0,0,0,0,0,0,0,0,0,0
COM6,0508,01-Dec-18,2018-12-01 01:00:00,0.12925,0.11986666666667,0.10913333333333,0.10948333333333,0.099466666666667,0.096016666666667,0.096566666666667,5,0,0,0,0,0,0,0,0,0,0,0,0,0,0,0,0,0,0,0,0,0,0,0,0,0,0,0,0,0,0,0,0,0,0,0,0,0,0,0,0,0,0
COM6,0508,01-Dec-18,2018-12-01 02:00:00,0.060833333333333,0.0543,0.04905,0.04905,0.043683333333333,0.0437,0.042866666666667,5,0,0,0,0,0,0,0,0,0,0,0,0,0,0,0,0,0,0,0,0,0,0,0,0,0,0,0,0,0,0,0,0,0,0,0,0,0,0,0,0,0,0
COM6,0508,01-Dec-18,2018-12-01 03:00:00,0.046783333333333,0.03745,0.033233333333333,0.033366666666667,0.028183333333333,0.025783333333333,0.025466666666667,5,0,0,0,0,0,0,0,0,0,0,0,0,0,0,0,0,0,0,0,0,0,0,0,0,0,0,0,0,0,0,0,0,0,0,0,0,0,0,0,0,0,0
COM6,0508,01-Dec-18,2018-12-01 04:00:00,0.058566666666667,0.048,0.042283333333333,0.041816666666667,0.036316666666667,0.033933333333333,0.033183333333333,5,0,0,0,0,0,0,0,0,0,0,0,0,0,0,0,0,0,0,0,0,0,0,0,0,0,0,0,0,0,0,0,0,0,0,0,0,0,0,0,0,0,0
COM6,0508,01-Dec-18,2018-12-01 05:00:00,0.068616666666667,0.0551,0.048166666666667,0.047733333333333,0.0421,0.0374,0.037833333333333,5,0,0,0,0,0,0,0,0,0,0,0,0,0,0,0,0,0,0,0,0,0,0,0,0,0,0,0,0,0,0,0,0,0,0,0,0,0,0,0,0,0,0
COM6,0508,01-Dec-18,2018-12-01 06:00:00,0.10715,0.089383333333333,0.0802,0.075066666666667,0.069583333333333,0.062083333333333,0.0632,5,0,0,0,0,0,0,0,0,0,0,0,0,0,0,0,0,0,0,0,0,0,0,0,0,0,0,0,0,0,0,0,0,0,0,0,0,0,0,0,0,0,0
COM6,0508,01-Dec-18,2018-12-01 07:00:00,0.14608333333333,0.12023333333333,0.1065,0.10305,0.09295,0.085883333333333,0.086733333333333,5,0,0,0,0,0,0,0,0,0,0,0,0,0,0,0,0,0,0,0,0,0,0,0,0,0,0,0,0,0,0,0,0,0,0,0,0,0,0,0,0,0,0
COM6,0508,01-Dec-18,2018-12-01 08:00:00,0.1902,0.16468333333333,0.14901666666667,0.14291666666667,0.1309,0.1178,0.11901666666667,5,0,0,0,0,0,0,0,0,0,0,0,0,0,0,0,0,0,0,0,0,0,0,0,0,0,0,0,0,0,0,0,0,0,0,0,0,0,0,0,0,0,0
COM6,0508,01-Dec-18,2018-12-01 09:00:00,0.18166666666667,0.15485,0.13936666666667,0.13336666666667,0.12155,0.1071,0.10946666666667,5,0,0,0,0,0,0,0,0,0,0,0,0,0,0,0,0,0,0,0,0,0,0,0,0,0,0,0,0,0,0,0,0,0,0,0,0,0,0,0,0,0,0
COM6,0508,01-Dec-18,2018-12-01 10:00:00,0.23136666666667,0.19315,0.17741666666667,0.16701666666667,0.16145,0.14351666666667,0.14816666666667,5,0,0,0,0,0,0,0,0,0,0,0,0,0,0,0,0,0,0,0,0,0,0,0,0,0,0,0,0,0,0,0,0,0,0,0,0,0,0,0,0,0,0
COM6,0508,01-Dec-18,2018-12-01 11:00:00,0.19468333333333,0.16468333333333,0.15053333333333,0.14068333333333,0.13508333333333,0.11768333333333,0.1217,5,0,0,0,0,0,0,0,0,0,0,0,0,0,0,0,0,0,0,0,0,0,0,0,0,0,0,0,0,0,0,0,0,0,0,0,0,0,0,0,0,0,0
COM6,0508,01-Dec-18,2018-12-01 12:00:00,0.28173333333333,0.25065,0.23126666666667,0.22293333333333,0.21246666666667,0.19393333333333,0.2001,5,0,0,0,0,0,0,0,0,0,0,0,0,0,0,0,0,0,0,0,0,0,0,0,0,0,0,0,0,0,0,0,0,0,0,0,0,0,0,0,0,0,0
COM6,0508,01-Dec-18,2018-12-01 13:00:00,0.2979,0.26796666666667,0.24856666666667,0.2387,0.22656666666667,0.20666666666667,0.21203333333333,5,0,0,0,0,0,0,0,0,0,0,0,0,0,0,0,0,0,0,0,0,0,0,0,0,0,0,0,0,0,0,0,0,0,0,0,0,0,0,0,0,0,0
COM6,0508,01-Dec-18,2018-12-01 14:00:00,0.28836666666667,0.2547,0.23481666666667,0.22411666666667,0.2159,0.195,0.2008,5,0,0,0,0,0,0,0,0,0,0,0,0,0,0,0,0,0,0,0,0,0,0,0,0,0,0,0,0,0,0,0,0,0,0,0,0,0,0,0,0,0,0
COM6,0508,01-Dec-18,2018-12-01 15:00:00,0.26183333333333,0.22725,0.20903333333333,0.2014,0.19193333333333,0.17426666666667,0.181,5,0,0,0,0,0,0,0,0,0,0,0,0,0,0,0,0,0,0,0,0,0,0,0,0,0,0,0,0,0,0,0,0,0,0,0,0,0,0,0,0,0,0
COM6,0508,01-Dec-18,2018-12-01 16:00:00,0.28353333333333,0.2371,0.21653333333333,0.20611666666667,0.1946,0.17651666666667,0.18108333333333,5,0,0,0,0,0,0,0,0,0,0,0,0,0,0,0,0,0,0,0,0,0,0,0,0,0,0,0,0,0,0,0,0,0,0,0,0,0,0,0,0,0,0
COM6,0508,01-Dec-18,2018-12-01 17:00:00,0.42151666666667,0.33721666666667,0.30381666666667,0.28675,0.26948333333333,0.2431,0.24915,5,0,0,0,0,0,0,0,0,0,0,0,0,0,0,0,0,0,0,0,0,0,0,0,0,0,0,0,0,0,0,0,0,0,0,0,0,0,0,0,0,0,0
COM6,0508,01-Dec-18,2018-12-01 18:00:00,0.45475,0.34371666666667,0.30481666666667,0.28646666666667,0.26331666666667,0.23348333333333,0.23663333333333,5,0,0,0,0,0,0,0,0,0,0,0,0,0,0,0,0,0,0,0,0,0,0,0,0,0,0,0,0,0,0,0,0,0,0,0,0,0,0,0,0,0,0
COM6,0508,01-Dec-18,2018-12-01 19:00:00,0.65801666666667,0.53155,0.48348333333333,0.46468333333333,0.43195,0.38873333333333,0.39605,5,0,0,0,0,0,0,0,0,0,0,0,0,0,0,0,0,0,0,0,0,0,0,0,0,0,0,0,0,0,0,0,0,0,0,0,0,0,0,0,0,0,0
COM6,0508,01-Dec-18,2018-12-01 20:00:00,0.25191666666667,0.2104,0.18873333333333,0.18046666666667,0.16735,0.14986666666667,0.15233333333333,5,0,0,0,0,0,0,0,0,0,0,0,0,0,0,0,0,0,0,0,0,0,0,0,0,0,0,0,0,0,0,0,0,0,0,0,0,0,0,0,0,0,0
COM6,0508,01-Dec-18,2018-12-01 21:00:00,0.19531666666667,0.16486666666667,0.1489,0.14258333333333,0.12948333333333,0.1171,0.11818333333333,5,0,0,0,0,0,0,0,0,0,0,0,0,0,0,0,0,0,0,0,0,0,0,0,0,0,0,0,0,0,0,0,0,0,0,0,0,0,0,0,0,0,0
COM6,0508,01-Dec-18,2018-12-01 22:00:00,0.18316666666667,0.15383333333333,0.1371,0.13021666666667,0.11738333333333,0.10585,0.10731666666667,5,0,0,0,0,0,0,0,0,0,0,0,0,0,0,0,0,0,0,0,0,0,0,0,0,0,0,0,0,0,0,0,0,0,0,0,0,0,0,0,0,0,0
COM6,0508,01-Dec-18,2018-12-01 23:00:00,0.12468965517241,0.11224137931034,0.099258620689655,0.098310344827586,0.085862068965517,0.07498275862069,0.07448275862069,5,0,0,0,0,0,0,0,0,0,0,0,0,0,0,0,0,0,0,0,0,0,0,0,0,0,0,0,0,0,0,0,0,0,0,0,0,0,0,0,0,0,0
