COM6,0508,26-Dec-18,2018-12-26 00:00:00,0.20474576271186,0.22235593220339,0.21110169491525,0.21284745762712,0.20159322033898,0.19493220338983,0.19983050847458,4.8,0,0,0,0,0,0,0,0,0,0,0,0,0,0,0,0,0,0,0,0,0,0,0,0,0,0,0,0,0,0,0,0,0,0,0,0,0,0,0,0,0,0
COM6,0508,26-Dec-18,2018-12-26 01:00:00,0.29625,0.28155,0.26621666666667,0.2647,0.25063333333333,0.23965,0.2448,4.8,0,0,0,0,0,0,0,0,0,0,0,0,0,0,0,0,0,0,0,0,0,0,0,0,0,0,0,0,0,0,0,0,0,0,0,0,0,0,0,0,0,0
COM6,0508,26-Dec-18,2018-12-26 02:00:00,0.25651666666667,0.23476666666667,0.2188,0.2146,0.20546666666667,0.19415,0.19866666666667,4.8,0,0,0,0,0,0,0,0,0,0,0,0,0,0,0,0,0,0,0,0,0,0,0,0,0,0,0,0,0,0,0,0,0,0,0,0,0,0,0,0,0,0
COM6,0508,26-Dec-18,2018-12-26 03:00:00,0.15246666666667,0.16443333333333,0.15871666666667,0.15938333333333,0.1526,0.14663333333333,0.1507,4.8,0,0,0,0,0,0,0,0,0,0,0,0,0,0,0,0,0,0,0,0,0,0,0,0,0,0,0,0,0,0,0,0,0,0,0,0,0,0,0,0,0,0
COM6,0508,26-Dec-18,2018-12-26 04:00:00,0.24521666666667,0.25716666666667,0.24476666666667,0.24388333333333,0.23496666666667,0.22761666666667,0.23341666666667,4.8,0,0,0,0,0,0,0,0,0,0,0,0,0,0,0,0,0,0,0,0,0,0,0,0,0,0,0,0,0,0,0,0,0,0,0,0,0,0,0,0,0,0
COM6,0508,26-Dec-18,2018-12-26 05:00:00,0.152,0.1631,0.15383333333333,0.1557,0.14755,0.14125,0.14445,4.8,0,0,0,0,0,0,0,0,0,0,0,0,0,0,0,0,0,0,0,0,0,0,0,0,0,0,0,0,0,0,0,0,0,0,0,0,0,0,0,0,0,0
COM6,0508,26-Dec-18,2018-12-26 06:00:00,0.44063333333333,0.44405,0.42226666666667,0.41968333333333,0.40205,0.38488333333333,0.39505,4.8,0,0,0,0,0,0,0,0,0,0,0,0,0,0,0,0,0,0,0,0,0,0,0,0,0,0,0,0,0,0,0,0,0,0,0,0,0,0,0,0,0,0
COM6,0508,26-Dec-18,2018-12-26 07:00:00,0.64705,0.64906666666667,0.61823333333333,0.61543333333333,0.58983333333333,0.56611666666667,0.58018333333333,4.8,0,0,0,0,0,0,0,0,0,0,0,0,0,0,0,0,0,0,0,0,0,0,0,0,0,0,0,0,0,0,0,0,0,0,0,0,0,0,0,0,0,0
COM6,0508,26-Dec-18,2018-12-26 08:00:00,0.51208333333333,0.51055,0.48446666666667,0.48175,0.45885,0.437,0.44758333333333,4.8,0,0,0,0,0,0,0,0,0,0,0,0,0,0,0,0,0,0,0,0,0,0,0,0,0,0,0,0,0,0,0,0,0,0,0,0,0,0,0,0,0,0
COM6,0508,26-Dec-18,2018-12-26 09:00:00,0.76106666666667,0.75231666666667,0.7081,0.69778333333333,0.66358333333333,0.62948333333333,0.6412,4.8,0,0,0,0,0,0,0,0,0,0,0,0,0,0,0,0,0,0,0,0,0,0,0,0,0,0,0,0,0,0,0,0,0,0,0,0,0,0,0,0,0,0
COM6,0508,26-Dec-18,2018-12-26 10:00:00,0.67546666666667,0.67296666666667,0.6382,0.62968333333333,0.60138333333333,0.56896666666667,0.58213333333333,4.8,0,0,0,0,0,0,0,0,0,0,0,0,0,0,0,0,0,0,0,0,0,0,0,0,0,0,0,0,0,0,0,0,0,0,0,0,0,0,0,0,0,0
COM6,0508,26-Dec-18,2018-12-26 11:00:00,0.55271666666667,0.56211666666667,0.5387,0.53135,0.511,0.48276666666667,0.49453333333333,4.8,0,0,0,0,0,0,0,0,0,0,0,0,0,0,0,0,0,0,0,0,0,0,0,0,0,0,0,0,0,0,0,0,0,0,0,0,0,0,0,0,0,0
COM6,0508,26-Dec-18,2018-12-26 12:00:00,0.6869,0.68113333333333,0.64736666666667,0.63561666666667,0.61428333333333,0.57561666666667,0.59046666666667,4.8,0,0,0,0,0,0,0,0,0,0,0,0,0,0,0,0,0,0,0,0,0,0,0,0,0,0,0,0,0,0,0,0,0,0,0,0,0,0,0,0,0,0
COM6,0508,26-Dec-18,2018-12-26 13:00:00,0.41265,0.40968333333333,0.39216666666667,0.38411666666667,0.37403333333333,0.3489,0.36031666666667,4.8,0,0,0,0,0,0,0,0,0,0,0,0,0,0,0,0,0,0,0,0,0,0,0,0,0,0,0,0,0,0,0,0,0,0,0,0,0,0,0,0,0,0
COM6,0508,26-Dec-18,2018-12-26 14:00:00,0.33906666666667,0.34835,0.33248333333333,0.32433333333333,0.31418333333333,0.29043333333333,0.30053333333333,4.8,0,0,0,0,0,0,0,0,0,0,0,0,0,0,0,0,0,0,0,0,0,0,0,0,0,0,0,0,0,0,0,0,0,0,0,0,0,0,0,0,0,0
COM6,0508,26-Dec-18,2018-12-26 15:00:00,0.23393333333333,0.23766666666667,0.22696666666667,0.219,0.214,0.19688333333333,0.20226666666667,4.8,0,0,0,0,0,0,0,0,0,0,0,0,0,0,0,0,0,0,0,0,0,0,0,0,0,0,0,0,0,0,0,0,0,0,0,0,0,0,0,0,0,0
COM6,0508,26-Dec-18,2018-12-26 16:00:00,0.32495,0.31753333333333,0.29926666666667,0.28951666666667,0.2793,0.25888333333333,0.26703333333333,4.8,0,0,0,0,0,0,0,0,0,0,0,0,0,0,0,0,0,0,0,0,0,0,0,0,0,0,0,0,0,0,0,0,0,0,0,0,0,0,0,0,0,0
COM6,0508,26-Dec-18,2018-12-26 17:00:00,0.23691666666667,0.22431666666667,0.20761666666667,0.199,0.19276666666667,0.17526666666667,0.18211666666667,4.8,0,0,0,0,0,0,0,0,0,0,0,0,0,0,0,0,0,0,0,0,0,0,0,0,0,0,0,0,0,0,0,0,0,0,0,0,0,0,0,0,0,0
COM6,0508,26-Dec-18,2018-12-26 18:00:00,0.13478333333333,0.12993333333333,0.12195,0.12018333333333,0.11063333333333,0.10176666666667,0.10281666666667,4.8,0,0,0,0,0,0,0,0,0,0,0,0,0,0,0,0,0,0,0,0,0,0,0,0,0,0,0,0,0,0,0,0,0,0,0,0,0,0,0,0,0,0
COM6,0508,26-Dec-18,2018-12-26 19:00:00,0.12348333333333,0.12733333333333,0.11966666666667,0.12078333333333,0.10905,0.10581666666667,0.10743333333333,4.8,0,0,0,0,0,0,0,0,0,0,0,0,0,0,0,0,0,0,0,0,0,0,0,0,0,0,0,0,0,0,0,0,0,0,0,0,0,0,0,0,0,0
COM6,0508,26-Dec-18,2018-12-26 20:00:00,0.346,0.3017,0.27718333333333,0.27683333333333,0.25296666666667,0.23353333333333,0.23431666666667,4.8,0,0,0,0,0,0,0,0,0,0,0,0,0,0,0,0,0,0,0,0,0,0,0,0,0,0,0,0,0,0,0,0,0,0,0,0,0,0,0,0,0,0
COM6,0508,26-Dec-18,2018-12-26 21:00:00,0.51768333333333,0.42805,0.39225,0.38511666666667,0.35436666666667,0.32956666666667,0.33345,4.8,0,0,0,0,0,0,0,0,0,0,0,0,0,0,0,0,0,0,0,0,0,0,0,0,0,0,0,0,0,0,0,0,0,0,0,0,0,0,0,0,0,0
COM6,0508,26-Dec-18,2018-12-26 22:00:00,0.34003333333333,0.27971666666667,0.25525,0.24695,0.2235,0.2014,0.20171666666667,4.8,0,0,0,0,0,0,0,0,0,0,0,0,0,0,0,0,0,0,0,0,0,0,0,0,0,0,0,0,0,0,0,0,0,0,0,0,0,0,0,0,0,0
COM6,0508,26-Dec-18,2018-12-26 23:00:00,0.1745,0.17136206896552,0.15424137931034,0.15303448275862,0.13481034482759,0.1233275862069,0.12479310344828,4.8,0,0,0,0,0,0,0,0,0,0,0,0,0,0,0,0,0,0,0,0,0,0,0,0,0,0,0,0,0,0,0,0,0,0,0,0,0,0,0,0,0,0
