COM6,0508,18-Dec-18,2018-12-18 00:00:00,0.20586440677966,35.852593220339,5.4444406779661,2.8445593220339,1.654813559322,0.86732203389831,0.82206779661017,4.2,0,0,0,0,0,0,0,0,0,0,0,0,0,0,0,0,0,0,0,0,0,0,0,0,0,0,0,0,0,0,0,0,0,0,0,0,0,0,0,0,0,0
COM6,0508,18-Dec-18,2018-12-18 01:00:00,0.15496666666667,29.785266666667,4.0836666666667,2.1015833333333,1.2404666666667,0.6471,0.61253333333333,4.2,0,0,0,0,0,0,0,0,0,0,0,0,0,0,0,0,0,0,0,0,0,0,0,0,0,0,0,0,0,0,0,0,0,0,0,0,0,0,0,0,0,0
COM6,0508,18-Dec-18,2018-12-18 02:00:00,1.2003666666667,16.04665,2.99015,2.0270666666667,1.5660666666667,1.2349,1.2484333333333,4.2233333333333,0,0,0,0,0,0,0,0,0,0,0,0,0,0,0,0,0,0,0,0,0,0,0,0,0,0,0,0,0,0,0,0,0,0,0,0,0,0,0,0,0,0
COM6,0508,18-Dec-18,2018-12-18 03:00:00,2.15905,2.4306666666667,2.2903166666667,2.24315,2.158,2.0358333333333,2.0897,4.9,0,0,0,0,0,0,0,0,0,0,0,0,0,0,0,0,0,0,0,0,0,0,0,0,0,0,0,0,0,0,0,0,0,0,0,0,0,0,0,0,0,0
COM6,0508,18-Dec-18,2018-12-18 04:00:00,1.8769166666667,2.5369166666667,2.3748166666667,2.3127833333333,2.20305,2.04235,2.0892333333333,4.9,0,0,0,0,0,0,0,0,0,0,0,0,0,0,0,0,0,0,0,0,0,0,0,0,0,0,0,0,0,0,0,0,0,0,0,0,0,0,0,0,0,0
COM6,0508,18-Dec-18,2018-12-18 05:00:00,1.69865,2.5370166666667,2.3552166666667,2.27775,2.14565,1.9522333333333,1.9905,4.9,0,0,0,0,0,0,0,0,0,0,0,0,0,0,0,0,0,0,0,0,0,0,0,0,0,0,0,0,0,0,0,0,0,0,0,0,0,0,0,0,0,0
COM6,0508,18-Dec-18,2018-12-18 06:00:00,1.74425,2.81165,2.5792666666667,2.4707833333333,2.30255,2.0531166666667,2.0866166666667,4.9,0,0,0,0,0,0,0,0,0,0,0,0,0,0,0,0,0,0,0,0,0,0,0,0,0,0,0,0,0,0,0,0,0,0,0,0,0,0,0,0,0,0
COM6,0508,18-Dec-18,2018-12-18 07:00:00,2.3505689655172,3.050224137931,2.8151724137931,2.7068103448276,2.5484310344828,2.3217586206897,2.3741379310345,4.2,0,0,0,0,0,0,0,0,0,0,0,0,0,0,0,0,0,0,0,0,0,0,0,0,0,0,0,0,0,0,0,0,0,0,0,0,0,0,0,0,0,0
COM6,0508,18-Dec-18,2018-12-18 08:00:00,3.8047666666667,4.18785,3.95585,3.8755833333333,3.7272333333333,3.51,3.60115,4.9,0,0,0,0,0,0,0,0,0,0,0,0,0,0,0,0,0,0,0,0,0,0,0,0,0,0,0,0,0,0,0,0,0,0,0,0,0,0,0,0,0,0
COM6,0508,18-Dec-18,2018-12-18 09:00:00,4.0434666666667,5.1453666666667,4.8043333333333,4.6680833333333,4.4211166666667,4.06545,4.1544166666667,4.9,0,0,0,0,0,0,0,0,0,0,0,0,0,0,0,0,0,0,0,0,0,0,0,0,0,0,0,0,0,0,0,0,0,0,0,0,0,0,0,0,0,0
COM6,0508,18-Dec-18,2018-12-18 10:00:00,3.5158,4.7834333333333,4.3797833333333,4.1966333333333,3.90675,3.4981166666667,3.5608166666667,4.85,0,0,0,0,0,0,0,0,0,0,0,0,0,0,0,0,0,0,0,0,0,0,0,0,0,0,0,0,0,0,0,0,0,0,0,0,0,0,0,0,0,0
COM6,0508,18-Dec-18,2018-12-18 11:00:00,2.4935333333333,3.5138333333333,3.1863833333333,3.0405666666667,2.7941166666667,2.4555166666667,2.49245,4.8,0,0,0,0,0,0,0,0,0,0,0,0,0,0,0,0,0,0,0,0,0,0,0,0,0,0,0,0,0,0,0,0,0,0,0,0,0,0,0,0,0,0
COM6,0508,18-Dec-18,2018-12-18 12:00:00,1.6704833333333,2.3512333333333,2.1114166666667,1.9982833333333,1.8226166666667,1.58905,1.6101833333333,4.8,0,0,0,0,0,0,0,0,0,0,0,0,0,0,0,0,0,0,0,0,0,0,0,0,0,0,0,0,0,0,0,0,0,0,0,0,0,0,0,0,0,0
COM6,0508,18-Dec-18,2018-12-18 13:00:00,1.3818333333333,1.9330833333333,1.7250666666667,1.6241333333333,1.4823333333333,1.28485,1.3043166666667,4.8,0,0,0,0,0,0,0,0,0,0,0,0,0,0,0,0,0,0,0,0,0,0,0,0,0,0,0,0,0,0,0,0,0,0,0,0,0,0,0,0,0,0
COM6,0508,18-Dec-18,2018-12-18 14:00:00,1.7211166666667,2.3773833333333,2.1237833333333,2.0022333333333,1.8259,1.5805,1.6040833333333,4.78,0,0,0,0,0,0,0,0,0,0,0,0,0,0,0,0,0,0,0,0,0,0,0,0,0,0,0,0,0,0,0,0,0,0,0,0,0,0,0,0,0,0
COM6,0508,18-Dec-18,2018-12-18 15:00:00,2.0410666666667,2.7267333333333,2.4311,2.2909666666667,2.0846166666667,1.8014166666667,1.8277,4.7,0,0,0,0,0,0,0,0,0,0,0,0,0,0,0,0,0,0,0,0,0,0,0,0,0,0,0,0,0,0,0,0,0,0,0,0,0,0,0,0,0,0
COM6,0508,18-Dec-18,2018-12-18 16:00:00,2.43295,3.1147166666667,2.7796666666667,2.61935,2.3916333333333,2.0761333333333,2.1080166666667,4.7,0,0,0,0,0,0,0,0,0,0,0,0,0,0,0,0,0,0,0,0,0,0,0,0,0,0,0,0,0,0,0,0,0,0,0,0,0,0,0,0,0,0
COM6,0508,18-Dec-18,2018-12-18 17:00:00,2.2461666666667,2.7193,2.4309333333333,2.2989166666667,2.10285,1.8345166666667,1.86615,4.7,0,0,0,0,0,0,0,0,0,0,0,0,0,0,0,0,0,0,0,0,0,0,0,0,0,0,0,0,0,0,0,0,0,0,0,0,0,0,0,0,0,0
COM6,0508,18-Dec-18,2018-12-18 18:00:00,2.7765166666667,3.0711833333333,2.7374,2.5825666666667,2.3629833333333,2.06495,2.1035666666667,4.7,0,0,0,0,0,0,0,0,0,0,0,0,0,0,0,0,0,0,0,0,0,0,0,0,0,0,0,0,0,0,0,0,0,0,0,0,0,0,0,0,0,0
COM6,0508,18-Dec-18,2018-12-18 19:00:00,3.7972166666667,3.80455,3.41525,3.2518833333333,3.0013,2.6644666666667,2.7206666666667,4.7,0,0,0,0,0,0,0,0,0,0,0,0,0,0,0,0,0,0,0,0,0,0,0,0,0,0,0,0,0,0,0,0,0,0,0,0,0,0,0,0,0,0
COM6,0508,18-Dec-18,2018-12-18 20:00:00,3.6148666666667,3.2559666666667,3.0077166666667,2.9088,2.7538333333333,2.5483166666667,2.6209666666667,4.4733333333333,0,0,0,0,0,0,0,0,0,0,0,0,0,0,0,0,0,0,0,0,0,0,0,0,0,0,0,0,0,0,0,0,0,0,0,0,0,0,0,0,0,0
COM6,0508,18-Dec-18,2018-12-18 21:00:00,2.9748666666667,2.8004333333333,2.6509333333333,2.6032666666667,2.5183166666667,2.4111166666667,2.4832666666667,4.9,0,0,0,0,0,0,0,0,0,0,0,0,0,0,0,0,0,0,0,0,0,0,0,0,0,0,0,0,0,0,0,0,0,0,0,0,0,0,0,0,0,0
COM6,0508,18-Dec-18,2018-12-18 22:00:00,2.8333666666667,2.69745,2.5588333333333,2.51725,2.4339166666667,2.3352166666667,2.4061333333333,4.9,0,0,0,0,0,0,0,0,0,0,0,0,0,0,0,0,0,0,0,0,0,0,0,0,0,0,0,0,0,0,0,0,0,0,0,0,0,0,0,0,0,0
COM6,0508,18-Dec-18,2018-12-18 23:00:00,2.2268965517241,2.1601896551724,2.0612931034483,2.0370517241379,1.9715,1.9061379310345,1.9649655172414,4.9,0,0,0,0,0,0,0,0,0,0,0,0,0,0,0,0,0,0,0,0,0,0,0,0,0,0,0,0,0,0,0,0,0,0,0,0,0,0,0,0,0,0
