COM6,0508,17-Dec-18,2018-12-17 00:00:00,0.25006779661017,1.4308305084746,1.2185423728814,1.0692711864407,0.87086440677966,0.60406779661017,0.59040677966102,4.4,0,0,0,0,0,0,0,0,0,0,0,0,0,0,0,0,0,0,0,0,0,0,0,0,0,0,0,0,0,0,0,0,0,0,0,0,0,0,0,0,0,0
COM6,0508,17-Dec-18,2018-12-17 01:00:00,0.26743333333333,1.7277,1.4392,1.27685,1.0099833333333,0.70378333333333,0.68406666666667,4.4,0,0,0,0,0,0,0,0,0,0,0,0,0,0,0,0,0,0,0,0,0,0,0,0,0,0,0,0,0,0,0,0,0,0,0,0,0,0,0,0,0,0
COM6,0508,17-Dec-18,2018-12-17 02:00:00,0.13685,1.0457166666667,0.86255,0.76143333333333,0.57906666666667,0.40281666666667,0.38441666666667,4.4,0,0,0,0,0,0,0,0,0,0,0,0,0,0,0,0,0,0,0,0,0,0,0,0,0,0,0,0,0,0,0,0,0,0,0,0,0,0,0,0,0,0
COM6,0508,17-Dec-18,2018-12-17 03:00:00,0.077733333333333,0.71335,0.56476666666667,0.51428333333333,0.37561666666667,0.26063333333333,0.24728333333333,4.4,0,0,0,0,0,0,0,0,0,0,0,0,0,0,0,0,0,0,0,0,0,0,0,0,0,0,0,0,0,0,0,0,0,0,0,0,0,0,0,0,0,0
COM6,0508,17-Dec-18,2018-12-17 04:00:00,0.22611666666667,1.7835,1.44485,1.2400666666667,0.96405,0.65586666666667,0.63168333333333,4.4,0,0,0,0,0,0,0,0,0,0,0,0,0,0,0,0,0,0,0,0,0,0,0,0,0,0,0,0,0,0,0,0,0,0,0,0,0,0,0,0,0,0
COM6,0508,17-Dec-18,2018-12-17 05:00:00,0.23006666666667,1.9043166666667,1.5249166666667,1.2897,0.98833333333333,0.65846666666667,0.63683333333333,4.4,0,0,0,0,0,0,0,0,0,0,0,0,0,0,0,0,0,0,0,0,0,0,0,0,0,0,0,0,0,0,0,0,0,0,0,0,0,0,0,0,0,0
COM6,0508,17-Dec-18,2018-12-17 06:00:00,0.18805,1.6712,1.3137166666667,1.1040333333333,0.84108333333333,0.55238333333333,0.5345,4.4,0,0,0,0,0,0,0,0,0,0,0,0,0,0,0,0,0,0,0,0,0,0,0,0,0,0,0,0,0,0,0,0,0,0,0,0,0,0,0,0,0,0
COM6,0508,17-Dec-18,2018-12-17 07:00:00,0.29993333333333,2.8707333333333,2.2406833333333,1.8237833333333,1.3996833333333,0.90443333333333,0.87756666666667,4.4,0,0,0,0,0,0,0,0,0,0,0,0,0,0,0,0,0,0,0,0,0,0,0,0,0,0,0,0,0,0,0,0,0,0,0,0,0,0,0,0,0,0
COM6,0508,17-Dec-18,2018-12-17 08:00:00,0.44725,4.8995666666667,3.7113333333333,2.9452833333333,2.2354,1.4198333333333,1.3787166666667,4.4,0,0,0,0,0,0,0,0,0,0,0,0,0,0,0,0,0,0,0,0,0,0,0,0,0,0,0,0,0,0,0,0,0,0,0,0,0,0,0,0,0,0
COM6,0508,17-Dec-18,2018-12-17 09:00:00,0.44431666666667,6.09245,4.5281,3.5293833333333,2.61365,1.6181833333333,1.5652333333333,4.4,0,0,0,0,0,0,0,0,0,0,0,0,0,0,0,0,0,0,0,0,0,0,0,0,0,0,0,0,0,0,0,0,0,0,0,0,0,0,0,0,0,0
COM6,0508,17-Dec-18,2018-12-17 10:00:00,0.21641666666667,3.69735,2.7009333333333,2.06955,1.5122333333333,0.90576666666667,0.8706,4.3516666666667,0,0,0,0,0,0,0,0,0,0,0,0,0,0,0,0,0,0,0,0,0,0,0,0,0,0,0,0,0,0,0,0,0,0,0,0,0,0,0,0,0,0
COM6,0508,17-Dec-18,2018-12-17 11:00:00,0.35605,6.5598833333333,4.6059166666667,3.4315666666667,2.4477666666667,1.43805,1.3849166666667,4.3,0,0,0,0,0,0,0,0,0,0,0,0,0,0,0,0,0,0,0,0,0,0,0,0,0,0,0,0,0,0,0,0,0,0,0,0,0,0,0,0,0,0
COM6,0508,17-Dec-18,2018-12-17 12:00:00,0.3787,7.9369,5.15745,3.641,2.5607666666667,1.4595833333333,1.4073833333333,4.3,0,0,0,0,0,0,0,0,0,0,0,0,0,0,0,0,0,0,0,0,0,0,0,0,0,0,0,0,0,0,0,0,0,0,0,0,0,0,0,0,0,0
COM6,0508,17-Dec-18,2018-12-17 13:00:00,0.19585,4.6292833333333,2.89555,1.9736333333333,1.3742333333333,0.75421666666667,0.72703333333333,4.3,0,0,0,0,0,0,0,0,0,0,0,0,0,0,0,0,0,0,0,0,0,0,0,0,0,0,0,0,0,0,0,0,0,0,0,0,0,0,0,0,0,0
COM6,0508,17-Dec-18,2018-12-17 14:00:00,0.14905,3.8575833333333,2.2773666666667,1.5313333333333,1.0398833333333,0.55788333333333,0.53501666666667,4.3,0,0,0,0,0,0,0,0,0,0,0,0,0,0,0,0,0,0,0,0,0,0,0,0,0,0,0,0,0,0,0,0,0,0,0,0,0,0,0,0,0,0
COM6,0508,17-Dec-18,2018-12-17 15:00:00,0.23188333333333,6.4530666666667,3.6036,2.3703,1.58145,0.86366666666667,0.82701666666667,4.3,0,0,0,0,0,0,0,0,0,0,0,0,0,0,0,0,0,0,0,0,0,0,0,0,0,0,0,0,0,0,0,0,0,0,0,0,0,0,0,0,0,0
COM6,0508,17-Dec-18,2018-12-17 16:00:00,0.2716,8.7421333333333,4.5124333333333,2.9106833333333,1.8954666666667,1.0288,0.98243333333333,4.3,0,0,0,0,0,0,0,0,0,0,0,0,0,0,0,0,0,0,0,0,0,0,0,0,0,0,0,0,0,0,0,0,0,0,0,0,0,0,0,0,0,0
COM6,0508,17-Dec-18,2018-12-17 17:00:00,0.17193333333333,6.3579833333333,3.0927666666667,1.9241333333333,1.24765,0.67098333333333,0.64273333333333,4.3,0,0,0,0,0,0,0,0,0,0,0,0,0,0,0,0,0,0,0,0,0,0,0,0,0,0,0,0,0,0,0,0,0,0,0,0,0,0,0,0,0,0
COM6,0508,17-Dec-18,2018-12-17 18:00:00,0.28965,12.19275,5.406,3.3196833333333,2.09445,1.1173166666667,1.0633,4.3,0,0,0,0,0,0,0,0,0,0,0,0,0,0,0,0,0,0,0,0,0,0,0,0,0,0,0,0,0,0,0,0,0,0,0,0,0,0,0,0,0,0
COM6,0508,17-Dec-18,2018-12-17 19:00:00,0.41085,21.676216666667,8.3167666666667,4.8960833333333,3.04585,1.6058833333333,1.5347666666667,4.3,0,0,0,0,0,0,0,0,0,0,0,0,0,0,0,0,0,0,0,0,0,0,0,0,0,0,0,0,0,0,0,0,0,0,0,0,0,0,0,0,0,0
COM6,0508,17-Dec-18,2018-12-17 20:00:00,0.43656666666667,30.933366666667,9.68405,5.4710833333333,3.3359333333333,1.7534,1.6643333333333,4.295,0,0,0,0,0,0,0,0,0,0,0,0,0,0,0,0,0,0,0,0,0,0,0,0,0,0,0,0,0,0,0,0,0,0,0,0,0,0,0,0,0,0
COM6,0508,17-Dec-18,2018-12-17 21:00:00,0.34345,32.773583333333,8.1352333333333,4.4487833333333,2.6501166666667,1.3764,1.3059833333333,4.2066666666667,0,0,0,0,0,0,0,0,0,0,0,0,0,0,0,0,0,0,0,0,0,0,0,0,0,0,0,0,0,0,0,0,0,0,0,0,0,0,0,0,0,0
COM6,0508,17-Dec-18,2018-12-17 22:00:00,0.26866666666667,33.858983333333,7.0168666666667,3.75025,2.23995,1.1823,1.1232166666667,4.2,0,0,0,0,0,0,0,0,0,0,0,0,0,0,0,0,0,0,0,0,0,0,0,0,0,0,0,0,0,0,0,0,0,0,0,0,0,0,0,0,0,0
COM6,0508,17-Dec-18,2018-12-17 23:00:00,0.21562068965517,32.928,5.7020862068966,3.0215689655172,1.7687931034483,0.92844827586207,0.88239655172414,4.2,0,0,0,0,0,0,0,0,0,0,0,0,0,0,0,0,0,0,0,0,0,0,0,0,0,0,0,0,0,0,0,0,0,0,0,0,0,0,0,0,0,0
