COM6,0508,19-Feb-19,2019-02-19 00:00:00,0.33274576271186,0.30981355932203,0.29345762711864,0.28947457627119,0.27738983050847,0.26428813559322,0.27177966101695,5,0,0,0,0,0,0,0,0,0,0,0,0,0,0,0,0,0,0,0,0,0,0,0,0,0,0,0,0,0,0,0,0,0,0,0,0,0,0,0,0,0,0
COM6,0508,19-Feb-19,2019-02-19 01:00:00,0.19668333333333,0.18446666666667,0.17255,0.16968333333333,0.16265,0.15545,0.15906666666667,5,0,0,0,0,0,0,0,0,0,0,0,0,0,0,0,0,0,0,0,0,0,0,0,0,0,0,0,0,0,0,0,0,0,0,0,0,0,0,0,0,0,0
COM6,0508,19-Feb-19,2019-02-19 02:00:00,0.17776666666667,0.16566666666667,0.1558,0.15415,0.146,0.13713333333333,0.13968333333333,5,0,0,0,0,0,0,0,0,0,0,0,0,0,0,0,0,0,0,0,0,0,0,0,0,0,0,0,0,0,0,0,0,0,0,0,0,0,0,0,0,0,0
COM6,0508,19-Feb-19,2019-02-19 03:00:00,0.15576666666667,0.14483333333333,0.13585,0.13393333333333,0.12765,0.11883333333333,0.1219,5,0,0,0,0,0,0,0,0,0,0,0,0,0,0,0,0,0,0,0,0,0,0,0,0,0,0,0,0,0,0,0,0,0,0,0,0,0,0,0,0,0,0
COM6,0508,19-Feb-19,2019-02-19 04:00:00,0.18365,0.16806666666667,0.15845,0.15508333333333,0.14955,0.143,0.14608333333333,5,0,0,0,0,0,0,0,0,0,0,0,0,0,0,0,0,0,0,0,0,0,0,0,0,0,0,0,0,0,0,0,0,0,0,0,0,0,0,0,0,0,0
COM6,0508,19-Feb-19,2019-02-19 05:00:00,0.23866666666667,0.2265,0.21543333333333,0.21353333333333,0.20688333333333,0.20601666666667,0.2123,5,0,0,0,0,0,0,0,0,0,0,0,0,0,0,0,0,0,0,0,0,0,0,0,0,0,0,0,0,0,0,0,0,0,0,0,0,0,0,0,0,0,0
COM6,0508,19-Feb-19,2019-02-19 06:00:00,0.19265,0.18971666666667,0.18105,0.182,0.17591666666667,0.17226666666667,0.17711666666667,5,0,0,0,0,0,0,0,0,0,0,0,0,0,0,0,0,0,0,0,0,0,0,0,0,0,0,0,0,0,0,0,0,0,0,0,0,0,0,0,0,0,0
COM6,0508,19-Feb-19,2019-02-19 07:00:00,0.37653333333333,0.38236666666667,0.3664,0.36525,0.35595,0.34643333333333,0.35978333333333,5,0,0,0,0,0,0,0,0,0,0,0,0,0,0,0,0,0,0,0,0,0,0,0,0,0,0,0,0,0,0,0,0,0,0,0,0,0,0,0,0,0,0
COM6,0508,19-Feb-19,2019-02-19 08:00:00,0.15986666666667,0.15431666666667,0.14586666666667,0.14303333333333,0.13773333333333,0.12916666666667,0.13391666666667,5,0,0,0,0,0,0,0,0,0,0,0,0,0,0,0,0,0,0,0,0,0,0,0,0,0,0,0,0,0,0,0,0,0,0,0,0,0,0,0,0,0,0
COM6,0508,19-Feb-19,2019-02-19 09:00:00,0.18626666666667,0.17923333333333,0.16973333333333,0.16745,0.16123333333333,0.15315,0.15688333333333,5,0,0,0,0,0,0,0,0,0,0,0,0,0,0,0,0,0,0,0,0,0,0,0,0,0,0,0,0,0,0,0,0,0,0,0,0,0,0,0,0,0,0
COM6,0508,19-Feb-19,2019-02-19 10:00:00,0.12271666666667,0.11615,0.10843333333333,0.10426666666667,0.10116666666667,0.093616666666667,0.09655,5,0,0,0,0,0,0,0,0,0,0,0,0,0,0,0,0,0,0,0,0,0,0,0,0,0,0,0,0,0,0,0,0,0,0,0,0,0,0,0,0,0,0
COM6,0508,19-Feb-19,2019-02-19 11:00:00,0.13938333333333,0.12746666666667,0.11923333333333,0.11525,0.11156666666667,0.10936666666667,0.1126,5,0,0,0,0,0,0,0,0,0,0,0,0,0,0,0,0,0,0,0,0,0,0,0,0,0,0,0,0,0,0,0,0,0,0,0,0,0,0,0,0,0,0
COM6,0508,19-Feb-19,2019-02-19 12:00:00,0.17151666666667,0.16126666666667,0.15193333333333,0.14915,0.14638333333333,0.14058333333333,0.14635,5,0,0,0,0,0,0,0,0,0,0,0,0,0,0,0,0,0,0,0,0,0,0,0,0,0,0,0,0,0,0,0,0,0,0,0,0,0,0,0,0,0,0
COM6,0508,19-Feb-19,2019-02-19 13:00:00,0.12218333333333,0.11586666666667,0.11063333333333,0.10711666666667,0.10436666666667,0.098933333333333,0.10313333333333,5,0,0,0,0,0,0,0,0,0,0,0,0,0,0,0,0,0,0,0,0,0,0,0,0,0,0,0,0,0,0,0,0,0,0,0,0,0,0,0,0,0,0
COM6,0508,19-Feb-19,2019-02-19 14:00:00,0.19441666666667,0.18426666666667,0.17385,0.17141666666667,0.16503333333333,0.15788333333333,0.16128333333333,5,0,0,0,0,0,0,0,0,0,0,0,0,0,0,0,0,0,0,0,0,0,0,0,0,0,0,0,0,0,0,0,0,0,0,0,0,0,0,0,0,0,0
COM6,0508,19-Feb-19,2019-02-19 15:00:00,0.13463333333333,0.12915,0.12105,0.1182,0.1128,0.10056666666667,0.10528333333333,5,0,0,0,0,0,0,0,0,0,0,0,0,0,0,0,0,0,0,0,0,0,0,0,0,0,0,0,0,0,0,0,0,0,0,0,0,0,0,0,0,0,0
COM6,0508,19-Feb-19,2019-02-19 16:00:00,0.18895,0.18458333333333,0.17571666666667,0.17368333333333,0.16873333333333,0.16286666666667,0.1681,5,0,0,0,0,0,0,0,0,0,0,0,0,0,0,0,0,0,0,0,0,0,0,0,0,0,0,0,0,0,0,0,0,0,0,0,0,0,0,0,0,0,0
COM6,0508,19-Feb-19,2019-02-19 17:00:00,0.20631666666667,0.18778333333333,0.17645,0.17408333333333,0.1665,0.16405,0.16943333333333,5,0,0,0,0,0,0,0,0,0,0,0,0,0,0,0,0,0,0,0,0,0,0,0,0,0,0,0,0,0,0,0,0,0,0,0,0,0,0,0,0,0,0
COM6,0508,19-Feb-19,2019-02-19 18:00:00,0.091483333333333,0.088383333333333,0.081933333333333,0.079866666666667,0.075966666666667,0.0687,0.0716,5,0,0,0,0,0,0,0,0,0,0,0,0,0,0,0,0,0,0,0,0,0,0,0,0,0,0,0,0,0,0,0,0,0,0,0,0,0,0,0,0,0,0
COM6,0508,19-Feb-19,2019-02-19 19:00:00,0.17336666666667,0.16075,0.1535,0.14881666666667,0.14595,0.14361666666667,0.14711666666667,5,0,0,0,0,0,0,0,0,0,0,0,0,0,0,0,0,0,0,0,0,0,0,0,0,0,0,0,0,0,0,0,0,0,0,0,0,0,0,0,0,0,0
COM6,0508,19-Feb-19,2019-02-19 20:00:00,0.10791666666667,0.099516666666667,0.09215,0.089633333333333,0.086016666666667,0.080316666666667,0.0824,5,0,0,0,0,0,0,0,0,0,0,0,0,0,0,0,0,0,0,0,0,0,0,0,0,0,0,0,0,0,0,0,0,0,0,0,0,0,0,0,0,0,0
COM6,0508,19-Feb-19,2019-02-19 21:00:00,0.19258333333333,0.16103333333333,0.14775,0.14186666666667,0.13413333333333,0.12345,0.12736666666667,5,0,0,0,0,0,0,0,0,0,0,0,0,0,0,0,0,0,0,0,0,0,0,0,0,0,0,0,0,0,0,0,0,0,0,0,0,0,0,0,0,0,0
COM6,0508,19-Feb-19,2019-02-19 22:00:00,0.1993,0.18738333333333,0.17761666666667,0.1763,0.16825,0.15686666666667,0.16006666666667,5,0,0,0,0,0,0,0,0,0,0,0,0,0,0,0,0,0,0,0,0,0,0,0,0,0,0,0,0,0,0,0,0,0,0,0,0,0,0,0,0,0,0
COM6,0508,19-Feb-19,2019-02-19 23:00:00,0.13522807017544,0.12140350877193,0.11329824561404,0.10673684210526,0.10235087719298,0.092298245614035,0.096368421052632,5,0,0,0,0,0,0,0,0,0,0,0,0,0,0,0,0,0,0,0,0,0,0,0,0,0,0,0,0,0,0,0,0,0,0,0,0,0,0,0,0,0,0
