COM6,0508,16-Feb-19,2019-02-16 00:00:00,0.49330508474576,0.40193220338983,0.36462711864407,0.34928813559322,0.31942372881356,0.28271186440678,0.28516949152542,5,0,0,0,0,0,0,0,0,0,0,0,0,0,0,0,0,0,0,0,0,0,0,0,0,0,0,0,0,0,0,0,0,0,0,0,0,0,0,0,0,0,0
COM6,0508,16-Feb-19,2019-02-16 01:00:00,0.36816666666667,0.32848333333333,0.30188333333333,0.29438333333333,0.2719,0.2443,0.24756666666667,5,0,0,0,0,0,0,0,0,0,0,0,0,0,0,0,0,0,0,0,0,0,0,0,0,0,0,0,0,0,0,0,0,0,0,0,0,0,0,0,0,0,0
COM6,0508,16-Feb-19,2019-02-16 02:00:00,0.32293333333333,0.27793333333333,0.25018333333333,0.24116666666667,0.21981666666667,0.19108333333333,0.1927,5,0,0,0,0,0,0,0,0,0,0,0,0,0,0,0,0,0,0,0,0,0,0,0,0,0,0,0,0,0,0,0,0,0,0,0,0,0,0,0,0,0,0
COM6,0508,16-Feb-19,2019-02-16 03:00:00,0.27193333333333,0.20918333333333,0.1862,0.17271666666667,0.15458333333333,0.12425,0.12713333333333,5,0,0,0,0,0,0,0,0,0,0,0,0,0,0,0,0,0,0,0,0,0,0,0,0,0,0,0,0,0,0,0,0,0,0,0,0,0,0,0,0,0,0
COM6,0508,16-Feb-19,2019-02-16 04:00:00,0.16715,0.1353,0.11973333333333,0.11611666666667,0.10333333333333,0.08955,0.08775,5,0,0,0,0,0,0,0,0,0,0,0,0,0,0,0,0,0,0,0,0,0,0,0,0,0,0,0,0,0,0,0,0,0,0,0,0,0,0,0,0,0,0
COM6,0508,16-Feb-19,2019-02-16 05:00:00,0.23956666666667,0.20041666666667,0.18331666666667,0.17765,0.16431666666667,0.15038333333333,0.15363333333333,5,0,0,0,0,0,0,0,0,0,0,0,0,0,0,0,0,0,0,0,0,0,0,0,0,0,0,0,0,0,0,0,0,0,0,0,0,0,0,0,0,0,0
COM6,0508,16-Feb-19,2019-02-16 06:00:00,0.36506666666667,0.31056666666667,0.28015,0.26576666666667,0.24853333333333,0.22551666666667,0.22895,5,0,0,0,0,0,0,0,0,0,0,0,0,0,0,0,0,0,0,0,0,0,0,0,0,0,0,0,0,0,0,0,0,0,0,0,0,0,0,0,0,0,0
COM6,0508,16-Feb-19,2019-02-16 07:00:00,0.3391,0.28331666666667,0.25398333333333,0.24565,0.2271,0.20481666666667,0.20805,5,0,0,0,0,0,0,0,0,0,0,0,0,0,0,0,0,0,0,0,0,0,0,0,0,0,0,0,0,0,0,0,0,0,0,0,0,0,0,0,0,0,0
COM6,0508,16-Feb-19,2019-02-16 08:00:00,0.29253333333333,0.25075,0.21886666666667,0.21161666666667,0.191,0.16601666666667,0.17005,5,0,0,0,0,0,0,0,0,0,0,0,0,0,0,0,0,0,0,0,0,0,0,0,0,0,0,0,0,0,0,0,0,0,0,0,0,0,0,0,0,0,0
COM6,0508,16-Feb-19,2019-02-16 09:00:00,0.14965,0.12915,0.11933333333333,0.11471666666667,0.10166666666667,0.086016666666667,0.08685,5,0,0,0,0,0,0,0,0,0,0,0,0,0,0,0,0,0,0,0,0,0,0,0,0,0,0,0,0,0,0,0,0,0,0,0,0,0,0,0,0,0,0
COM6,0508,16-Feb-19,2019-02-16 10:00:00,0.06955,0.070533333333333,0.06125,0.060083333333333,0.051816666666667,0.050083333333333,0.050583333333333,5,0,0,0,0,0,0,0,0,0,0,0,0,0,0,0,0,0,0,0,0,0,0,0,0,0,0,0,0,0,0,0,0,0,0,0,0,0,0,0,0,0,0
COM6,0508,16-Feb-19,2019-02-16 11:00:00,0.072416666666667,0.075966666666667,0.06605,0.069666666666667,0.056716666666667,0.052016666666667,0.05245,5,0,0,0,0,0,0,0,0,0,0,0,0,0,0,0,0,0,0,0,0,0,0,0,0,0,0,0,0,0,0,0,0,0,0,0,0,0,0,0,0,0,0
COM6,0508,16-Feb-19,2019-02-16 12:00:00,0.094416666666667,0.092016666666667,0.081883333333333,0.0835,0.06755,0.062566666666667,0.06,5,0,0,0,0,0,0,0,0,0,0,0,0,0,0,0,0,0,0,0,0,0,0,0,0,0,0,0,0,0,0,0,0,0,0,0,0,0,0,0,0,0,0
COM6,0508,16-Feb-19,2019-02-16 13:00:00,0.095083333333333,0.084066666666667,0.070483333333333,0.07145,0.061316666666667,0.052616666666667,0.048383333333333,5,0,0,0,0,0,0,0,0,0,0,0,0,0,0,0,0,0,0,0,0,0,0,0,0,0,0,0,0,0,0,0,0,0,0,0,0,0,0,0,0,0,0
COM6,0508,16-Feb-19,2019-02-16 14:00:00,0.14261666666667,0.11951666666667,0.107,0.10206666666667,0.088316666666667,0.078616666666667,0.082066666666667,5,0,0,0,0,0,0,0,0,0,0,0,0,0,0,0,0,0,0,0,0,0,0,0,0,0,0,0,0,0,0,0,0,0,0,0,0,0,0,0,0,0,0
COM6,0508,16-Feb-19,2019-02-16 15:00:00,0.11938333333333,0.051633333333333,0.052483333333333,0.05085,0.0511,0.044833333333333,0.04845,4.6666666666667,0,0,0,0,0,0,0,0,0,0,0,0,0,0,0,0,0,0,0,0,0,0,0,0,0,0,0,0,0,0,0,0,0,0,0,0,0,0,0,0,0,0
COM6,0508,16-Feb-19,2019-02-16 16:00:00,0.11563333333333,0.064733333333333,0.0654,0.06565,0.063183333333333,0.063516666666667,0.064766666666667,5,0,0,0,0,0,0,0,0,0,0,0,0,0,0,0,0,0,0,0,0,0,0,0,0,0,0,0,0,0,0,0,0,0,0,0,0,0,0,0,0,0,0
COM6,0508,16-Feb-19,2019-02-16 17:00:00,0.1664,0.17676666666667,0.16988333333333,0.1693,0.16341666666667,0.15681666666667,0.16086666666667,5,0,0,0,0,0,0,0,0,0,0,0,0,0,0,0,0,0,0,0,0,0,0,0,0,0,0,0,0,0,0,0,0,0,0,0,0,0,0,0,0,0,0
COM6,0508,16-Feb-19,2019-02-16 18:00:00,0.15395,0.14645,0.13663333333333,0.13265,0.12663333333333,0.12028333333333,0.12406666666667,5,0,0,0,0,0,0,0,0,0,0,0,0,0,0,0,0,0,0,0,0,0,0,0,0,0,0,0,0,0,0,0,0,0,0,0,0,0,0,0,0,0,0
COM6,0508,16-Feb-19,2019-02-16 19:00:00,0.15326666666667,0.14621666666667,0.13681666666667,0.13378333333333,0.12825,0.11986666666667,0.12266666666667,5,0,0,0,0,0,0,0,0,0,0,0,0,0,0,0,0,0,0,0,0,0,0,0,0,0,0,0,0,0,0,0,0,0,0,0,0,0,0,0,0,0,0
COM6,0508,16-Feb-19,2019-02-16 20:00:00,0.2702,0.24543333333333,0.23016666666667,0.22365,0.2166,0.20828333333333,0.21466666666667,5,0,0,0,0,0,0,0,0,0,0,0,0,0,0,0,0,0,0,0,0,0,0,0,0,0,0,0,0,0,0,0,0,0,0,0,0,0,0,0,0,0,0
COM6,0508,16-Feb-19,2019-02-16 21:00:00,0.36738333333333,0.34638333333333,0.32813333333333,0.3223,0.31378333333333,0.30401666666667,0.31365,5,0,0,0,0,0,0,0,0,0,0,0,0,0,0,0,0,0,0,0,0,0,0,0,0,0,0,0,0,0,0,0,0,0,0,0,0,0,0,0,0,0,0
COM6,0508,16-Feb-19,2019-02-16 22:00:00,0.18856666666667,0.18078333333333,0.1711,0.16755,0.16248333333333,0.1543,0.15833333333333,5,0,0,0,0,0,0,0,0,0,0,0,0,0,0,0,0,0,0,0,0,0,0,0,0,0,0,0,0,0,0,0,0,0,0,0,0,0,0,0,0,0,0
COM6,0508,16-Feb-19,2019-02-16 23:00:00,0.44212280701754,0.40110526315789,0.37821052631579,0.37329824561404,0.36175438596491,0.34628070175439,0.35680701754386,5,0,0,0,0,0,0,0,0,0,0,0,0,0,0,0,0,0,0,0,0,0,0,0,0,0,0,0,0,0,0,0,0,0,0,0,0,0,0,0,0,0,0
