COM6,508,1/22/2019,2019-01-22 00:00:00,0.104166667,0.130383333,0.122183333,0.12585,0.113583333,0.1088,0.109316667,5,0,0,0,0,0,0,0,0,0,0,0,0,0,0,0,0,0,0,0,0,0,0,0,0,0,0,0,0,0,0,0,0,0,0,0,0,0,0,0,0,0,0
COM6,508,1/22/2019,2019-01-22 01:00:00,0.033033333,0.074283333,0.070933333,0.082683333,0.065583333,0.07225,0.068783333,5,0,0,0,0,0,0,0,0,0,0,0,0,0,0,0,0,0,0,0,0,0,0,0,0,0,0,0,0,0,0,0,0,0,0,0,0,0,0,0,0,0,0
COM6,508,1/22/2019,2019-01-22 02:00:00,0.0203,0.058833333,0.055233333,0.068816667,0.051666667,0.06125,0.0576,5,0,0,0,0,0,0,0,0,0,0,0,0,0,0,0,0,0,0,0,0,0,0,0,0,0,0,0,0,0,0,0,0,0,0,0,0,0,0,0,0,0,0
COM6,508,1/22/2019,2019-01-22 03:00:00,0.032283333,0.057816667,0.05455,0.0657,0.050083333,0.056816667,0.053333333,5,0,0,0,0,0,0,0,0,0,0,0,0,0,0,0,0,0,0,0,0,0,0,0,0,0,0,0,0,0,0,0,0,0,0,0,0,0,0,0,0,0,0
COM6,508,1/22/2019,2019-01-22 04:00:00,0.080166667,0.091633333,0.08615,0.092283333,0.07845,0.078816667,0.076783333,5,0,0,0,0,0,0,0,0,0,0,0,0,0,0,0,0,0,0,0,0,0,0,0,0,0,0,0,0,0,0,0,0,0,0,0,0,0,0,0,0,0,0
COM6,508,1/22/2019,2019-01-22 05:00:00,0.0548,0.059383333,0.055033333,0.057033333,0.04925,0.04985,0.048766667,5,0,0,0,0,0,0,0,0,0,0,0,0,0,0,0,0,0,0,0,0,0,0,0,0,0,0,0,0,0,0,0,0,0,0,0,0,0,0,0,0,0,0
COM6,508,1/22/2019,2019-01-22 06:00:00,0.139733333,0.136866667,0.127566667,0.126366667,0.1145,0.1067,0.106966667,5,0,0,0,0,0,0,0,0,0,0,0,0,0,0,0,0,0,0,0,0,0,0,0,0,0,0,0,0,0,0,0,0,0,0,0,0,0,0,0,0,0,0
COM6,508,1/22/2019,2019-01-22 07:00:00,0.193516667,0.1902,0.177516667,0.1778,0.164733333,0.15775,0.159233333,5,0,0,0,0,0,0,0,0,0,0,0,0,0,0,0,0,0,0,0,0,0,0,0,0,0,0,0,0,0,0,0,0,0,0,0,0,0,0,0,0,0,0
COM6,508,1/22/2019,2019-01-22 08:00:00,0.56295,0.551083333,0.518216667,0.51,0.48675,0.461783333,0.474333333,5,0,0,0,0,0,0,0,0,0,0,0,0,0,0,0,0,0,0,0,0,0,0,0,0,0,0,0,0,0,0,0,0,0,0,0,0,0,0,0,0,0,0
COM6,508,1/22/2019,2019-01-22 09:00:00,0.373633333,0.3853,0.365716667,0.361766667,0.34685,0.3322,0.340416667,5,0,0,0,0,0,0,0,0,0,0,0,0,0,0,0,0,0,0,0,0,0,0,0,0,0,0,0,0,0,0,0,0,0,0,0,0,0,0,0,0,0,0
COM6,508,1/22/2019,2019-01-22 10:00:00,0.8915,0.84455,0.786166667,0.767383333,0.7274,0.68295,0.699416667,5,0,0,0,0,0,0,0,0,0,0,0,0,0,0,0,0,0,0,0,0,0,0,0,0,0,0,0,0,0,0,0,0,0,0,0,0,0,0,0,0,0,0
COM6,508,1/22/2019,2019-01-22 11:00:00,1.05405,0.995416667,0.927016667,0.900133333,0.85645,0.798666667,0.8195,5,0,0,0,0,0,0,0,0,0,0,0,0,0,0,0,0,0,0,0,0,0,0,0,0,0,0,0,0,0,0,0,0,0,0,0,0,0,0,0,0,0,0
COM6,508,1/22/2019,2019-01-22 12:00:00,0.5986,0.5754,0.537066667,0.521033333,0.500433333,0.4655,0.48075,5,0,0,0,0,0,0,0,0,0,0,0,0,0,0,0,0,0,0,0,0,0,0,0,0,0,0,0,0,0,0,0,0,0,0,0,0,0,0,0,0,0,0
COM6,508,1/22/2019,2019-01-22 13:00:00,0.3209,0.316983333,0.299483333,0.291016667,0.282166667,0.2627,0.270233333,5,0,0,0,0,0,0,0,0,0,0,0,0,0,0,0,0,0,0,0,0,0,0,0,0,0,0,0,0,0,0,0,0,0,0,0,0,0,0,0,0,0,0
COM6,508,1/22/2019,2019-01-22 14:00:00,0.357816667,0.344916667,0.326983333,0.315083333,0.306066667,0.279066667,0.289,5,0,0,0,0,0,0,0,0,0,0,0,0,0,0,0,0,0,0,0,0,0,0,0,0,0,0,0,0,0,0,0,0,0,0,0,0,0,0,0,0,0,0
COM6,508,1/22/2019,2019-01-22 15:00:00,0.376416667,0.3615,0.341716667,0.329433333,0.32095,0.29545,0.305283333,5,0,0,0,0,0,0,0,0,0,0,0,0,0,0,0,0,0,0,0,0,0,0,0,0,0,0,0,0,0,0,0,0,0,0,0,0,0,0,0,0,0,0
COM6,508,1/22/2019,2019-01-22 16:00:00,0.351816667,0.341683333,0.324483333,0.313616667,0.30605,0.282566667,0.294583333,5,0,0,0,0,0,0,0,0,0,0,0,0,0,0,0,0,0,0,0,0,0,0,0,0,0,0,0,0,0,0,0,0,0,0,0,0,0,0,0,0,0,0
COM6,508,1/22/2019,2019-01-22 17:00:00,0.2266,0.234216667,0.22085,0.218066667,0.207166667,0.192566667,0.197133333,5,0,0,0,0,0,0,0,0,0,0,0,0,0,0,0,0,0,0,0,0,0,0,0,0,0,0,0,0,0,0,0,0,0,0,0,0,0,0,0,0,0,0
COM6,508,1/22/2019,2019-01-22 18:00:00,0.5748,0.526066667,0.486083333,0.477883333,0.44275,0.415333333,0.422833333,5,0,0,0,0,0,0,0,0,0,0,0,0,0,0,0,0,0,0,0,0,0,0,0,0,0,0,0,0,0,0,0,0,0,0,0,0,0,0,0,0,0,0
COM6,508,1/22/2019,2019-01-22 19:00:00,0.7243,0.598116667,0.543066667,0.532583333,0.4847,0.44785,0.451516667,5,0,0,0,0,0,0,0,0,0,0,0,0,0,0,0,0,0,0,0,0,0,0,0,0,0,0,0,0,0,0,0,0,0,0,0,0,0,0,0,0,0,0
COM6,508,1/22/2019,2019-01-22 20:00:00,0.4285,0.37735,0.34205,0.337283333,0.305233333,0.28175,0.282816667,5,0,0,0,0,0,0,0,0,0,0,0,0,0,0,0,0,0,0,0,0,0,0,0,0,0,0,0,0,0,0,0,0,0,0,0,0,0,0,0,0,0,0
COM6,508,1/22/2019,2019-01-22 21:00:00,0.405816667,0.370666667,0.339983333,0.336033333,0.310183333,0.290783333,0.294166667,5,0,0,0,0,0,0,0,0,0,0,0,0,0,0,0,0,0,0,0,0,0,0,0,0,0,0,0,0,0,0,0,0,0,0,0,0,0,0,0,0,0,0
COM6,508,1/22/2019,2019-01-22 22:00:00,0.13705,0.134133333,0.122866667,0.116233333,0.105516667,0.094766667,0.095783333,5,0,0,0,0,0,0,0,0,0,0,0,0,0,0,0,0,0,0,0,0,0,0,0,0,0,0,0,0,0,0,0,0,0,0,0,0,0,0,0,0,0,0
COM6,508,1/22/2019,2019-01-22 23:00:00,0.380864407,0.288101695,0.254169492,0.243135593,0.218745763,0.193288136,0.195169492,5,0,0,0,0,0,0,0,0,0,0,0,0,0,0,0,0,0,0,0,0,0,0,0,0,0,0,0,0,0,0,0,0,0,0,0,0,0,0,0,0,0,0
