COM4,0509,07-Dec-18,2018-12-07 00:00:00,0.57889830508475,0.5565593220339,0.53157627118644,0.52493220338983,0.50827118644068,0.48635593220339,0.49298305084746,5,0,0,0,0,0,0,0,0,0,0,0,0,0,0,0,0,0,0,0,0,0,0,0,0,0,0,0,0,0,0,0,0,0,0,0,0,0,0,0,0,0,0
COM4,0509,07-Dec-18,2018-12-07 01:00:00,0.74835,0.71388333333333,0.67786666666667,0.66915,0.64726666666667,0.62028333333333,0.6261,5,0,0,0,0,0,0,0,0,0,0,0,0,0,0,0,0,0,0,0,0,0,0,0,0,0,0,0,0,0,0,0,0,0,0,0,0,0,0,0,0,0,0
COM4,0509,07-Dec-18,2018-12-07 02:00:00,1.0074666666667,0.89993333333333,0.8436,0.82498333333333,0.79333333333333,0.75025,0.75585,5,0,0,0,0,0,0,0,0,0,0,0,0,0,0,0,0,0,0,0,0,0,0,0,0,0,0,0,0,0,0,0,0,0,0,0,0,0,0,0,0,0,0
COM4,0509,07-Dec-18,2018-12-07 03:00:00,1.2484666666667,1.1238,1.0487166666667,1.0258833333333,0.98431666666667,0.92796666666667,0.93361666666667,5,0,0,0,0,0,0,0,0,0,0,0,0,0,0,0,0,0,0,0,0,0,0,0,0,0,0,0,0,0,0,0,0,0,0,0,0,0,0,0,0,0,0
COM4,0509,07-Dec-18,2018-12-07 04:00:00,1.1690666666667,1.0447166666667,0.97186666666667,0.94366666666667,0.9029,0.83988333333333,0.84215,5,0,0,0,0,0,0,0,0,0,0,0,0,0,0,0,0,0,0,0,0,0,0,0,0,0,0,0,0,0,0,0,0,0,0,0,0,0,0,0,0,0,0
COM4,0509,07-Dec-18,2018-12-07 05:00:00,1.0727833333333,1.0111333333333,0.95016666666667,0.93433333333333,0.8989,0.85445,0.85571666666667,5,0,0,0,0,0,0,0,0,0,0,0,0,0,0,0,0,0,0,0,0,0,0,0,0,0,0,0,0,0,0,0,0,0,0,0,0,0,0,0,0,0,0
COM4,0509,07-Dec-18,2018-12-07 06:00:00,1.5047833333333,1.4152,1.3344333333333,1.3122166666667,1.2694666666667,1.2072166666667,1.20895,5,0,0,0,0,0,0,0,0,0,0,0,0,0,0,0,0,0,0,0,0,0,0,0,0,0,0,0,0,0,0,0,0,0,0,0,0,0,0,0,0,0,0
COM4,0509,07-Dec-18,2018-12-07 07:00:00,1.87805,1.7773666666667,1.6789333333333,1.6620166666667,1.6117166666667,1.5458166666667,1.5586166666667,5,0,0,0,0,0,0,0,0,0,0,0,0,0,0,0,0,0,0,0,0,0,0,0,0,0,0,0,0,0,0,0,0,0,0,0,0,0,0,0,0,0,0
COM4,0509,07-Dec-18,2018-12-07 08:00:00,1.0539666666667,0.9711,0.91,0.88573333333333,0.84931666666667,0.79655,0.80436666666667,5,0,0,0,0,0,0,0,0,0,0,0,0,0,0,0,0,0,0,0,0,0,0,0,0,0,0,0,0,0,0,0,0,0,0,0,0,0,0,0,0,0,0
COM4,0509,07-Dec-18,2018-12-07 09:00:00,0.9163,0.82808333333333,0.76643333333333,0.74108333333333,0.70936666666667,0.66151666666667,0.677,5,0,0,0,0,0,0,0,0,0,0,0,0,0,0,0,0,0,0,0,0,0,0,0,0,0,0,0,0,0,0,0,0,0,0,0,0,0,0,0,0,0,0
COM4,0509,07-Dec-18,2018-12-07 10:00:00,1.0164,0.93191666666667,0.86783333333333,0.84663333333333,0.81163333333333,0.75958333333333,0.77941666666667,5,0,0,0,0,0,0,0,0,0,0,0,0,0,0,0,0,0,0,0,0,0,0,0,0,0,0,0,0,0,0,0,0,0,0,0,0,0,0,0,0,0,0
COM4,0509,07-Dec-18,2018-12-07 11:00:00,1.1150166666667,1.0300333333333,0.95936666666667,0.93656666666667,0.90048333333333,0.8418,0.86655,5,0,0,0,0,0,0,0,0,0,0,0,0,0,0,0,0,0,0,0,0,0,0,0,0,0,0,0,0,0,0,0,0,0,0,0,0,0,0,0,0,0,0
COM4,0509,07-Dec-18,2018-12-07 12:00:00,1.0016226415094,0.90301886792453,0.8291320754717,0.80432075471698,0.76209433962264,0.70233962264151,0.71490566037736,5,0,0,0,0,0,0,0,0,0,0,0,0,0,0,0,0,0,0,0,0,0,0,0,0,0,0,0,0,0,0,0,0,0,0,0,0,0,0,0,0,0,0
COM4,0509,07-Dec-18,2018-12-07 13:00:00,1.1270169491525,1.0263898305085,0.95471186440678,0.93005084745763,0.88918644067797,0.82876271186441,0.85003389830508,5,0,0,0,0,0,0,0,0,0,0,0,0,0,0,0,0,0,0,0,0,0,0,0,0,0,0,0,0,0,0,0,0,0,0,0,0,0,0,0,0,0,0
COM4,0509,07-Dec-18,2018-12-07 14:00:00,1.0185833333333,0.94801666666667,0.88235,0.86726666666667,0.83465,0.78238333333333,0.80185,5,0,0,0,0,0,0,0,0,0,0,0,0,0,0,0,0,0,0,0,0,0,0,0,0,0,0,0,0,0,0,0,0,0,0,0,0,0,0,0,0,0,0
COM4,0509,07-Dec-18,2018-12-07 15:00:00,1.13835,1.06965,1.0043,0.98905,0.9553,0.91093333333333,0.93693333333333,5,0,0,0,0,0,0,0,0,0,0,0,0,0,0,0,0,0,0,0,0,0,0,0,0,0,0,0,0,0,0,0,0,0,0,0,0,0,0,0,0,0,0
COM4,0509,07-Dec-18,2018-12-07 16:00:00,1.2607166666667,1.1659,1.0909333333333,1.0664666666667,1.0332,0.97881666666667,1.0073,5,0,0,0,0,0,0,0,0,0,0,0,0,0,0,0,0,0,0,0,0,0,0,0,0,0,0,0,0,0,0,0,0,0,0,0,0,0,0,0,0,0,0
COM4,0509,07-Dec-18,2018-12-07 17:00:00,1.1324833333333,1.0532833333333,0.98931666666667,0.97695,0.94626666666667,0.89546666666667,0.9224,5,0,0,0,0,0,0,0,0,0,0,0,0,0,0,0,0,0,0,0,0,0,0,0,0,0,0,0,0,0,0,0,0,0,0,0,0,0,0,0,0,0,0
COM4,0509,07-Dec-18,2018-12-07 18:00:00,1.8048,1.6076,1.49445,1.4526,1.4076333333333,1.3248333333333,1.3657333333333,4.995,0,0,0,0,0,0,0,0,0,0,0,0,0,0,0,0,0,0,0,0,0,0,0,0,0,0,0,0,0,0,0,0,0,0,0,0,0,0,0,0,0,0
COM4,0509,07-Dec-18,2018-12-07 19:00:00,1.9088166666667,1.6942833333333,1.5702833333333,1.5323,1.4778333333333,1.4006166666667,1.44305,4.9016666666667,0,0,0,0,0,0,0,0,0,0,0,0,0,0,0,0,0,0,0,0,0,0,0,0,0,0,0,0,0,0,0,0,0,0,0,0,0,0,0,0,0,0
COM4,0509,07-Dec-18,2018-12-07 20:00:00,1.9218,1.6870666666667,1.5597833333333,1.5152333333333,1.4636833333333,1.3779666666667,1.4153166666667,4.9,0,0,0,0,0,0,0,0,0,0,0,0,0,0,0,0,0,0,0,0,0,0,0,0,0,0,0,0,0,0,0,0,0,0,0,0,0,0,0,0,0,0
COM4,0509,07-Dec-18,2018-12-07 21:00:00,1.6843333333333,1.48585,1.3796833333333,1.34785,1.3013,1.2289166666667,1.2630833333333,4.9,0,0,0,0,0,0,0,0,0,0,0,0,0,0,0,0,0,0,0,0,0,0,0,0,0,0,0,0,0,0,0,0,0,0,0,0,0,0,0,0,0,0
COM4,0509,07-Dec-18,2018-12-07 22:00:00,1.71975,1.52875,1.4175,1.3756666666667,1.3315666666667,1.2544666666667,1.2901833333333,4.9,0,0,0,0,0,0,0,0,0,0,0,0,0,0,0,0,0,0,0,0,0,0,0,0,0,0,0,0,0,0,0,0,0,0,0,0,0,0,0,0,0,0
COM4,0509,07-Dec-18,2018-12-07 23:00:00,1.96835,1.7155833333333,1.5768333333333,1.52835,1.47425,1.3868833333333,1.42695,4.9,0,0,0,0,0,0,0,0,0,0,0,0,0,0,0,0,0,0,0,0,0,0,0,0,0,0,0,0,0,0,0,0,0,0,0,0,0,0,0,0,0,0
