COM4,0509,09-Dec-18,2018-12-09 00:00:00,2.8304576271186,2.5748305084746,2.3939322033898,2.3396440677966,2.2567796610169,2.1156101694915,2.1709661016949,4.9,0,0,0,0,0,0,0,0,0,0,0,0,0,0,0,0,0,0,0,0,0,0,0,0,0,0,0,0,0,0,0,0,0,0,0,0,0,0,0,0,0,0
COM4,0509,09-Dec-18,2018-12-09 01:00:00,2.7618833333333,2.5044,2.3269666666667,2.2647,2.1753166666667,2.02985,2.0829666666667,4.8183333333333,0,0,0,0,0,0,0,0,0,0,0,0,0,0,0,0,0,0,0,0,0,0,0,0,0,0,0,0,0,0,0,0,0,0,0,0,0,0,0,0,0,0
COM4,0509,09-Dec-18,2018-12-09 02:00:00,3.3851833333333,2.8899333333333,2.6432166666667,2.54055,2.4284833333333,2.2275666666667,2.27525,4.8,0,0,0,0,0,0,0,0,0,0,0,0,0,0,0,0,0,0,0,0,0,0,0,0,0,0,0,0,0,0,0,0,0,0,0,0,0,0,0,0,0,0
COM4,0509,09-Dec-18,2018-12-09 03:00:00,2.6819333333333,2.2809,2.0638666666667,1.9706,1.8691166666667,1.6862166666667,1.72555,4.8,0,0,0,0,0,0,0,0,0,0,0,0,0,0,0,0,0,0,0,0,0,0,0,0,0,0,0,0,0,0,0,0,0,0,0,0,0,0,0,0,0,0
COM4,0509,09-Dec-18,2018-12-09 04:00:00,2.9033,2.4215666666667,2.1965,2.0952,1.9981333333333,1.8326,1.8747333333333,4.8,0,0,0,0,0,0,0,0,0,0,0,0,0,0,0,0,0,0,0,0,0,0,0,0,0,0,0,0,0,0,0,0,0,0,0,0,0,0,0,0,0,0
COM4,0509,09-Dec-18,2018-12-09 05:00:00,2.3796166666667,2.1502,1.9664833333333,1.88775,1.7982333333333,1.6549833333333,1.68785,4.8,0,0,0,0,0,0,0,0,0,0,0,0,0,0,0,0,0,0,0,0,0,0,0,0,0,0,0,0,0,0,0,0,0,0,0,0,0,0,0,0,0,0
COM4,0509,09-Dec-18,2018-12-09 06:00:00,1.8710833333333,1.7429666666667,1.6052833333333,1.5419,1.4748166666667,1.3616666666667,1.3926,4.72,0,0,0,0,0,0,0,0,0,0,0,0,0,0,0,0,0,0,0,0,0,0,0,0,0,0,0,0,0,0,0,0,0,0,0,0,0,0,0,0,0,0
COM4,0509,09-Dec-18,2018-12-09 07:00:00,3.0603166666667,3.08505,3.02375,3.0626,2.99435,2.8777666666667,2.9499,4.75,0,0,0,0,0,0,0,0,0,0,0,0,0,0,0,0,0,0,0,0,0,0,0,0,0,0,0,0,0,0,0,0,0,0,0
COM4,0509,09-Dec-18,2018-12-09 08:00:00,1.29785,1.2590333333333,1.2025333333333,1.203,1.1701333333333,1.1458666666667,1.1796833333333,5,0,0,0,0,0,0,0,0,0,0,0,0,0,0,0,0,0,0,0,0,0,0,0,0,0,0,0,0,0,0,0,0,0,0,0,0,0,0,0,0,0,0
COM4,0509,09-Dec-18,2018-12-09 09:00:00,1.0450833333333,1.0573,1.0121333333333,1.0107666666667,0.98086666666667,0.95558333333333,0.98163333333333,5,0,0,0,0,0,0,0,0,0,0,0,0,0,0,0,0,0,0,0,0,0,0,0,0,0,0,0,0,0,0,0,0,0,0,0,0,0,0,0,0,0,0
COM4,0509,09-Dec-18,2018-12-09 10:00:00,0.84421666666667,0.8573,0.82111666666667,0.81888333333333,0.79386666666667,0.76633333333333,0.78641666666667,5,0,0,0,0,0,0,0,0,0,0,0,0,0,0,0,0,0,0,0,0,0,0,0,0,0,0,0,0,0,0,0,0,0,0,0,0,0,0,0,0,0,0
COM4,0509,09-Dec-18,2018-12-09 11:00:00,1.0910666666667,1.1019,1.0607833333333,1.05975,1.0298333333333,1.0006333333333,1.0280833333333,5,0,0,0,0,0,0,0,0,0,0,0,0,0,0,0,0,0,0,0,0,0,0,0,0,0,0,0,0,0,0,0,0,0,0,0,0,0,0,0,0,0,0
COM4,0509,09-Dec-18,2018-12-09 12:00:00,0.93906666666667,0.94896666666667,0.91696666666667,0.91966666666667,0.89723333333333,0.87448333333333,0.90016666666667,5,0,0,0,0,0,0,0,0,0,0,0,0,0,0,0,0,0,0,0,0,0,0,0,0,0,0,0,0,0,0,0,0,0,0,0,0,0,0,0,0,0,0
COM4,0509,09-Dec-18,2018-12-09 13:00:00,0.72341666666667,0.72246666666667,0.6997,0.7007,0.68283333333333,0.66305,0.68325,5,0,0,0,0,0,0,0,0,0,0,0,0,0,0,0,0,0,0,0,0,0,0,0,0,0,0,0,0,0,0,0,0,0,0,0,0,0,0,0,0,0,0
COM4,0509,09-Dec-18,2018-12-09 14:00:00,0.79381666666667,0.79863333333333,0.77561666666667,0.77803333333333,0.76031666666667,0.73976666666667,0.76231666666667,5,0,0,0,0,0,0,0,0,0,0,0,0,0,0,0,0,0,0,0,0,0,0,0,0,0,0,0,0,0,0,0,0,0,0,0,0,0,0,0,0,0,0
COM4,0509,09-Dec-18,2018-12-09 15:00:00,0.8082,0.81138333333333,0.78711666666667,0.78825,0.77015,0.7467,0.76968333333333,5,0,0,0,0,0,0,0,0,0,0,0,0,0,0,0,0,0,0,0,0,0,0,0,0,0,0,0,0,0,0,0,0,0,0,0,0,0,0,0,0,0,0
COM4,0509,09-Dec-18,2018-12-09 16:00:00,0.72053333333333,0.68603333333333,0.65541666666667,0.64935,0.62901666666667,0.60035,0.61758333333333,5,0,0,0,0,0,0,0,0,0,0,0,0,0,0,0,0,0,0,0,0,0,0,0,0,0,0,0,0,0,0,0,0,0,0,0,0,0,0,0,0,0,0
COM4,0509,09-Dec-18,2018-12-09 17:00:00,0.96965,0.91513333333333,0.87115,0.86313333333333,0.83358333333333,0.79891666666667,0.82191666666667,5,0,0,0,0,0,0,0,0,0,0,0,0,0,0,0,0,0,0,0,0,0,0,0,0,0,0,0,0,0,0,0,0,0,0,0,0,0,0,0,0,0,0
COM4,0509,09-Dec-18,2018-12-09 18:00:00,1.5010833333333,1.3893166666667,1.3082833333333,1.2878333333333,1.2349833333333,1.16505,1.1958833333333,5,0,0,0,0,0,0,0,0,0,0,0,0,0,0,0,0,0,0,0,0,0,0,0,0,0,0,0,0,0,0,0,0,0,0,0,0,0,0,0,0,0,0
COM4,0509,09-Dec-18,2018-12-09 19:00:00,0.93885,0.87993333333333,0.8286,0.81371666666667,0.77938333333333,0.73388333333333,0.75248333333333,5,0,0,0,0,0,0,0,0,0,0,0,0,0,0,0,0,0,0,0,0,0,0,0,0,0,0,0,0,0,0,0,0,0,0,0,0,0,0,0,0,0,0
COM4,0509,09-Dec-18,2018-12-09 20:00:00,0.71426666666667,0.64945,0.60803333333333,0.59571666666667,0.56976666666667,0.53625,0.55045,5,0,0,0,0,0,0,0,0,0,0,0,0,0,0,0,0,0,0,0,0,0,0,0,0,0,0,0,0,0,0,0,0,0,0,0,0,0,0,0,0,0,0
COM4,0509,09-Dec-18,2018-12-09 21:00:00,0.62158333333333,0.54438333333333,0.5022,0.48598333333333,0.4593,0.42493333333333,0.43466666666667,5,0,0,0,0,0,0,0,0,0,0,0,0,0,0,0,0,0,0,0,0,0,0,0,0,0,0,0,0,0,0,0,0,0,0,0,0,0,0,0,0,0,0
COM4,0509,09-Dec-18,2018-12-09 22:00:00,0.8448,0.7538,0.69628333333333,0.67333333333333,0.63561666666667,0.5825,0.59676666666667,5,0,0,0,0,0,0,0,0,0,0,0,0,0,0,0,0,0,0,0,0,0,0,0,0,0,0,0,0,0,0,0,0,0,0,0,0,0,0,0,0,0,0
COM4,0509,09-Dec-18,2018-12-09 23:00:00,0.54801666666667,0.51355,0.47636666666667,0.46188333333333,0.43938333333333,0.40926666666667,0.41983333333333,5,0,0,0,0,0,0,0,0,0,0,0,0,0,0,0,0,0,0,0,0,0,0,0,0,0,0,0,0,0,0,0,0,0,0,0,0,0,0,0,0,0,0
