COM4,0509,28-Jan-19,2019-01-28 00:00:00,0.71816949152542,0.59803389830508,0.5461186440678,0.52708474576271,0.50018644067797,0.42437288135593,0.42776271186441,5,0,0,0,0,0,0,0,0,0,0,0,0,0,0,0,0,0,0,0,0,0,0,0,0,0,0,0,0,0,0,0,0,0,0,0,0,0,0,0,0,0,0
COM4,0509,28-Jan-19,2019-01-28 01:00:00,0.97130508474576,0.74035593220339,0.66349152542373,0.62930508474576,0.59196610169492,0.49483050847458,0.49930508474576,5,0,0,0,0,0,0,0,0,0,0,0,0,0,0,0,0,0,0,0,0,0,0,0,0,0,0,0,0,0,0,0,0,0,0,0,0,0,0,0,0,0,0
COM4,0509,28-Jan-19,2019-01-28 02:00:00,0.71015789473684,0.68057894736842,0.64001754385965,0.63008771929825,0.60275438596491,0.51724561403509,0.52249122807018,5,0,0,0,0,0,0,0,0,0,0,0,0,0,0,0,0,0,0,0,0,0,0,0,0,0,0,0,0,0,0,0,0,0,0,0,0,0,0,0,0,0,0
COM4,0509,28-Jan-19,2019-01-28 03:00:00,0.7609,0.69673333333333,0.65265,0.63775,0.6119,0.52133333333333,0.52528333333333,5,0,0,0,0,0,0,0,0,0,0,0,0,0,0,0,0,0,0,0,0,0,0,0,0,0,0,0,0,0,0,0,0,0,0,0,0,0,0,0,0,0,0
COM4,0509,28-Jan-19,2019-01-28 04:00:00,0.79772881355932,0.72116949152542,0.67062711864407,0.65362711864407,0.62162711864407,0.52359322033898,0.52586440677966,5,0,0,0,0,0,0,0,0,0,0,0,0,0,0,0,0,0,0,0,0,0,0,0,0,0,0,0,0,0,0,0,0,0,0,0,0,0,0,0,0,0,0
COM4,0509,28-Jan-19,2019-01-28 05:00:00,0.82810169491525,0.74220338983051,0.69083050847458,0.67489830508475,0.64310169491525,0.54354237288136,0.54516949152542,5,0,0,0,0,0,0,0,0,0,0,0,0,0,0,0,0,0,0,0,0,0,0,0,0,0,0,0,0,0,0,0,0,0,0,0,0,0,0,0,0,0,0
COM4,0509,28-Jan-19,2019-01-28 06:00:00,0.78691525423729,0.72571186440678,0.68293220338983,0.66628813559322,0.64318644067797,0.55023728813559,0.555,5,0,0,0,0,0,0,0,0,0,0,0,0,0,0,0,0,0,0,0,0,0,0,0,0,0,0,0,0,0,0,0,0,0,0,0,0,0,0,0,0,0,0
COM4,0509,28-Jan-19,2019-01-28 07:00:00,0.79238983050847,0.72559322033898,0.67686440677966,0.65901694915254,0.63272881355932,0.54240677966102,0.54727118644068,5,0,0,0,0,0,0,0,0,0,0,0,0,0,0,0,0,0,0,0,0,0,0,0,0,0,0,0,0,0,0,0,0,0,0,0,0,0,0,0,0,0,0
COM4,0509,28-Jan-19,2019-01-28 08:00:00,1.4483220338983,1.3182203389831,1.2251355932203,1.1960338983051,1.1417118644068,0.97164406779661,0.97486440677966,5,0,0,0,0,0,0,0,0,0,0,0,0,0,0,0,0,0,0,0,0,0,0,0,0,0,0,0,0,0,0,0,0,0,0,0,0,0,0,0,0,0,0
COM4,0509,28-Jan-19,2019-01-28 09:00:00,1.9677966101695,1.7136949152542,1.5276101694915,1.4434237288136,1.3610677966102,1.1425423728814,1.1453389830508,5,0,0,0,0,0,0,0,0,0,0,0,0,0,0,0,0,0,0,0,0,0,0,0,0,0,0,0,0,0,0,0,0,0,0,0,0,0,0,0,0,0,0
COM4,0509,28-Jan-19,2019-01-28 10:00:00,2.0162033898305,1.9316101694915,1.808,1.7651694915254,1.6951694915254,1.4207627118644,1.4185254237288,5,0,0,0,0,0,0,0,0,0,0,0,0,0,0,0,0,0,0,0,0,0,0,0,0,0,0,0,0,0,0,0,0,0,0,0,0,0,0,0,0,0,0
COM4,0509,28-Jan-19,2019-01-28 11:00:00,1.2066271186441,1.1674406779661,1.0975593220339,1.0760338983051,1.0386610169492,0.85966101694915,0.85430508474576,4.993220338983,0,0,0,0,0,0,0,0,0,0,0,0,0,0,0,0,0,0,0,0,0,0,0,0,0,0,0,0,0,0,0,0,0,0,0,0,0,0,0,0,0,0
COM4,0509,28-Jan-19,2019-01-28 12:00:00,1.1907833333333,1.1448166666667,1.0782333333333,1.0516,1.0111,0.8382,0.83246666666667,4.9,0,0,0,0,0,0,0,0,0,0,0,0,0,0,0,0,0,0,0,0,0,0,0,0,0,0,0,0,0,0,0,0,0,0,0,0,0,0,0,0,0,0
COM4,0509,28-Jan-19,2019-01-28 13:00:00,0.20941666666667,0.24396666666667,0.2292,0.22305,0.2085,0.16666666666667,0.16361666666667,4.9,0,0,0,0,0,0,0,0,0,0,0,0,0,0,0,0,0,0,0,0,0,0,0,0,0,0,0,0,0,0,0,0,0,0,0,0,0,0,0,0,0,0
COM4,0509,28-Jan-19,2019-01-28 14:00:00,-0.044385964912281,-0.025754385964912,-0.031140350877193,-0.038929824561404,-0.045631578947368,-0.05419298245614,-0.049070175438596,4.9,0,0,0,0,0,0,0,0,0,0,0,0,0,0,0,0,0,0,0,0,0,0,0,0,0,0,0,0,0,0,0,0,0,0,0,0,0,0,0,0,0,0
COM4,0509,28-Jan-19,2019-01-28 15:00:00,0.238,0.22701694915254,0.20584745762712,0.19076271186441,0.17527118644068,0.13261016949153,0.13127118644068,4.9,0,0,0,0,0,0,0,0,0,0,0,0,0,0,0,0,0,0,0,0,0,0,0,0,0,0,0,0,0,0,0,0,0,0,0,0,0,0,0,0,0,0
COM4,0509,28-Jan-19,2019-01-28 16:00:00,0.13862711864407,0.14635593220339,0.13422033898305,0.12225423728814,0.10961016949153,0.076084745762712,0.077694915254237,4.9,0,0,0,0,0,0,0,0,0,0,0,0,0,0,0,0,0,0,0,0,0,0,0,0,0,0,0,0,0,0,0,0,0,0,0,0,0,0,0,0,0,0
COM4,0509,28-Jan-19,2019-01-28 17:00:00,0.44993220338983,0.42408474576271,0.38120338983051,0.35638983050847,0.33242372881356,0.27350847457627,0.26952542372881,4.9,0,0,0,0,0,0,0,0,0,0,0,0,0,0,0,0,0,0,0,0,0,0,0,0,0,0,0,0,0,0,0,0,0,0,0,0,0,0,0,0,0,0
COM4,0509,28-Jan-19,2019-01-28 18:00:00,1.4489661016949,1.2276949152542,1.1116271186441,1.0640677966102,0.99798305084746,0.83808474576271,0.82581355932203,4.9,0,0,0,0,0,0,0,0,0,0,0,0,0,0,0,0,0,0,0,0,0,0,0,0,0,0,0,0,0,0,0,0,0,0,0,0,0,0,0,0,0,0
COM4,0509,28-Jan-19,2019-01-28 19:00:00,0.94076271186441,0.76537288135593,0.68040677966102,0.63905084745763,0.59303389830508,0.48174576271186,0.47089830508475,4.9,0,0,0,0,0,0,0,0,0,0,0,0,0,0,0,0,0,0,0,0,0,0,0,0,0,0,0,0,0,0,0,0,0,0,0,0,0,0,0,0,0,0
COM4,0509,28-Jan-19,2019-01-28 20:00:00,0.46351724137931,0.32465517241379,0.26493103448276,0.21972413793103,0.18043103448276,0.11186206896552,0.10422413793103,4.9,0,0,0,0,0,0,0,0,0,0,0,0,0,0,0,0,0,0,0,0,0,0,0,0,0,0,0,0,0,0,0,0,0,0,0,0,0,0,0,0,0,0
COM4,0509,28-Jan-19,2019-01-28 21:00:00,0.89662068965517,0.69203448275862,0.59541379310345,0.54248275862069,0.4875,0.38125862068966,0.36448275862069,4.9,0,0,0,0,0,0,0,0,0,0,0,0,0,0,0,0,0,0,0,0,0,0,0,0,0,0,0,0,0,0,0,0,0,0,0,0,0,0,0,0,0,0
COM4,0509,28-Jan-19,2019-01-28 22:00:00,0.93964406779661,0.75849152542373,0.66791525423729,0.61971186440678,0.56594915254237,0.46079661016949,0.44874576271186,4.9,0,0,0,0,0,0,0,0,0,0,0,0,0,0,0,0,0,0,0,0,0,0,0,0,0,0,0,0,0,0,0,0,0,0,0,0,0,0,0,0,0,0
COM4,0509,28-Jan-19,2019-01-28 23:00:00,0.81996551724138,0.64118965517241,0.56243103448276,0.52174137931034,0.47343103448276,0.38755172413793,0.37389655172414,4.9,0,0,0,0,0,0,0,0,0,0,0,0,0,0,0,0,0,0,0,0,0,0,0,0,0,0,0,0,0,0,0,0,0,0,0,0,0,0,0,0,0,0
