COM4,0509,06-Dec-18,2018-12-06 00:00:00,0.84572881355932,0.72122033898305,0.65523728813559,0.61847457627119,0.57894915254237,0.49996610169492,0.50625423728814,5,0,0,0,0,0,0,0,0,0,0,0,0,0,0,0,0,0,0,0,0,0,0,0,0,0,0,0,0,0,0,0,0,0,0,0,0,0,0,0,0,0,0
COM4,0509,06-Dec-18,2018-12-06 01:00:00,1.7368166666667,1.35765,1.1478833333333,1.0242,0.92866666666667,0.80083333333333,0.8142,5,0,0,0,0,0,0,0,0,0,0,0,0,0,0,0,0,0,0,0,0,0,0,0,0,0,0,0,0,0,0,0,0,0,0,0,0,0,0,0,0,0,0
COM4,0509,06-Dec-18,2018-12-06 02:00:00,2.1011333333333,1.6531666666667,1.44695,1.3342166666667,1.2289833333333,1.05825,1.0775833333333,5,0,0,0,0,0,0,0,0,0,0,0,0,0,0,0,0,0,0,0,0,0,0,0,0,0,0,0,0,0,0,0,0,0,0,0,0,0,0,0,0,0,0
COM4,0509,06-Dec-18,2018-12-06 03:00:00,1.6583666666667,1.3261166666667,1.1856,1.1138666666667,1.0298333333333,0.8837,0.89871666666667,5,0,0,0,0,0,0,0,0,0,0,0,0,0,0,0,0,0,0,0,0,0,0,0,0,0,0,0,0,0,0,0,0,0,0,0,0,0,0,0,0,0,0
COM4,0509,06-Dec-18,2018-12-06 04:00:00,1.8285833333333,1.4599333333333,1.2631333333333,1.1454833333333,1.0430666666667,0.88775,0.90131666666667,5,0,0,0,0,0,0,0,0,0,0,0,0,0,0,0,0,0,0,0,0,0,0,0,0,0,0,0,0,0,0,0,0,0,0,0,0,0,0,0,0,0,0
COM4,0509,06-Dec-18,2018-12-06 05:00:00,1.7011,1.38,1.2101666666667,1.11105,1.0183333333333,0.86601666666667,0.88403333333333,5,0,0,0,0,0,0,0,0,0,0,0,0,0,0,0,0,0,0,0,0,0,0,0,0,0,0,0,0,0,0,0,0,0,0,0,0,0,0,0,0,0,0
COM4,0509,06-Dec-18,2018-12-06 06:00:00,1.6904166666667,1.3903333333333,1.2393666666667,1.1551833333333,1.0713666666667,0.92943333333333,0.9456,5,0,0,0,0,0,0,0,0,0,0,0,0,0,0,0,0,0,0,0,0,0,0,0,0,0,0,0,0,0,0,0,0,0,0,0,0,0,0,0,0,0,0
COM4,0509,06-Dec-18,2018-12-06 07:00:00,1.6015666666667,1.32065,1.1878666666667,1.11305,1.03945,0.90321666666667,0.9265,5,0,0,0,0,0,0,0,0,0,0,0,0,0,0,0,0,0,0,0,0,0,0,0,0,0,0,0,0,0,0,0,0,0,0,0,0,0,0,0,0,0,0
COM4,0509,06-Dec-18,2018-12-06 08:00:00,1.8522166666667,1.5231833333333,1.3630166666667,1.28415,1.2004166666667,1.0480166666667,1.0691666666667,5,0,0,0,0,0,0,0,0,0,0,0,0,0,0,0,0,0,0,0,0,0,0,0,0,0,0,0,0,0,0,0,0,0,0,0,0,0,0,0,0,0,0
COM4,0509,06-Dec-18,2018-12-06 09:00:00,3.8013,2.89285,2.547,2.3698833333333,2.1933333333333,1.8947333333333,1.9330166666667,5,0,0,0,0,0,0,0,0,0,0,0,0,0,0,0,0,0,0,0,0,0,0,0,0,0,0,0,0,0,0,0,0,0,0,0,0,0,0,0,0,0,0
COM4,0509,06-Dec-18,2018-12-06 10:00:00,3.1343333333333,2.5628833333333,2.2789333333333,2.13755,1.9962833333333,1.7743,1.82135,5,0,0,0,0,0,0,0,0,0,0,0,0,0,0,0,0,0,0,0,0,0,0,0,0,0,0,0,0,0,0,0,0,0,0,0,0,0,0,0,0,0,0
COM4,0509,06-Dec-18,2018-12-06 11:00:00,2.7870833333333,2.4202,2.2003333333333,2.08925,1.9709833333333,1.7883333333333,1.8418,5,0,0,0,0,0,0,0,0,0,0,0,0,0,0,0,0,0,0,0,0,0,0,0,0,0,0,0,0,0,0,0,0,0,0,0,0,0,0,0,0,0,0
COM4,0509,06-Dec-18,2018-12-06 12:00:00,2.0671166666667,1.7602833333333,1.5862,1.4957,1.40235,1.2559,1.29075,5,0,0,0,0,0,0,0,0,0,0,0,0,0,0,0,0,0,0,0,0,0,0,0,0,0,0,0,0,0,0,0,0,0,0,0,0,0,0,0,0,0,0
COM4,0509,06-Dec-18,2018-12-06 13:00:00,1.1158666666667,0.9811,0.91105,0.87911666666667,0.8423,0.8017,0.8258,4.5833333333333,0,0,0,0,0,0,0,0,0,0,0,0,0,0,0,0,0,0,0,0,0,0,0,0,0,0,0,0,0,0,0,0,0,0,0,0,0,0,0,0,0,0
COM4,0509,06-Dec-18,2018-12-06 14:00:00,1.0136166666667,0.93393333333333,0.87388333333333,0.85618333333333,0.82298333333333,0.79608333333333,0.8182,5,0,0,0,0,0,0,0,0,0,0,0,0,0,0,0,0,0,0,0,0,0,0,0,0,0,0,0,0,0,0,0,0,0,0,0,0,0,0,0,0,0,0
COM4,0509,06-Dec-18,2018-12-06 15:00:00,0.75905,0.74333333333333,0.70135,0.69278333333333,0.66725,0.64503333333333,0.66281666666667,5,0,0,0,0,0,0,0,0,0,0,0,0,0,0,0,0,0,0,0,0,0,0,0,0,0,0,0,0,0,0,0,0,0,0,0,0,0,0,0,0,0,0
COM4,0509,06-Dec-18,2018-12-06 16:00:00,0.83573333333333,0.81985,0.77563333333333,0.76468333333333,0.73801666666667,0.71325,0.73415,5,0,0,0,0,0,0,0,0,0,0,0,0,0,0,0,0,0,0,0,0,0,0,0,0,0,0,0,0,0,0,0,0,0,0,0,0,0,0,0,0,0,0
COM4,0509,06-Dec-18,2018-12-06 17:00:00,1.3695833333333,1.3335166666667,1.2636666666667,1.24815,1.20605,1.1713,1.2059166666667,5,0,0,0,0,0,0,0,0,0,0,0,0,0,0,0,0,0,0,0,0,0,0,0,0,0,0,0,0,0,0,0,0,0,0,0,0,0,0,0,0,0,0
COM4,0509,06-Dec-18,2018-12-06 18:00:00,1.3604666666667,1.3249,1.2542833333333,1.2370833333333,1.1955666666667,1.1608833333333,1.19515,5,0,0,0,0,0,0,0,0,0,0,0,0,0,0,0,0,0,0,0,0,0,0,0,0,0,0,0,0,0,0,0,0,0,0,0,0,0,0,0,0,0,0
COM4,0509,06-Dec-18,2018-12-06 19:00:00,1.1513,1.1172833333333,1.0617,1.0504666666667,1.01685,0.98933333333333,1.01945,5,0,0,0,0,0,0,0,0,0,0,0,0,0,0,0,0,0,0,0,0,0,0,0,0,0,0,0,0,0,0,0,0,0,0,0,0,0,0,0,0,0,0
COM4,0509,06-Dec-18,2018-12-06 20:00:00,1.1500333333333,1.1081166666667,1.0549,1.0417833333333,1.0092333333333,0.98138333333333,1.0042833333333,5,0,0,0,0,0,0,0,0,0,0,0,0,0,0,0,0,0,0,0,0,0,0,0,0,0,0,0,0,0,0,0,0,0,0,0,0,0,0,0,0,0,0
COM4,0509,06-Dec-18,2018-12-06 21:00:00,1.2195833333333,1.1628833333333,1.1045,1.0895333333333,1.0527166666667,1.0183666666667,1.0341666666667,5,0,0,0,0,0,0,0,0,0,0,0,0,0,0,0,0,0,0,0,0,0,0,0,0,0,0,0,0,0,0,0,0,0,0,0,0,0,0,0,0,0,0
COM4,0509,06-Dec-18,2018-12-06 22:00:00,0.97096666666667,0.94608333333333,0.90155,0.88866666666667,0.86166666666667,0.82535,0.8381,5,0,0,0,0,0,0,0,0,0,0,0,0,0,0,0,0,0,0,0,0,0,0,0,0,0,0,0,0,0,0,0,0,0,0,0,0,0,0,0,0,0,0
COM4,0509,06-Dec-18,2018-12-06 23:00:00,0.77825,0.75798333333333,0.72323333333333,0.71363333333333,0.69298333333333,0.6639,0.67218333333333,5,0,0,0,0,0,0,0,0,0,0,0,0,0,0,0,0,0,0,0,0,0,0,0,0,0,0,0,0,0,0,0,0,0,0,0,0,0,0,0,0,0,0
