COM4,0509,15-Feb-19,2019-02-15 00:00:00,-0.0026842105263158,0.0055614035087719,0.0062456140350877,0.0049473684210526,0.0077017543859649,0.0042105263157895,0.0062631578947368,5,0,0,0,0,0,0,0,0,0,0,0,0,0,0,0,0,0,0,0,0,0,0,0,0,0,0,0,0,0,0,0,0,0,0,0,0,0,0,0,0,0,0
COM4,0509,15-Feb-19,2019-02-15 01:00:00,-0.0072241379310345,-0.0021896551724138,-0.0011034482758621,0.0020172413793103,-0.00096551724137931,-0.0035344827586207,-0.0051206896551724,5,0,0,0,0,0,0,0,0,0,0,0,0,0,0,0,0,0,0,0,0,0,0,0,0,0,0,0,0,0,0,0,0,0,0,0,0,0,0,0,0,0,0
COM4,0509,15-Feb-19,2019-02-15 02:00:00,-0.00545,-0.0021333333333333,-0.00085,-0.00065,-0.00045,-1.6666666666667E-5,0.0012833333333333,5,0,0,0,0,0,0,0,0,0,0,0,0,0,0,0,0,0,0,0,0,0,0,0,0,0,0,0,0,0,0,0,0,0,0,0,0,0,0,0,0,0,0
COM4,0509,15-Feb-19,2019-02-15 03:00:00,-0.0035344827586207,0.00058620689655172,0.00093103448275862,0.00079310344827586,0.001448275862069,-0.0016034482758621,-0.004051724137931,5,0,0,0,0,0,0,0,0,0,0,0,0,0,0,0,0,0,0,0,0,0,0,0,0,0,0,0,0,0,0,0,0,0,0,0,0,0,0,0,0,0,0
COM4,0509,15-Feb-19,2019-02-15 04:00:00,0.0016666666666667,0.00605,0.0053666666666667,0.0073666666666667,0.00635,0.0043833333333333,0.0049833333333333,5,0,0,0,0,0,0,0,0,0,0,0,0,0,0,0,0,0,0,0,0,0,0,0,0,0,0,0,0,0,0,0,0,0,0,0,0,0,0,0,0,0,0
COM4,0509,15-Feb-19,2019-02-15 05:00:00,0.012033333333333,0.014216666666667,0.014516666666667,0.0144,0.0135,0.012283333333333,0.012166666666667,5,0,0,0,0,0,0,0,0,0,0,0,0,0,0,0,0,0,0,0,0,0,0,0,0,0,0,0,0,0,0,0,0,0,0,0,0,0,0,0,0,0,0
COM4,0509,15-Feb-19,2019-02-15 06:00:00,0.1369649122807,0.13610526315789,0.13082456140351,0.13180701754386,0.11887719298246,0.099210526315789,0.10142105263158,5,0,0,0,0,0,0,0,0,0,0,0,0,0,0,0,0,0,0,0,0,0,0,0,0,0,0,0,0,0,0,0,0,0,0,0,0,0,0,0,0,0,0
COM4,0509,15-Feb-19,2019-02-15 07:00:00,0.31866101694915,0.30913559322034,0.29054237288136,0.28625423728814,0.25857627118644,0.21583050847458,0.21852542372881,5,0,0,0,0,0,0,0,0,0,0,0,0,0,0,0,0,0,0,0,0,0,0,0,0,0,0,0,0,0,0,0,0,0,0,0,0,0,0,0,0,0,0
COM4,0509,15-Feb-19,2019-02-15 08:00:00,0.36388333333333,0.37695,0.36383333333333,0.36483333333333,0.3338,0.27983333333333,0.2844,5,0,0,0,0,0,0,0,0,0,0,0,0,0,0,0,0,0,0,0,0,0,0,0,0,0,0,0,0,0,0,0,0,0,0,0,0,0,0,0,0,0,0
COM4,0509,15-Feb-19,2019-02-15 09:00:00,0.48675438596491,0.47489473684211,0.44494736842105,0.43808771929825,0.39359649122807,0.32378947368421,0.32947368421053,5,0,0,0,0,0,0,0,0,0,0,0,0,0,0,0,0,0,0,0,0,0,0,0,0,0,0,0,0,0,0,0,0,0,0,0,0,0,0,0,0,0,0
COM4,0509,15-Feb-19,2019-02-15 10:00:00,0.32188333333333,0.3338,0.32218333333333,0.32043333333333,0.29365,0.24776666666667,0.253,5,0,0,0,0,0,0,0,0,0,0,0,0,0,0,0,0,0,0,0,0,0,0,0,0,0,0,0,0,0,0,0,0,0,0,0,0,0,0,0,0,0,0
COM4,0509,15-Feb-19,2019-02-15 11:00:00,0.15866101694915,0.16489830508475,0.15923728813559,0.16027118644068,0.14727118644068,0.12094915254237,0.12269491525424,5,0,0,0,0,0,0,0,0,0,0,0,0,0,0,0,0,0,0,0,0,0,0,0,0,0,0,0,0,0,0,0,0,0,0,0,0,0,0,0,0,0,0
COM4,0509,15-Feb-19,2019-02-15 12:00:00,0.18885,0.20698333333333,0.2023,0.20208333333333,0.1832,0.15013333333333,0.15158333333333,5,0,0,0,0,0,0,0,0,0,0,0,0,0,0,0,0,0,0,0,0,0,0,0,0,0,0,0,0,0,0,0,0,0,0,0,0,0,0,0,0,0,0
COM4,0509,15-Feb-19,2019-02-15 13:00:00,0.18859649122807,0.213,0.20761403508772,0.20943859649123,0.19287719298246,0.156,0.15563157894737,5,0,0,0,0,0,0,0,0,0,0,0,0,0,0,0,0,0,0,0,0,0,0,0,0,0,0,0,0,0,0,0,0,0,0,0,0,0,0,0,0,0,0
COM4,0509,15-Feb-19,2019-02-15 14:00:00,0.27220689655172,0.28503448275862,0.27653448275862,0.2778275862069,0.24908620689655,0.19491379310345,0.19606896551724,5,0,0,0,0,0,0,0,0,0,0,0,0,0,0,0,0,0,0,0,0,0,0,0,0,0,0,0,0,0,0,0,0,0,0,0,0,0,0,0,0,0,0
COM4,0509,15-Feb-19,2019-02-15 15:00:00,0.11401666666667,0.11145,0.10541666666667,0.1033,0.094883333333333,0.071033333333333,0.0707,5,0,0,0,0,0,0,0,0,0,0,0,0,0,0,0,0,0,0,0,0,0,0,0,0,0,0,0,0,0,0,0,0,0,0,0,0,0,0,0,0,0,0
COM4,0509,15-Feb-19,2019-02-15 16:00:00,0.033,0.036483333333333,0.03355,0.035333333333333,0.030933333333333,0.029016666666667,0.029166666666667,5,0,0,0,0,0,0,0,0,0,0,0,0,0,0,0,0,0,0,0,0,0,0,0,0,0,0,0,0,0,0,0,0,0,0,0,0,0,0,0,0,0,0
COM4,0509,15-Feb-19,2019-02-15 17:00:00,0.0022068965517241,-0.0012931034482759,-0.0026034482758621,-0.0018103448275862,0.00044827586206897,0.0031724137931034,0.0047931034482759,5,0,0,0,0,0,0,0,0,0,0,0,0,0,0,0,0,0,0,0,0,0,0,0,0,0,0,0,0,0,0,0,0,0,0,0,0,0,0,0,0,0,0
COM4,0509,15-Feb-19,2019-02-15 18:00:00,0.036583333333333,0.0091833333333333,0.014583333333333,0.010366666666667,0.012183333333333,0.0019166666666667,0.0054833333333333,5,0,0,0,0,0,0,0,0,0,0,0,0,0,0,0,0,0,0,0,0,0,0,0,0,0,0,0,0,0,0,0,0,0,0,0,0,0,0,0,0,0,0
COM4,0509,15-Feb-19,2019-02-15 19:00:00,0.042916666666667,0.033233333333333,0.03345,0.0329,0.03095,0.0224,0.023366666666667,5,0,0,0,0,0,0,0,0,0,0,0,0,0,0,0,0,0,0,0,0,0,0,0,0,0,0,0,0,0,0,0,0,0,0,0,0,0,0,0,0,0,0
COM4,0509,15-Feb-19,2019-02-15 20:00:00,0.067586206896552,0.080413793103448,0.078534482758621,0.079827586206897,0.071,0.060379310344828,0.0625,5,0,0,0,0,0,0,0,0,0,0,0,0,0,0,0,0,0,0,0,0,0,0,0,0,0,0,0,0,0,0,0,0,0,0,0,0,0,0,0,0,0,0
COM4,0509,15-Feb-19,2019-02-15 21:00:00,0.11864406779661,0.12215254237288,0.11118644067797,0.11194915254237,0.10166101694915,0.081016949152542,0.078610169491525,5,0,0,0,0,0,0,0,0,0,0,0,0,0,0,0,0,0,0,0,0,0,0,0,0,0,0,0,0,0,0,0,0,0,0,0,0,0,0,0,0,0,0
COM4,0509,15-Feb-19,2019-02-15 22:00:00,0.10166101694915,0.10669491525424,0.10176271186441,0.1011186440678,0.09071186440678,0.074271186440678,0.073169491525424,5,0,0,0,0,0,0,0,0,0,0,0,0,0,0,0,0,0,0,0,0,0,0,0,0,0,0,0,0,0,0,0,0,0,0,0,0,0,0,0,0,0,0
COM4,0509,15-Feb-19,2019-02-15 23:00:00,0.29738333333333,0.27853333333333,0.26398333333333,0.2601,0.23528333333333,0.18151666666667,0.18093333333333,5,0,0,0,0,0,0,0,0,0,0,0,0,0,0,0,0,0,0,0,0,0,0,0,0,0,0,0,0,0,0,0,0,0,0,0,0,0,0,0,0,0,0
