COM4,0509,11-Dec-18,2018-12-11 00:00:00,0.70347457627119,0.62915254237288,0.58513559322034,0.56437288135593,0.53394915254237,0.49533898305085,0.50591525423729,4.9983050847458,0,0,0,0,0,0,0,0,0,0,0,0,0,0,0,0,0,0,0,0,0,0,0,0,0,0,0,0,0,0,0,0,0,0,0,0,0,0,0,0,0,0
COM4,0509,11-Dec-18,2018-12-11 01:00:00,0.85481666666667,0.72956666666667,0.66935,0.64431666666667,0.60663333333333,0.56603333333333,0.58226666666667,4.6183333333333,0,0,0,0,0,0,0,0,0,0,0,0,0,0,0,0,0,0,0,0,0,0,0,0,0,0,0,0,0,0,0,0,0,0,0,0,0,0,0,0,0,0
COM4,0509,11-Dec-18,2018-12-11 02:00:00,1.159,0.98308333333333,0.91663333333333,0.8955,0.85763333333333,0.82476666666667,0.84791666666667,5,0,0,0,0,0,0,0,0,0,0,0,0,0,0,0,0,0,0,0,0,0,0,0,0,0,0,0,0,0,0,0,0,0,0,0,0,0,0,0,0,0,0
COM4,0509,11-Dec-18,2018-12-11 03:00:00,0.92256666666667,0.84128333333333,0.78881666666667,0.7758,0.74558333333333,0.72381666666667,0.74345,5,0,0,0,0,0,0,0,0,0,0,0,0,0,0,0,0,0,0,0,0,0,0,0,0,0,0,0,0,0,0,0,0,0,0,0,0,0,0,0,0,0,0
COM4,0509,11-Dec-18,2018-12-11 04:00:00,0.59875,0.5819,0.5527,0.54703333333333,0.52928333333333,0.51756666666667,0.53341666666667,5,0,0,0,0,0,0,0,0,0,0,0,0,0,0,0,0,0,0,0,0,0,0,0,0,0,0,0,0,0,0,0,0,0,0,0,0,0,0,0,0,0,0
COM4,0509,11-Dec-18,2018-12-11 05:00:00,0.70205,0.67096666666667,0.63456666666667,0.6271,0.60531666666667,0.58868333333333,0.606,5,0,0,0,0,0,0,0,0,0,0,0,0,0,0,0,0,0,0,0,0,0,0,0,0,0,0,0,0,0,0,0,0,0,0,0,0,0,0,0,0,0,0
COM4,0509,11-Dec-18,2018-12-11 06:00:00,0.7863,0.75318333333333,0.71315,0.70526666666667,0.68076666666667,0.66278333333333,0.68223333333333,5,0,0,0,0,0,0,0,0,0,0,0,0,0,0,0,0,0,0,0,0,0,0,0,0,0,0,0,0,0,0,0,0,0,0,0,0,0,0,0,0,0,0
COM4,0509,11-Dec-18,2018-12-11 07:00:00,0.97935,0.91561666666667,0.85695,0.84,0.80406666666667,0.77141666666667,0.79335,5,0,0,0,0,0,0,0,0,0,0,0,0,0,0,0,0,0,0,0,0,0,0,0,0,0,0,0,0,0,0,0,0,0,0,0,0,0,0,0,0,0,0
COM4,0509,11-Dec-18,2018-12-11 08:00:00,0.8094,0.79186666666667,0.75813333333333,0.75508333333333,0.7341,0.72488333333333,0.74815,5,0,0,0,0,0,0,0,0,0,0,0,0,0,0,0,0,0,0,0,0,0,0,0,0,0,0,0,0,0,0,0,0,0,0,0,0,0,0,0,0,0,0
COM4,0509,11-Dec-18,2018-12-11 09:00:00,0.84521666666667,0.82931666666667,0.7918,0.7886,0.76465,0.75118333333333,0.77496666666667,5,0,0,0,0,0,0,0,0,0,0,0,0,0,0,0,0,0,0,0,0,0,0,0,0,0,0,0,0,0,0,0,0,0,0,0,0,0,0,0,0,0,0
COM4,0509,11-Dec-18,2018-12-11 10:00:00,0.83668333333333,0.831,0.7944,0.79101666666667,0.76718333333333,0.75425,0.77841666666667,5,0,0,0,0,0,0,0,0,0,0,0,0,0,0,0,0,0,0,0,0,0,0,0,0,0,0,0,0,0,0,0,0,0,0,0,0,0,0,0,0,0,0
COM4,0509,11-Dec-18,2018-12-11 11:00:00,0.4808,0.49776666666667,0.48415,0.48671666666667,0.47686666666667,0.4775,0.49393333333333,5,0,0,0,0,0,0,0,0,0,0,0,0,0,0,0,0,0,0,0,0,0,0,0,0,0,0,0,0,0,0,0,0,0,0,0,0,0,0,0,0,0,0
COM4,0509,11-Dec-18,2018-12-11 12:00:00,0.50783333333333,0.5158,0.49811666666667,0.4999,0.48835,0.48545,0.50193333333333,5,0,0,0,0,0,0,0,0,0,0,0,0,0,0,0,0,0,0,0,0,0,0,0,0,0,0,0,0,0,0,0,0,0,0,0,0,0,0,0,0,0,0
COM4,0509,11-Dec-18,2018-12-11 13:00:00,0.48651666666667,0.48865,0.47026666666667,0.46953333333333,0.45638333333333,0.44691666666667,0.46281666666667,5,0,0,0,0,0,0,0,0,0,0,0,0,0,0,0,0,0,0,0,0,0,0,0,0,0,0,0,0,0,0,0,0,0,0,0,0,0,0,0,0,0,0
COM4,0509,11-Dec-18,2018-12-11 14:00:00,0.30981666666667,0.30245,0.28685,0.28341666666667,0.27068333333333,0.25828333333333,0.26583333333333,5,0,0,0,0,0,0,0,0,0,0,0,0,0,0,0,0,0,0,0,0,0,0,0,0,0,0,0,0,0,0,0,0,0,0,0,0,0,0,0,0,0,0
COM4,0509,11-Dec-18,2018-12-11 15:00:00,0.072333333333333,0.05585,0.044666666666667,0.035483333333333,0.026266666666667,0.0127,0.0116,5,0,0,0,0,0,0,0,0,0,0,0,0,0,0,0,0,0,0,0,0,0,0,0,0,0,0,0,0,0,0,0,0,0,0,0,0,0,0,0,0,0,0
COM4,0509,11-Dec-18,2018-12-11 16:00:00,0.2725,0.26171666666667,0.24076666666667,0.23281666666667,0.21908333333333,0.20346666666667,0.20861666666667,5,0,0,0,0,0,0,0,0,0,0,0,0,0,0,0,0,0,0,0,0,0,0,0,0,0,0,0,0,0,0,0,0,0,0,0,0,0,0,0,0,0,0
COM4,0509,11-Dec-18,2018-12-11 17:00:00,0.22081666666667,0.22315,0.20808333333333,0.20123333333333,0.1899,0.1741,0.17916666666667,5,0,0,0,0,0,0,0,0,0,0,0,0,0,0,0,0,0,0,0,0,0,0,0,0,0,0,0,0,0,0,0,0,0,0,0,0,0,0,0,0,0,0
COM4,0509,11-Dec-18,2018-12-11 18:00:00,0.2151,0.2034,0.18551666666667,0.17766666666667,0.1624,0.14315,0.14466666666667,5,0,0,0,0,0,0,0,0,0,0,0,0,0,0,0,0,0,0,0,0,0,0,0,0,0,0,0,0,0,0,0,0,0,0,0,0,0,0,0,0,0,0
COM4,0509,11-Dec-18,2018-12-11 19:00:00,0.36268333333333,0.32848333333333,0.30045,0.28718333333333,0.26333333333333,0.22448333333333,0.22486666666667,5,0,0,0,0,0,0,0,0,0,0,0,0,0,0,0,0,0,0,0,0,0,0,0,0,0,0,0,0,0,0,0,0,0,0,0,0,0,0,0,0,0,0
COM4,0509,11-Dec-18,2018-12-11 20:00:00,0.15526666666667,0.12966666666667,0.1068,0.0936,0.076,0.049933333333333,0.04695,5,0,0,0,0,0,0,0,0,0,0,0,0,0,0,0,0,0,0,0,0,0,0,0,0,0,0,0,0,0,0,0,0,0,0,0,0,0,0,0,0,0,0
COM4,0509,11-Dec-18,2018-12-11 21:00:00,0.45615,0.40915,0.3749,0.36075,0.3355,0.30566666666667,0.31233333333333,5,0,0,0,0,0,0,0,0,0,0,0,0,0,0,0,0,0,0,0,0,0,0,0,0,0,0,0,0,0,0,0,0,0,0,0,0,0,0,0,0,0,0
COM4,0509,11-Dec-18,2018-12-11 22:00:00,0.51865,0.48185,0.44688333333333,0.43205,0.4071,0.3749,0.38185,5,0,0,0,0,0,0,0,0,0,0,0,0,0,0,0,0,0,0,0,0,0,0,0,0,0,0,0,0,0,0,0,0,0,0,0,0,0,0,0,0,0,0
COM4,0509,11-Dec-18,2018-12-11 23:00:00,0.58991666666667,0.53463333333333,0.4921,0.47398333333333,0.44665,0.41345,0.42301666666667,5,0,0,0,0,0,0,0,0,0,0,0,0,0,0,0,0,0,0,0,0,0,0,0,0,0,0,0,0,0,0,0,0,0,0,0,0,0,0,0,0,0,0
