COM4,0509,22-Jan-19,2019-01-22 00:00:00,0.0443,0.0377,0.033966666666667,0.034416666666667,0.031766666666667,0.027833333333333,0.0292,5,0,0,0,0,0,0,0,0,0,0,0,0,0,0,0,0,0,0,0,0,0,0,0,0,0,0,0,0,0,0,0,0,0,0,0,0,0,0,0,0,0,0
COM4,0509,22-Jan-19,2019-01-22 01:00:00,0.0303,0.026783333333333,0.025216666666667,0.02295,0.022933333333333,0.020116666666667,0.020233333333333,5,0,0,0,0,0,0,0,0,0,0,0,0,0,0,0,0,0,0,0,0,0,0,0,0,0,0,0,0,0,0,0,0,0,0,0,0,0,0,0,0,0,0
COM4,0509,22-Jan-19,2019-01-22 02:00:00,0.0274,0.02475,0.023,0.022966666666667,0.02145,0.0205,0.021866666666667,5,0,0,0,0,0,0,0,0,0,0,0,0,0,0,0,0,0,0,0,0,0,0,0,0,0,0,0,0,0,0,0,0,0,0,0,0,0,0,0,0,0,0
COM4,0509,22-Jan-19,2019-01-22 03:00:00,0.0499,0.040633333333333,0.035416666666667,0.033516666666667,0.031816666666667,0.030316666666667,0.030633333333333,5,0,0,0,0,0,0,0,0,0,0,0,0,0,0,0,0,0,0,0,0,0,0,0,0,0,0,0,0,0,0,0,0,0,0,0,0,0,0,0,0,0,0
COM4,0509,22-Jan-19,2019-01-22 04:00:00,0.087283333333333,0.065033333333333,0.059016666666667,0.055633333333333,0.0534,0.050583333333333,0.050966666666667,5,0,0,0,0,0,0,0,0,0,0,0,0,0,0,0,0,0,0,0,0,0,0,0,0,0,0,0,0,0,0,0,0,0,0,0,0,0,0,0,0,0,0
COM4,0509,22-Jan-19,2019-01-22 05:00:00,0.15175,0.13058333333333,0.11981666666667,0.11688333333333,0.1102,0.10526666666667,0.1073,5,0,0,0,0,0,0,0,0,0,0,0,0,0,0,0,0,0,0,0,0,0,0,0,0,0,0,0,0,0,0,0,0,0,0,0,0,0,0,0,0,0,0
COM4,0509,22-Jan-19,2019-01-22 06:00:00,0.21815,0.19143333333333,0.17393333333333,0.1676,0.1588,0.15216666666667,0.15538333333333,5,0,0,0,0,0,0,0,0,0,0,0,0,0,0,0,0,0,0,0,0,0,0,0,0,0,0,0,0,0,0,0,0,0,0,0,0,0,0,0,0,0,0
COM4,0509,22-Jan-19,2019-01-22 07:00:00,0.7677,0.66568333333333,0.59673333333333,0.56755,0.53685,0.50866666666667,0.51828333333333,5,0,0,0,0,0,0,0,0,0,0,0,0,0,0,0,0,0,0,0,0,0,0,0,0,0,0,0,0,0,0,0,0,0,0,0,0,0,0,0,0,0,0
COM4,0509,22-Jan-19,2019-01-22 08:00:00,0.50581666666667,0.48121666666667,0.449,0.43835,0.41886666666667,0.39451666666667,0.40086666666667,5,0,0,0,0,0,0,0,0,0,0,0,0,0,0,0,0,0,0,0,0,0,0,0,0,0,0,0,0,0,0,0,0,0,0,0,0,0,0,0,0,0,0
COM4,0509,22-Jan-19,2019-01-22 09:00:00,0.50193220338983,0.47659322033898,0.44167796610169,0.42891525423729,0.40845762711864,0.38201694915254,0.38835593220339,5,0,0,0,0,0,0,0,0,0,0,0,0,0,0,0,0,0,0,0,0,0,0,0,0,0,0,0,0,0,0,0,0,0,0,0,0,0,0,0,0,0,0
COM4,0509,22-Jan-19,2019-01-22 10:00:00,0.59364406779661,0.55854237288136,0.51674576271186,0.50206779661017,0.4828813559322,0.45566101694915,0.46289830508475,5,0,0,0,0,0,0,0,0,0,0,0,0,0,0,0,0,0,0,0,0,0,0,0,0,0,0,0,0,0,0,0,0,0,0,0,0,0,0,0,0,0,0
COM4,0509,22-Jan-19,2019-01-22 11:00:00,0.48158333333333,0.4714,0.44388333333333,0.43605,0.4202,0.39346666666667,0.4011,5,0,0,0,0,0,0,0,0,0,0,0,0,0,0,0,0,0,0,0,0,0,0,0,0,0,0,0,0,0,0,0,0,0,0,0,0,0,0,0,0,0,0
COM4,0509,22-Jan-19,2019-01-22 12:00:00,0.23811666666667,0.2334,0.21926666666667,0.21473333333333,0.20653333333333,0.18943333333333,0.19311666666667,5,0,0,0,0,0,0,0,0,0,0,0,0,0,0,0,0,0,0,0,0,0,0,0,0,0,0,0,0,0,0,0,0,0,0,0,0,0,0,0,0,0,0
COM4,0509,22-Jan-19,2019-01-22 13:00:00,0.22154237288136,0.21440677966102,0.19998305084746,0.19466101694915,0.18374576271186,0.16554237288136,0.16922033898305,5,0,0,0,0,0,0,0,0,0,0,0,0,0,0,0,0,0,0,0,0,0,0,0,0,0,0,0,0,0,0,0,0,0,0,0,0,0,0,0,0,0,0
COM4,0509,22-Jan-19,2019-01-22 14:00:00,0.20428070175439,0.1950350877193,0.18154385964912,0.17108771929825,0.16452631578947,0.14824561403509,0.14824561403509,5,0,0,0,0,0,0,0,0,0,0,0,0,0,0,0,0,0,0,0,0,0,0,0,0,0,0,0,0,0,0,0,0,0,0,0,0,0,0,0,0,0,0
COM4,0509,22-Jan-19,2019-01-22 15:00:00,0.24074576271186,0.22761016949153,0.21133898305085,0.20479661016949,0.19391525423729,0.178,0.179,5,0,0,0,0,0,0,0,0,0,0,0,0,0,0,0,0,0,0,0,0,0,0,0,0,0,0,0,0,0,0,0,0,0,0,0,0,0,0,0,0,0,0
COM4,0509,22-Jan-19,2019-01-22 16:00:00,0.24176271186441,0.22796610169492,0.21250847457627,0.2061186440678,0.19720338983051,0.1761186440678,0.17776271186441,5,0,0,0,0,0,0,0,0,0,0,0,0,0,0,0,0,0,0,0,0,0,0,0,0,0,0,0,0,0,0,0,0,0,0,0,0,0,0,0,0,0,0
COM4,0509,22-Jan-19,2019-01-22 17:00:00,0.49459322033898,0.46735593220339,0.43676271186441,0.4295593220339,0.40845762711864,0.37091525423729,0.37477966101695,5,0,0,0,0,0,0,0,0,0,0,0,0,0,0,0,0,0,0,0,0,0,0,0,0,0,0,0,0,0,0,0,0,0,0,0,0,0,0,0,0,0,0
COM4,0509,22-Jan-19,2019-01-22 18:00:00,0.97003448275862,0.81812068965517,0.75248275862069,0.72841379310345,0.6941724137931,0.6185,0.62431034482759,5,0,0,0,0,0,0,0,0,0,0,0,0,0,0,0,0,0,0,0,0,0,0,0,0,0,0,0,0,0,0,0,0,0,0,0,0,0,0,0,0,0,0
COM4,0509,22-Jan-19,2019-01-22 19:00:00,0.91291666666667,0.76106666666667,0.6978,0.67688333333333,0.64091666666667,0.56561666666667,0.5707,5,0,0,0,0,0,0,0,0,0,0,0,0,0,0,0,0,0,0,0,0,0,0,0,0,0,0,0,0,0,0,0,0,0,0,0,0,0,0,0,0,0,0
COM4,0509,22-Jan-19,2019-01-22 20:00:00,1.1868833333333,1.0523166666667,0.97281666666667,0.94736666666667,0.90231666666667,0.79781666666667,0.80328333333333,5,0,0,0,0,0,0,0,0,0,0,0,0,0,0,0,0,0,0,0,0,0,0,0,0,0,0,0,0,0,0,0,0,0,0,0,0,0,0,0,0,0,0
COM4,0509,22-Jan-19,2019-01-22 21:00:00,0.78476271186441,0.64789830508475,0.59125423728814,0.56462711864407,0.53254237288136,0.44962711864407,0.45277966101695,5,0,0,0,0,0,0,0,0,0,0,0,0,0,0,0,0,0,0,0,0,0,0,0,0,0,0,0,0,0,0,0,0,0,0,0,0,0,0,0,0,0,0
COM4,0509,22-Jan-19,2019-01-22 22:00:00,0.82021666666667,0.70841666666667,0.6508,0.62875,0.59661666666667,0.51046666666667,0.51211666666667,5,0,0,0,0,0,0,0,0,0,0,0,0,0,0,0,0,0,0,0,0,0,0,0,0,0,0,0,0,0,0,0,0,0,0,0,0,0,0,0,0,0,0
COM4,0509,22-Jan-19,2019-01-22 23:00:00,1.0684166666667,0.85041666666667,0.76938333333333,0.73445,0.68661666666667,0.57785,0.57761666666667,5,0,0,0,0,0,0,0,0,0,0,0,0,0,0,0,0,0,0,0,0,0,0,0,0,0,0,0,0,0,0,0,0,0,0,0,0,0,0,0,0,0,0
