COM4,0509,27-Dec-18,2018-12-27 00:00:00,0.6831,0.51371666666667,0.45935,0.43251666666667,0.40255,0.36503333333333,0.37245,5,0,0,0,0,0,0,0,0,0,0,0,0,0,0,0,0,0,0,0,0,0,0,0,0,0,0,0,0,0,0,0,0,0,0,0,0,0,0,0,0,0,0
COM4,0509,27-Dec-18,2018-12-27 01:00:00,0.48696666666667,0.40141666666667,0.35996666666667,0.33985,0.31765,0.28441666666667,0.29038333333333,5,0,0,0,0,0,0,0,0,0,0,0,0,0,0,0,0,0,0,0,0,0,0,0,0,0,0,0,0,0,0,0,0,0,0,0,0,0,0,0,0,0,0
COM4,0509,27-Dec-18,2018-12-27 02:00:00,0.55755,0.46676666666667,0.42058333333333,0.39956666666667,0.3743,0.34008333333333,0.34643333333333,5,0,0,0,0,0,0,0,0,0,0,0,0,0,0,0,0,0,0,0,0,0,0,0,0,0,0,0,0,0,0,0,0,0,0,0,0,0,0,0,0,0,0
COM4,0509,27-Dec-18,2018-12-27 03:00:00,0.4766,0.42591666666667,0.38785,0.36918333333333,0.34613333333333,0.3166,0.3246,5,0,0,0,0,0,0,0,0,0,0,0,0,0,0,0,0,0,0,0,0,0,0,0,0,0,0,0,0,0,0,0,0,0,0,0,0,0,0,0,0,0,0
COM4,0509,27-Dec-18,2018-12-27 04:00:00,0.44773333333333,0.4248,0.39426666666667,0.38055,0.35825,0.32785,0.33423333333333,5,0,0,0,0,0,0,0,0,0,0,0,0,0,0,0,0,0,0,0,0,0,0,0,0,0,0,0,0,0,0,0,0,0,0,0,0,0,0,0,0,0,0
COM4,0509,27-Dec-18,2018-12-27 05:00:00,0.23486666666667,0.25176666666667,0.23505,0.22851666666667,0.2168,0.19915,0.20411666666667,5,0,0,0,0,0,0,0,0,0,0,0,0,0,0,0,0,0,0,0,0,0,0,0,0,0,0,0,0,0,0,0,0,0,0,0,0,0,0,0,0,0,0
COM4,0509,27-Dec-18,2018-12-27 06:00:00,0.2107,0.2083,0.19296666666667,0.18323333333333,0.17281666666667,0.15713333333333,0.15953333333333,5,0,0,0,0,0,0,0,0,0,0,0,0,0,0,0,0,0,0,0,0,0,0,0,0,0,0,0,0,0,0,0,0,0,0,0,0,0,0,0,0,0,0
COM4,0509,27-Dec-18,2018-12-27 07:00:00,0.35298333333333,0.3218,0.29591666666667,0.28616666666667,0.27113333333333,0.24995,0.25595,5,0,0,0,0,0,0,0,0,0,0,0,0,0,0,0,0,0,0,0,0,0,0,0,0,0,0,0,0,0,0,0,0,0,0,0,0,0,0,0,0,0,0
COM4,0509,27-Dec-18,2018-12-27 08:00:00,0.34056666666667,0.32321666666667,0.30013333333333,0.29095,0.27623333333333,0.25423333333333,0.26023333333333,5,0,0,0,0,0,0,0,0,0,0,0,0,0,0,0,0,0,0,0,0,0,0,0,0,0,0,0,0,0,0,0,0,0,0,0,0,0,0,0,0,0,0
COM4,0509,27-Dec-18,2018-12-27 09:00:00,0.31901666666667,0.31316666666667,0.29466666666667,0.28733333333333,0.27306666666667,0.25393333333333,0.25955,5,0,0,0,0,0,0,0,0,0,0,0,0,0,0,0,0,0,0,0,0,0,0,0,0,0,0,0,0,0,0,0,0,0,0,0,0,0,0,0,0,0,0
COM4,0509,27-Dec-18,2018-12-27 10:00:00,0.26436666666667,0.2783,0.26468333333333,0.2619,0.25115,0.23346666666667,0.23941666666667,5,0,0,0,0,0,0,0,0,0,0,0,0,0,0,0,0,0,0,0,0,0,0,0,0,0,0,0,0,0,0,0,0,0,0,0,0,0,0,0,0,0,0
COM4,0509,27-Dec-18,2018-12-27 11:00:00,0.0886,0.12128333333333,0.11918333333333,0.11821666666667,0.11563333333333,0.10736666666667,0.11225,5,0,0,0,0,0,0,0,0,0,0,0,0,0,0,0,0,0,0,0,0,0,0,0,0,0,0,0,0,0,0,0,0,0,0,0,0,0,0,0,0,0,0
COM4,0509,27-Dec-18,2018-12-27 12:00:00,0.2107,0.2243,0.21156666666667,0.20795,0.19886666666667,0.18536666666667,0.18865,5,0,0,0,0,0,0,0,0,0,0,0,0,0,0,0,0,0,0,0,0,0,0,0,0,0,0,0,0,0,0,0,0,0,0,0,0,0,0,0,0,0,0
COM4,0509,27-Dec-18,2018-12-27 13:00:00,0.18635,0.2027,0.19446666666667,0.19258333333333,0.1857,0.17298333333333,0.1766,5,0,0,0,0,0,0,0,0,0,0,0,0,0,0,0,0,0,0,0,0,0,0,0,0,0,0,0,0,0,0,0,0,0,0,0,0,0,0,0,0,0,0
COM4,0509,27-Dec-18,2018-12-27 14:00:00,0.32176666666667,0.3175,0.30053333333333,0.29386666666667,0.28256666666667,0.26223333333333,0.26916666666667,5,0,0,0,0,0,0,0,0,0,0,0,0,0,0,0,0,0,0,0,0,0,0,0,0,0,0,0,0,0,0,0,0,0,0,0,0,0,0,0,0,0,0
COM4,0509,27-Dec-18,2018-12-27 15:00:00,0.26313333333333,0.26718333333333,0.25178333333333,0.24873333333333,0.2391,0.22311666666667,0.2281,5,0,0,0,0,0,0,0,0,0,0,0,0,0,0,0,0,0,0,0,0,0,0,0,0,0,0,0,0,0,0,0,0,0,0,0,0,0,0,0,0,0,0
COM4,0509,27-Dec-18,2018-12-27 16:00:00,0.17378333333333,0.17866666666667,0.17076666666667,0.17028333333333,0.16331666666667,0.15015,0.15423333333333,5,0,0,0,0,0,0,0,0,0,0,0,0,0,0,0,0,0,0,0,0,0,0,0,0,0,0,0,0,0,0,0,0,0,0,0,0,0,0,0,0,0,0
COM4,0509,27-Dec-18,2018-12-27 17:00:00,0.22835,0.23653333333333,0.22655,0.22381666666667,0.21896666666667,0.20955,0.21343333333333,5,0,0,0,0,0,0,0,0,0,0,0,0,0,0,0,0,0,0,0,0,0,0,0,0,0,0,0,0,0,0,0,0,0,0,0,0,0,0,0,0,0,0
COM4,0509,27-Dec-18,2018-12-27 18:00:00,0.166,0.1656,0.15626666666667,0.15686666666667,0.14976666666667,0.14115,0.14631666666667,5,0,0,0,0,0,0,0,0,0,0,0,0,0,0,0,0,0,0,0,0,0,0,0,0,0,0,0,0,0,0,0,0,0,0,0,0,0,0,0,0,0,0
COM4,0509,27-Dec-18,2018-12-27 19:00:00,0.23745,0.21633333333333,0.2026,0.19733333333333,0.18693333333333,0.17018333333333,0.17271666666667,5,0,0,0,0,0,0,0,0,0,0,0,0,0,0,0,0,0,0,0,0,0,0,0,0,0,0,0,0,0,0,0,0,0,0,0,0,0,0,0,0,0,0
COM4,0509,27-Dec-18,2018-12-27 20:00:00,0.31153333333333,0.27036666666667,0.24785,0.24038333333333,0.22613333333333,0.2028,0.20675,5,0,0,0,0,0,0,0,0,0,0,0,0,0,0,0,0,0,0,0,0,0,0,0,0,0,0,0,0,0,0,0,0,0,0,0,0,0,0,0,0,0,0
COM4,0509,27-Dec-18,2018-12-27 21:00:00,0.26061666666667,0.22338333333333,0.20481666666667,0.1972,0.18493333333333,0.16556666666667,0.16836666666667,5,0,0,0,0,0,0,0,0,0,0,0,0,0,0,0,0,0,0,0,0,0,0,0,0,0,0,0,0,0,0,0,0,0,0,0,0,0,0,0,0,0,0
COM4,0509,27-Dec-18,2018-12-27 22:00:00,0.79713333333333,0.6239,0.5615,0.53313333333333,0.50495,0.46235,0.47445,5,0,0,0,0,0,0,0,0,0,0,0,0,0,0,0,0,0,0,0,0,0,0,0,0,0,0,0,0,0,0,0,0,0,0,0,0,0,0,0,0,0,0
COM4,0509,27-Dec-18,2018-12-27 23:00:00,1.3611333333333,1.0246666666667,0.91795,0.87085,0.81958333333333,0.74685,0.76246666666667,5,0,0,0,0,0,0,0,0,0,0,0,0,0,0,0,0,0,0,0,0,0,0,0,0,0,0,0,0,0,0,0,0,0,0,0,0,0,0,0,0,0,0
