COM4,0509,27-Feb-19,2019-02-27 00:00:00,0.28275,0.25271666666667,0.23488333333333,0.22688333333333,0.21661666666667,0.20328333333333,0.2091,5,0,0,0,0,0,0,0,0,0,0,0,0,0,0,0,0,0,0,0,0,0,0,0,0,0,0,0,0,0,0,0,0,0,0,0,0,0,0,0,0,0,0
COM4,0509,27-Feb-19,2019-02-27 01:00:00,0.10268333333333,0.11436666666667,0.10988333333333,0.10798333333333,0.10371666666667,0.097733333333333,0.099966666666667,5,0,0,0,0,0,0,0,0,0,0,0,0,0,0,0,0,0,0,0,0,0,0,0,0,0,0,0,0,0,0,0,0,0,0,0,0,0,0,0,0,0,0
COM4,0509,27-Feb-19,2019-02-27 02:00:00,0.12013333333333,0.13053333333333,0.12503333333333,0.12493333333333,0.11965,0.11355,0.11646666666667,5,0,0,0,0,0,0,0,0,0,0,0,0,0,0,0,0,0,0,0,0,0,0,0,0,0,0,0,0,0,0,0,0,0,0,0,0,0,0,0,0,0,0
COM4,0509,27-Feb-19,2019-02-27 03:00:00,0.1192,0.1274,0.12186666666667,0.12088333333333,0.1169,0.11178333333333,0.11375,5,0,0,0,0,0,0,0,0,0,0,0,0,0,0,0,0,0,0,0,0,0,0,0,0,0,0,0,0,0,0,0,0,0,0,0,0,0,0,0,0,0,0
COM4,0509,27-Feb-19,2019-02-27 04:00:00,0.14461666666667,0.15286666666667,0.1464,0.14493333333333,0.13961666666667,0.13286666666667,0.137,5,0,0,0,0,0,0,0,0,0,0,0,0,0,0,0,0,0,0,0,0,0,0,0,0,0,0,0,0,0,0,0,0,0,0,0,0,0,0,0,0,0,0
COM4,0509,27-Feb-19,2019-02-27 05:00:00,0.17516666666667,0.17855,0.1714,0.16971666666667,0.16445,0.15583333333333,0.1597,5,0,0,0,0,0,0,0,0,0,0,0,0,0,0,0,0,0,0,0,0,0,0,0,0,0,0,0,0,0,0,0,0,0,0,0,0,0,0,0,0,0,0
COM4,0509,27-Feb-19,2019-02-27 06:00:00,0.35406666666667,0.35498333333333,0.33846666666667,0.3358,0.32425,0.3128,0.32146666666667,5,0,0,0,0,0,0,0,0,0,0,0,0,0,0,0,0,0,0,0,0,0,0,0,0,0,0,0,0,0,0,0,0,0,0,0,0,0,0,0,0,0,0
COM4,0509,27-Feb-19,2019-02-27 07:00:00,0.38191666666667,0.37881666666667,0.36201666666667,0.35468333333333,0.34166666666667,0.32935,0.33898333333333,5,0,0,0,0,0,0,0,0,0,0,0,0,0,0,0,0,0,0,0,0,0,0,0,0,0,0,0,0,0,0,0,0,0,0,0,0,0,0,0,0,0,0
COM4,0509,27-Feb-19,2019-02-27 08:00:00,0.44913333333333,0.44685,0.42655,0.42096666666667,0.40578333333333,0.39316666666667,0.40406666666667,5,0,0,0,0,0,0,0,0,0,0,0,0,0,0,0,0,0,0,0,0,0,0,0,0,0,0,0,0,0,0,0,0,0,0,0,0,0,0,0,0,0,0
COM4,0509,27-Feb-19,2019-02-27 09:00:00,0.60441666666667,0.604,0.57538333333333,0.56876666666667,0.54976666666667,0.53445,0.54811666666667,5,0,0,0,0,0,0,0,0,0,0,0,0,0,0,0,0,0,0,0,0,0,0,0,0,0,0,0,0,0,0,0,0,0,0,0,0,0,0,0,0,0,0
COM4,0509,27-Feb-19,2019-02-27 10:00:00,0.32585,0.33451666666667,0.32123333333333,0.32148333333333,0.31263333333333,0.3073,0.31578333333333,5,0,0,0,0,0,0,0,0,0,0,0,0,0,0,0,0,0,0,0,0,0,0,0,0,0,0,0,0,0,0,0,0,0,0,0,0,0,0,0,0,0,0
COM4,0509,27-Feb-19,2019-02-27 11:00:00,0.19631666666667,0.20418333333333,0.19685,0.19665,0.19181666666667,0.18903333333333,0.19476666666667,5,0,0,0,0,0,0,0,0,0,0,0,0,0,0,0,0,0,0,0,0,0,0,0,0,0,0,0,0,0,0,0,0,0,0,0,0,0,0,0,0,0,0
COM4,0509,27-Feb-19,2019-02-27 12:00:00,0.16911666666667,0.18226666666667,0.17926666666667,0.18076666666667,0.1767,0.17495,0.17956666666667,5,0,0,0,0,0,0,0,0,0,0,0,0,0,0,0,0,0,0,0,0,0,0,0,0,0,0,0,0,0,0,0,0,0,0,0,0,0,0,0,0,0,0
COM4,0509,27-Feb-19,2019-02-27 13:00:00,0.1367,0.1418,0.13805,0.13885,0.1362,0.1323,0.13605,5,0,0,0,0,0,0,0,0,0,0,0,0,0,0,0,0,0,0,0,0,0,0,0,0,0,0,0,0,0,0,0,0,0,0,0,0,0,0,0,0,0,0
COM4,0509,27-Feb-19,2019-02-27 14:00:00,0.21431666666667,0.20418333333333,0.19031666666667,0.18625,0.17865,0.17296666666667,0.17753333333333,5,0,0,0,0,0,0,0,0,0,0,0,0,0,0,0,0,0,0,0,0,0,0,0,0,0,0,0,0,0,0,0,0,0,0,0,0,0,0,0,0,0,0
COM4,0509,27-Feb-19,2019-02-27 15:00:00,0.27016666666667,0.28603333333333,0.2795,0.28216666666667,0.27585,0.26893333333333,0.2757,5,0,0,0,0,0,0,0,0,0,0,0,0,0,0,0,0,0,0,0,0,0,0,0,0,0,0,0,0,0,0,0,0,0,0,0,0,0,0,0,0,0,0
COM4,0509,27-Feb-19,2019-02-27 16:00:00,0.26211666666667,0.26708333333333,0.26031666666667,0.2634,0.25938333333333,0.25318333333333,0.26086666666667,5,0,0,0,0,0,0,0,0,0,0,0,0,0,0,0,0,0,0,0,0,0,0,0,0,0,0,0,0,0,0,0,0,0,0,0,0,0,0,0,0,0,0
COM4,0509,27-Feb-19,2019-02-27 17:00:00,0.24331666666667,0.2554,0.2506,0.25265,0.24873333333333,0.24475,0.2529,5,0,0,0,0,0,0,0,0,0,0,0,0,0,0,0,0,0,0,0,0,0,0,0,0,0,0,0,0,0,0,0,0,0,0,0,0,0,0,0,0,0,0
COM4,0509,27-Feb-19,2019-02-27 18:00:00,0.28968333333333,0.30443333333333,0.29841666666667,0.30233333333333,0.29845,0.29603333333333,0.30493333333333,5,0,0,0,0,0,0,0,0,0,0,0,0,0,0,0,0,0,0,0,0,0,0,0,0,0,0,0,0,0,0,0,0,0,0,0,0,0,0,0,0,0,0
COM4,0509,27-Feb-19,2019-02-27 19:00:00,0.45875,0.46933333333333,0.45943333333333,0.46506666666667,0.45941666666667,0.4611,0.47623333333333,5,0,0,0,0,0,0,0,0,0,0,0,0,0,0,0,0,0,0,0,0,0,0,0,0,0,0,0,0,0,0,0,0,0,0,0,0,0,0,0,0,0,0
COM4,0509,27-Feb-19,2019-02-27 20:00:00,0.96073333333333,0.85546666666667,0.80825,0.80106666666667,0.77615,0.7542,0.776,5,0,0,0,0,0,0,0,0,0,0,0,0,0,0,0,0,0,0,0,0,0,0,0,0,0,0,0,0,0,0,0,0,0,0,0,0,0,0,0,0,0,0
COM4,0509,27-Feb-19,2019-02-27 21:00:00,0.84021666666667,0.78518333333333,0.74751666666667,0.74263333333333,0.7216,0.70325,0.72316666666667,5,0,0,0,0,0,0,0,0,0,0,0,0,0,0,0,0,0,0,0,0,0,0,0,0,0,0,0,0,0,0,0,0,0,0,0,0,0,0,0,0,0,0
COM4,0509,27-Feb-19,2019-02-27 22:00:00,1.0224666666667,0.93686666666667,0.88668333333333,0.87713333333333,0.84785,0.81688333333333,0.83843333333333,5,0,0,0,0,0,0,0,0,0,0,0,0,0,0,0,0,0,0,0,0,0,0,0,0,0,0,0,0,0,0,0,0,0,0,0,0,0,0,0,0,0,0
COM4,0509,27-Feb-19,2019-02-27 23:00:00,0.77143333333333,0.72948333333333,0.69781666666667,0.69526666666667,0.67626666666667,0.6547,0.67296666666667,5,0,0,0,0,0,0,0,0,0,0,0,0,0,0,0,0,0,0,0,0,0,0,0,0,0,0,0,0,0,0,0,0,0,0,0,0,0,0,0,0,0,0
