COM4,0509,12-Jan-19,2019-01-12 00:00:00,0.51271666666667,0.51416666666667,0.4877,0.47963333333333,0.46718333333333,0.4508,0.46538333333333,4.8,0,0,0,0,0,0,0,0,0,0,0,0,0,0,0,0,0,0,0,0,0,0,0,0,0,0,0,0,0,0,0,0,0,0,0,0,0,0,0,0,0,0
COM4,0509,12-Jan-19,2019-01-12 01:00:00,0.44078333333333,0.43376666666667,0.4094,0.40015,0.38136666666667,0.35708333333333,0.37256666666667,4.8,0,0,0,0,0,0,0,0,0,0,0,0,0,0,0,0,0,0,0,0,0,0,0,0,0,0,0,0,0,0,0,0,0,0,0,0,0,0,0,0,0,0
COM4,0509,12-Jan-19,2019-01-12 02:00:00,0.36965,0.35033333333333,0.31925,0.30553333333333,0.28573333333333,0.25261666666667,0.25906666666667,4.8,0,0,0,0,0,0,0,0,0,0,0,0,0,0,0,0,0,0,0,0,0,0,0,0,0,0,0,0,0,0,0,0,0,0,0,0,0,0,0,0,0,0
COM4,0509,12-Jan-19,2019-01-12 03:00:00,0.25445,0.21691666666667,0.18858333333333,0.17071666666667,0.1456,0.10196666666667,0.1033,4.8316666666667,0,0,0,0,0,0,0,0,0,0,0,0,0,0,0,0,0,0,0,0,0,0,0,0,0,0,0,0,0,0,0,0,0,0,0,0,0,0,0,0,0,0
COM4,0509,12-Jan-19,2019-01-12 04:00:00,0.20013333333333,0.17125,0.14728333333333,0.12811666666667,0.10866666666667,0.0776,0.07375,4.89,0,0,0,0,0,0,0,0,0,0,0,0,0,0,0,0,0,0,0,0,0,0,0,0,0,0,0,0,0,0,0,0,0,0,0,0,0,0,0,0,0,0
COM4,0509,12-Jan-19,2019-01-12 05:00:00,0.30185,0.2996,0.27468333333333,0.26181666666667,0.2439,0.21298333333333,0.21701666666667,4.9,0,0,0,0,0,0,0,0,0,0,0,0,0,0,0,0,0,0,0,0,0,0,0,0,0,0,0,0,0,0,0,0,0,0,0,0,0,0,0,0,0,0
COM4,0509,12-Jan-19,2019-01-12 06:00:00,0.21338333333333,0.18426666666667,0.16138333333333,0.14746666666667,0.1257,0.088033333333333,0.088483333333333,4.9,0,0,0,0,0,0,0,0,0,0,0,0,0,0,0,0,0,0,0,0,0,0,0,0,0,0,0,0,0,0,0,0,0,0,0,0,0,0,0,0,0,0
COM4,0509,12-Jan-19,2019-01-12 07:00:00,0.037233333333333,0.0035333333333333,-0.0191,-0.0375,-0.058283333333333,-0.099233333333333,-0.1061,4.9,0,0,0,0,0,0,0,0,0,0,0,0,0,0,0,0,0,0,0,0,0,0,0,0,0,0,0,0,0,0,0,0,0,0,0,0,0,0,0,0,0,0
COM4,0509,12-Jan-19,2019-01-12 08:00:00,0.1301,0.10158333333333,0.0812,0.062583333333333,0.044033333333333,0.011583333333333,0.0056166666666667,4.9,0,0,0,0,0,0,0,0,0,0,0,0,0,0,0,0,0,0,0,0,0,0,0,0,0,0,0,0,0,0,0,0,0,0,0,0,0,0,0,0,0,0
COM4,0509,12-Jan-19,2019-01-12 09:00:00,0.0182,-0.0023666666666667,-0.0235,-0.040833333333333,-0.0605,-0.0959,-0.10621666666667,4.9,0,0,0,0,0,0,0,0,0,0,0,0,0,0,0,0,0,0,0,0,0,0,0,0,0,0,0,0,0,0,0,0,0,0,0,0,0,0,0,0,0,0
COM4,0509,12-Jan-19,2019-01-12 10:00:00,-0.05545,-0.085883333333333,-0.10793333333333,-0.13108333333333,-0.1565,-0.20381666666667,-0.21796666666667,4.9,0,0,0,0,0,0,0,0,0,0,0,0,0,0,0,0,0,0,0,0,0,0,0,0,0,0,0,0,0,0,0,0,0,0,0,0,0,0,0,0,0,0
COM4,0509,12-Jan-19,2019-01-12 11:00:00,-3.3333333333333E-5,-0.032566666666667,-0.058233333333333,-0.0838,-0.11121666666667,-0.1682,-0.18413333333333,4.9,0,0,0,0,0,0,0,0,0,0,0,0,0,0,0,0,0,0,0,0,0,0,0,0,0,0,0,0,0,0,0,0,0,0,0,0,0,0,0,0,0,0
COM4,0509,12-Jan-19,2019-01-12 12:00:00,-0.0016166666666667,-0.03035,-0.05375,-0.083266666666667,-0.11155,-0.17213333333333,-0.18763333333333,4.9,0,0,0,0,0,0,0,0,0,0,0,0,0,0,0,0,0,0,0,0,0,0,0,0,0,0,0,0,0,0,0,0,0,0,0,0,0,0,0,0,0,0
COM4,0509,12-Jan-19,2019-01-12 13:00:00,-0.054166666666667,-0.081633333333333,-0.10888333333333,-0.13408333333333,-0.1673,-0.23131666666667,-0.24951666666667,4.9,0,0,0,0,0,0,0,0,0,0,0,0,0,0,0,0,0,0,0,0,0,0,0,0,0,0,0,0,0,0,0,0,0,0,0,0,0,0,0,0,0,0
COM4,0509,12-Jan-19,2019-01-12 14:00:00,-0.078283333333333,-0.11471666666667,-0.14555,-0.18215,-0.21736666666667,-0.29743333333333,-0.32306666666667,4.9,0,0,0,0,0,0,0,0,0,0,0,0,0,0,0,0,0,0,0,0,0,0,0,0,0,0,0,0,0,0,0,0,0,0,0,0,0,0,0,0,0,0
COM4,0509,12-Jan-19,2019-01-12 15:00:00,-0.0254,-0.0659,-0.0989,-0.13316666666667,-0.17308333333333,-0.25923333333333,-0.28011666666667,4.9,0,0,0,0,0,0,0,0,0,0,0,0,0,0,0,0,0,0,0,0,0,0,0,0,0,0,0,0,0,0,0,0,0,0,0,0,0,0,0,0,0,0
COM4,0509,12-Jan-19,2019-01-12 16:00:00,-0.013033333333333,-0.044033333333333,-0.080366666666667,-0.11571666666667,-0.15523333333333,-0.23593333333333,-0.25838333333333,4.9166666666667,0,0,0,0,0,0,0,0,0,0,0,0,0,0,0,0,0,0,0,0,0,0,0,0,0,0,0,0,0,0,0,0,0,0,0,0,0,0,0,0,0,0
COM4,0509,12-Jan-19,2019-01-12 17:00:00,-0.055516666666667,-0.079633333333333,-0.11251666666667,-0.14341666666667,-0.18583333333333,-0.26875,-0.29468333333333,4.9983333333333,0,0,0,0,0,0,0,0,0,0,0,0,0,0,0,0,0,0,0,0,0,0,0,0,0,0,0,0,0,0,0,0,0,0,0,0,0,0,0,0,0,0
COM4,0509,12-Jan-19,2019-01-12 18:00:00,-0.04705,-0.078466666666667,-0.1105,-0.15283333333333,-0.1924,-0.28306666666667,-0.30875,5,0,0,0,0,0,0,0,0,0,0,0,0,0,0,0,0,0,0,0,0,0,0,0,0,0,0,0,0,0,0,0,0,0,0,0,0,0,0,0,0,0,0
COM4,0509,12-Jan-19,2019-01-12 19:00:00,-0.04265,-0.06915,-0.10526666666667,-0.13893333333333,-0.18193333333333,-0.2726,-0.29598333333333,5,0,0,0,0,0,0,0,0,0,0,0,0,0,0,0,0,0,0,0,0,0,0,0,0,0,0,0,0,0,0,0,0,0,0,0,0,0,0,0,0,0,0
COM4,0509,12-Jan-19,2019-01-12 20:00:00,-0.0195,-0.040883333333333,-0.0736,-0.10851666666667,-0.149,-0.23335,-0.25775,5,0,0,0,0,0,0,0,0,0,0,0,0,0,0,0,0,0,0,0,0,0,0,0,0,0,0,0,0,0,0,0,0,0,0,0,0,0,0,0,0,0,0
COM4,0509,12-Jan-19,2019-01-12 21:00:00,0.0048666666666667,-0.010833333333333,-0.038633333333333,-0.0672,-0.10103333333333,-0.17408333333333,-0.19405,5,0,0,0,0,0,0,0,0,0,0,0,0,0,0,0,0,0,0,0,0,0,0,0,0,0,0,0,0,0,0,0,0,0,0,0,0,0,0,0,0,0,0
COM4,0509,12-Jan-19,2019-01-12 22:00:00,0.044083333333333,0.027266666666667,0.0015,-0.026666666666667,-0.060666666666667,-0.13433333333333,-0.15141666666667,5,0,0,0,0,0,0,0,0,0,0,0,0,0,0,0,0,0,0,0,0,0,0,0,0,0,0,0,0,0,0,0,0,0,0,0,0,0,0,0,0,0,0
COM4,0509,12-Jan-19,2019-01-12 23:00:00,0.073433333333333,0.056816666666667,0.030616666666667,0.0066833333333333,-0.029583333333333,-0.10005,-0.11576666666667,5,0,0,0,0,0,0,0,0,0,0,0,0,0,0,0,0,0,0,0,0,0,0,0,0,0,0,0,0,0,0,0,0,0,0,0,0,0,0,0,0,0,0
