COM4,0509,12-Feb-19,2019-02-12 00:00:00,0.95027118644068,0.6974406779661,0.6085593220339,0.57220338983051,0.52940677966102,0.32698305084746,0.32313559322034,5,0,0,0,0,0,0,0,0,0,0,0,0,0,0,0,0,0,0,0,0,0,0,0,0,0,0,0,0,0,0,0,0,0,0,0,0,0,0,0,0,0,0
COM4,0509,12-Feb-19,2019-02-12 01:00:00,0.78513333333333,0.62298333333333,0.56781666666667,0.53723333333333,0.50426666666667,0.31301666666667,0.30791666666667,5,0,0,0,0,0,0,0,0,0,0,0,0,0,0,0,0,0,0,0,0,0,0,0,0,0,0,0,0,0,0,0,0,0,0,0,0,0,0,0,0,0,0
COM4,0509,12-Feb-19,2019-02-12 02:00:00,0.41485964912281,0.33691228070175,0.30922807017544,0.30222807017544,0.27224561403509,0.17112280701754,0.16584210526316,5,0,0,0,0,0,0,0,0,0,0,0,0,0,0,0,0,0,0,0,0,0,0,0,0,0,0,0,0,0,0,0,0,0,0,0,0,0,0,0,0,0,0
COM4,0509,12-Feb-19,2019-02-12 03:00:00,0.30946666666667,0.3368,0.31591666666667,0.30898333333333,0.29508333333333,0.18638333333333,0.18453333333333,5,0,0,0,0,0,0,0,0,0,0,0,0,0,0,0,0,0,0,0,0,0,0,0,0,0,0,0,0,0,0,0,0,0,0,0,0,0,0,0,0,0,0
COM4,0509,12-Feb-19,2019-02-12 04:00:00,0.41242105263158,0.39861403508772,0.35668421052632,0.33947368421053,0.31768421052632,0.19414035087719,0.18975438596491,5,0,0,0,0,0,0,0,0,0,0,0,0,0,0,0,0,0,0,0,0,0,0,0,0,0,0,0,0,0,0,0,0,0,0,0,0,0,0,0,0,0,0
COM4,0509,12-Feb-19,2019-02-12 05:00:00,0.37788333333333,0.3796,0.36088333333333,0.35116666666667,0.33553333333333,0.21625,0.21511666666667,5,0,0,0,0,0,0,0,0,0,0,0,0,0,0,0,0,0,0,0,0,0,0,0,0,0,0,0,0,0,0,0,0,0,0,0,0,0,0,0,0,0,0
COM4,0509,12-Feb-19,2019-02-12 06:00:00,0.75410169491525,0.6971186440678,0.65027118644068,0.63794915254237,0.60930508474576,0.39164406779661,0.38408474576271,5,0,0,0,0,0,0,0,0,0,0,0,0,0,0,0,0,0,0,0,0,0,0,0,0,0,0,0,0,0,0,0,0,0,0,0,0,0,0,0,0,0,0
COM4,0509,12-Feb-19,2019-02-12 07:00:00,1.6735178571429,1.5615,1.4529821428571,1.4264285714286,1.3715714285714,0.88764285714286,0.86951785714286,5,0,0,0,0,0,0,0,0,0,0,0,0,0,0,0,0,0,0,0,0,0,0,0,0,0,0,0,0,0,0,0,0,0,0,0,0,0,0,0,0,0,0
COM4,0509,12-Feb-19,2019-02-12 08:00:00,4.3278474576271,3.5825593220339,3.0063559322034,2.6980338983051,2.4528983050847,1.5043050847458,1.474186440678,5,0,0,0,0,0,0,0,0,0,0,0,0,0,0,0,0,0,0,0,0,0,0,0,0,0,0,0,0,0,0,0,0,0,0,0,0,0,0,0,0,0,0
COM4,0509,12-Feb-19,2019-02-12 09:00:00,1.9373833333333,1.8987,1.7402833333333,1.65885,1.5439166666667,0.9331,0.90643333333333,5,0,0,0,0,0,0,0,0,0,0,0,0,0,0,0,0,0,0,0,0,0,0,0,0,0,0,0,0,0,0,0,0,0,0,0,0,0,0,0,0,0,0
COM4,0509,12-Feb-19,2019-02-12 10:00:00,1.65025,1.5735666666667,1.4104333333333,1.32745,1.2222333333333,0.72166666666667,0.69563333333333,5,0,0,0,0,0,0,0,0,0,0,0,0,0,0,0,0,0,0,0,0,0,0,0,0,0,0,0,0,0,0,0,0,0,0,0,0,0,0,0,0,0,0
COM4,0509,12-Feb-19,2019-02-12 11:00:00,1.0650847457627,1.0080677966102,0.92333898305085,0.86806779661017,0.80167796610169,0.47083050847458,0.45162711864407,5,0,0,0,0,0,0,0,0,0,0,0,0,0,0,0,0,0,0,0,0,0,0,0,0,0,0,0,0,0,0,0,0,0,0,0,0,0,0,0,0,0,0
COM4,0509,12-Feb-19,2019-02-12 12:00:00,0.38256896551724,0.42572413793103,0.40415517241379,0.39056896551724,0.36655172413793,0.21496551724138,0.20955172413793,5,0,0,0,0,0,0,0,0,0,0,0,0,0,0,0,0,0,0,0,0,0,0,0,0,0,0,0,0,0,0,0,0,0,0,0,0,0,0,0,0,0,0
COM4,0509,12-Feb-19,2019-02-12 13:00:00,0.69992857142857,0.71255357142857,0.66675,0.63491071428571,0.59567857142857,0.37085714285714,0.35517857142857,5,0,0,0,0,0,0,0,0,0,0,0,0,0,0,0,0,0,0,0,0,0,0,0,0,0,0,0,0,0,0,0,0,0,0,0,0,0,0,0,0,0,0
COM4,0509,12-Feb-19,2019-02-12 14:00:00,1.4015,1.3449310344828,1.2346206896552,1.1824310344828,1.1011379310345,0.67865517241379,0.64831034482759,5,0,0,0,0,0,0,0,0,0,0,0,0,0,0,0,0,0,0,0,0,0,0,0,0,0,0,0,0,0,0,0,0,0,0,0,0,0,0,0,0,0,0
COM4,0509,12-Feb-19,2019-02-12 15:00:00,1.6971754385965,1.5844210526316,1.4645964912281,1.3937543859649,1.3061754385965,0.81177192982456,0.7730350877193,5,0,0,0,0,0,0,0,0,0,0,0,0,0,0,0,0,0,0,0,0,0,0,0,0,0,0,0,0,0,0,0,0,0,0,0,0,0,0,0,0,0,0
COM4,0509,12-Feb-19,2019-02-12 16:00:00,1.2686166666667,1.1267166666667,1.0353,0.99941666666667,0.92346666666667,0.57863333333333,0.5503,4.9983333333333,0,0,0,0,0,0,0,0,0,0,0,0,0,0,0,0,0,0,0,0,0,0,0,0,0,0,0,0,0,0,0,0,0,0,0,0,0,0,0,0,0,0
COM4,0509,12-Feb-19,2019-02-12 17:00:00,1.5563620689655,1.4008275862069,1.2759655172414,1.2075,1.1431724137931,0.73265517241379,0.7006724137931,4.9068965517241,0,0,0,0,0,0,0,0,0,0,0,0,0,0,0,0,0,0,0,0,0,0,0,0,0,0,0,0,0,0,0,0,0,0,0,0,0,0,0,0,0,0
COM4,0509,12-Feb-19,2019-02-12 18:00:00,3.600593220339,2.8072881355932,2.3667288135593,2.143186440678,1.9366779661017,1.2189152542373,1.1514237288136,4.9,0,0,0,0,0,0,0,0,0,0,0,0,0,0,0,0,0,0,0,0,0,0,0,0,0,0,0,0,0,0,0,0,0,0,0,0,0,0,0,0,0,0
COM4,0509,12-Feb-19,2019-02-12 19:00:00,5.5806724137931,4.1438275862069,3.4011896551724,2.9822068965517,2.6609137931034,1.6665862068966,1.5662068965517,4.9,0,0,0,0,0,0,0,0,0,0,0,0,0,0,0,0,0,0,0,0,0,0,0,0,0,0,0,0,0,0,0,0,0,0,0,0,0,0,0,0,0,0
COM4,0509,12-Feb-19,2019-02-12 20:00:00,6.08115,4.6242333333333,3.8675833333333,3.4663666666667,3.1115333333333,2.0118833333333,1.8691,4.9,0,0,0,0,0,0,0,0,0,0,0,0,0,0,0,0,0,0,0,0,0,0,0,0,0,0,0,0,0,0,0,0,0,0,0,0,0,0,0,0,0,0
COM4,0509,12-Feb-19,2019-02-12 21:00:00,6.7339166666667,5.1929,4.49705,4.1113833333333,3.7192166666667,2.48725,2.2714333333333,4.9,0,0,0,0,0,0,0,0,0,0,0,0,0,0,0,0,0,0,0,0,0,0,0,0,0,0,0,0,0,0,0,0,0,0,0,0,0,0,0,0,0,0
COM4,0509,12-Feb-19,2019-02-12 22:00:00,7.043593220339,5.3164237288136,4.528186440678,4.0876610169492,3.6476779661017,2.5321694915254,2.2683728813559,4.9,0,0,0,0,0,0,0,0,0,0,0,0,0,0,0,0,0,0,0,0,0,0,0,0,0,0,0,0,0,0,0,0,0,0,0,0,0,0,0,0,0,0
COM4,0509,12-Feb-19,2019-02-12 23:00:00,5.4102372881356,3.9541355932203,3.4444576271186,3.1513389830508,2.8211355932203,2.0863898305085,1.8360169491525,4.8237288135593,0,0,0,0,0,0,0,0,0,0,0,0,0,0,0,0,0,0,0,0,0,0,0,0,0,0,0,0,0,0,0,0,0,0,0,0,0,0,0,0,0,0
