COM4,0509,08-Feb-19,2019-02-08 00:00:00,0.69641379310345,0.49798275862069,0.44089655172414,0.41584482758621,0.39118965517241,0.33477586206897,0.33851724137931,5,0,0,0,0,0,0,0,0,0,0,0,0,0,0,0,0,0,0,0,0,0,0,0,0,0,0,0,0,0,0,0,0,0,0,0,0,0,0,0,0,0,0
COM4,0509,08-Feb-19,2019-02-08 01:00:00,0.58225423728814,0.43784745762712,0.38674576271186,0.36449152542373,0.33898305084746,0.28720338983051,0.28740677966102,5,0,0,0,0,0,0,0,0,0,0,0,0,0,0,0,0,0,0,0,0,0,0,0,0,0,0,0,0,0,0,0,0,0,0,0,0,0,0,0,0,0,0
COM4,0509,08-Feb-19,2019-02-08 02:00:00,0.41435,0.3374,0.30293333333333,0.28685,0.2682,0.22776666666667,0.22706666666667,5,0,0,0,0,0,0,0,0,0,0,0,0,0,0,0,0,0,0,0,0,0,0,0,0,0,0,0,0,0,0,0,0,0,0,0,0,0,0,0,0,0,0
COM4,0509,08-Feb-19,2019-02-08 03:00:00,0.34235593220339,0.27035593220339,0.24220338983051,0.22698305084746,0.21091525423729,0.17783050847458,0.178,5,0,0,0,0,0,0,0,0,0,0,0,0,0,0,0,0,0,0,0,0,0,0,0,0,0,0,0,0,0,0,0,0,0,0,0,0,0,0,0,0,0,0
COM4,0509,08-Feb-19,2019-02-08 04:00:00,0.42974576271186,0.35567796610169,0.32020338983051,0.30367796610169,0.28130508474576,0.24366101694915,0.24435593220339,5,0,0,0,0,0,0,0,0,0,0,0,0,0,0,0,0,0,0,0,0,0,0,0,0,0,0,0,0,0,0,0,0,0,0,0,0,0,0,0,0,0,0
COM4,0509,08-Feb-19,2019-02-08 05:00:00,0.41034482758621,0.32570689655172,0.28686206896552,0.27274137931034,0.25293103448276,0.21293103448276,0.21286206896552,5,0,0,0,0,0,0,0,0,0,0,0,0,0,0,0,0,0,0,0,0,0,0,0,0,0,0,0,0,0,0,0,0,0,0,0,0,0,0,0,0,0,0
COM4,0509,08-Feb-19,2019-02-08 06:00:00,0.32062711864407,0.26218644067797,0.23642372881356,0.22259322033898,0.20674576271186,0.17313559322034,0.17142372881356,5,0,0,0,0,0,0,0,0,0,0,0,0,0,0,0,0,0,0,0,0,0,0,0,0,0,0,0,0,0,0,0,0,0,0,0,0,0,0,0,0,0,0
COM4,0509,08-Feb-19,2019-02-08 07:00:00,0.3824406779661,0.31227118644068,0.27772881355932,0.26272881355932,0.24501694915254,0.21386440677966,0.21447457627119,5,0,0,0,0,0,0,0,0,0,0,0,0,0,0,0,0,0,0,0,0,0,0,0,0,0,0,0,0,0,0,0,0,0,0,0,0,0,0,0,0,0,0
COM4,0509,08-Feb-19,2019-02-08 08:00:00,0.28385,0.25425,0.23048333333333,0.21776666666667,0.20425,0.17695,0.1759,5,0,0,0,0,0,0,0,0,0,0,0,0,0,0,0,0,0,0,0,0,0,0,0,0,0,0,0,0,0,0,0,0,0,0,0,0,0,0,0,0,0,0
COM4,0509,08-Feb-19,2019-02-08 09:00:00,0.30620689655172,0.28343103448276,0.25494827586207,0.24929310344828,0.23379310344828,0.20286206896552,0.20134482758621,5,0,0,0,0,0,0,0,0,0,0,0,0,0,0,0,0,0,0,0,0,0,0,0,0,0,0,0,0,0,0,0,0,0,0,0,0,0,0,0,0,0,0
COM4,0509,08-Feb-19,2019-02-08 10:00:00,0.3951,0.36341666666667,0.3341,0.32158333333333,0.30516666666667,0.27466666666667,0.274,5,0,0,0,0,0,0,0,0,0,0,0,0,0,0,0,0,0,0,0,0,0,0,0,0,0,0,0,0,0,0,0,0,0,0,0,0,0,0,0,0,0,0
COM4,0509,08-Feb-19,2019-02-08 11:00:00,0.36857627118644,0.33052542372881,0.30696610169492,0.29294915254237,0.27905084745763,0.246,0.24574576271186,5,0,0,0,0,0,0,0,0,0,0,0,0,0,0,0,0,0,0,0,0,0,0,0,0,0,0,0,0,0,0,0,0,0,0,0,0,0,0,0,0,0,0
COM4,0509,08-Feb-19,2019-02-08 12:00:00,0.37244827586207,0.33362068965517,0.30325862068966,0.29246551724138,0.27656896551724,0.24360344827586,0.24146551724138,5,0,0,0,0,0,0,0,0,0,0,0,0,0,0,0,0,0,0,0,0,0,0,0,0,0,0,0,0,0,0,0,0,0,0,0,0,0,0,0,0,0,0
COM4,0509,08-Feb-19,2019-02-08 13:00:00,0.32366666666667,0.29738333333333,0.2743,0.26461666666667,0.24863333333333,0.22216666666667,0.22055,5,0,0,0,0,0,0,0,0,0,0,0,0,0,0,0,0,0,0,0,0,0,0,0,0,0,0,0,0,0,0,0,0,0,0,0,0,0,0,0,0,0,0
COM4,0509,08-Feb-19,2019-02-08 14:00:00,0.31794915254237,0.28523728813559,0.25989830508475,0.24940677966102,0.23583050847458,0.20832203389831,0.20759322033898,5,0,0,0,0,0,0,0,0,0,0,0,0,0,0,0,0,0,0,0,0,0,0,0,0,0,0,0,0,0,0,0,0,0,0,0,0,0,0,0,0,0,0
COM4,0509,08-Feb-19,2019-02-08 15:00:00,0.45096551724138,0.39653448275862,0.36236206896552,0.34644827586207,0.32858620689655,0.29763793103448,0.29553448275862,5,0,0,0,0,0,0,0,0,0,0,0,0,0,0,0,0,0,0,0,0,0,0,0,0,0,0,0,0,0,0,0,0,0,0,0,0,0,0,0,0,0,0
COM4,0509,08-Feb-19,2019-02-08 16:00:00,0.537125,0.46619642857143,0.42775,0.416,0.393875,0.36258928571429,0.35975,5,0,0,0,0,0,0,0,0,0,0,0,0,0,0,0,0,0,0,0,0,0,0,0,0,0,0,0,0,0,0,0,0,0,0,0,0,0,0,0,0,0,0
COM4,0509,08-Feb-19,2019-02-08 17:00:00,0.65436206896552,0.55598275862069,0.50994827586207,0.48713793103448,0.4595,0.41741379310345,0.41487931034483,5,0,0,0,0,0,0,0,0,0,0,0,0,0,0,0,0,0,0,0,0,0,0,0,0,0,0,0,0,0,0,0,0,0,0,0,0,0,0,0,0,0,0
COM4,0509,08-Feb-19,2019-02-08 18:00:00,0.59322413793103,0.48998275862069,0.44463793103448,0.42731034482759,0.40344827586207,0.3656724137931,0.3611724137931,5,0,0,0,0,0,0,0,0,0,0,0,0,0,0,0,0,0,0,0,0,0,0,0,0,0,0,0,0,0,0,0,0,0,0,0,0,0,0,0,0,0,0
COM4,0509,08-Feb-19,2019-02-08 19:00:00,2.6832413793103,1.637,1.4159655172414,1.320775862069,1.2234310344828,1.0926206896552,1.0781034482759,5,0,0,0,0,0,0,0,0,0,0,0,0,0,0,0,0,0,0,0,0,0,0,0,0,0,0,0,0,0,0,0,0,0,0,0,0,0,0,0,0,0,0
COM4,0509,08-Feb-19,2019-02-08 20:00:00,4.4606140350877,2.9705614035088,2.6050877192982,2.4387543859649,2.2741578947368,2.0313684210526,2.0184561403509,5,0,0,0,0,0,0,0,0,0,0,0,0,0,0,0,0,0,0,0,0,0,0,0,0,0,0,0,0,0,0,0,0,0,0,0,0,0,0,0,0,0,0
COM4,0509,08-Feb-19,2019-02-08 21:00:00,2.3584827586207,1.8659827586207,1.679275862069,1.5887931034483,1.4859482758621,1.3381551724138,1.3346206896552,5,0,0,0,0,0,0,0,0,0,0,0,0,0,0,0,0,0,0,0,0,0,0,0,0,0,0,0,0,0,0,0,0,0,0,0,0,0,0,0,0,0,0
COM4,0509,08-Feb-19,2019-02-08 22:00:00,2.2330508474576,1.6165762711864,1.4319322033898,1.3368813559322,1.2416271186441,1.0990338983051,1.1083728813559,5,0,0,0,0,0,0,0,0,0,0,0,0,0,0,0,0,0,0,0,0,0,0,0,0,0,0,0,0,0,0,0,0,0,0,0,0,0,0,0,0,0,0
COM4,0509,08-Feb-19,2019-02-08 23:00:00,1.9839137931034,1.4163965517241,1.2431551724138,1.1541724137931,1.0628275862069,0.92698275862069,0.94144827586207,5,0,0,0,0,0,0,0,0,0,0,0,0,0,0,0,0,0,0,0,0,0,0,0,0,0,0,0,0,0,0,0,0,0,0,0,0,0,0,0,0,0,0
