COM4,0509,08-Dec-18,2018-12-08 00:00:00,1.7113728813559,1.5383389830508,1.4298474576271,1.3962203389831,1.3526949152542,1.2720847457627,1.3048305084746,4.9,0,0,0,0,0,0,0,0,0,0,0,0,0,0,0,0,0,0,0,0,0,0,0,0,0,0,0,0,0,0,0,0,0,0,0,0,0,0,0,0,0,0
COM4,0509,08-Dec-18,2018-12-08 01:00:00,1.7109166666667,1.53445,1.4239333333333,1.3887833333333,1.3449666666667,1.2815333333333,1.3190333333333,4.9,0,0,0,0,0,0,0,0,0,0,0,0,0,0,0,0,0,0,0,0,0,0,0,0,0,0,0,0,0,0,0,0,0,0,0,0,0,0,0,0,0,0
COM4,0509,08-Dec-18,2018-12-08 02:00:00,1.5563,1.3586,1.2628333333333,1.2331833333333,1.1877833333333,1.1246666666667,1.1595166666667,4.6233333333333,0,0,0,0,0,0,0,0,0,0,0,0,0,0,0,0,0,0,0,0,0,0,0,0,0,0,0,0,0,0,0,0,0,0,0,0,0,0,0,0,0,0
COM4,0509,08-Dec-18,2018-12-08 03:00:00,1.2725,1.1431,1.0759333333333,1.0618666666667,1.0239333333333,0.99086666666667,1.0188,5,0,0,0,0,0,0,0,0,0,0,0,0,0,0,0,0,0,0,0,0,0,0,0,0,0,0,0,0,0,0,0,0,0,0,0,0,0,0,0,0,0,0
COM4,0509,08-Dec-18,2018-12-08 04:00:00,1.0179833333333,0.96641666666667,0.91583333333333,0.90858333333333,0.87991666666667,0.85865,0.88423333333333,5,0,0,0,0,0,0,0,0,0,0,0,0,0,0,0,0,0,0,0,0,0,0,0,0,0,0,0,0,0,0,0,0,0,0,0,0,0,0,0,0,0,0
COM4,0509,08-Dec-18,2018-12-08 05:00:00,0.7506,0.74098333333333,0.70868333333333,0.70816666666667,0.68988333333333,0.67893333333333,0.70006666666667,5,0,0,0,0,0,0,0,0,0,0,0,0,0,0,0,0,0,0,0,0,0,0,0,0,0,0,0,0,0,0,0,0,0,0,0,0,0,0,0,0,0,0
COM4,0509,08-Dec-18,2018-12-08 06:00:00,1.00035,0.971,0.92111666666667,0.9144,0.88775,0.8689,0.89588333333333,5,0,0,0,0,0,0,0,0,0,0,0,0,0,0,0,0,0,0,0,0,0,0,0,0,0,0,0,0,0,0,0,0,0,0,0,0,0,0,0,0,0,0
COM4,0509,08-Dec-18,2018-12-08 07:00:00,1.0051,0.96266666666667,0.91635,0.91006666666667,0.88535,0.86835,0.89561666666667,5,0,0,0,0,0,0,0,0,0,0,0,0,0,0,0,0,0,0,0,0,0,0,0,0,0,0,0,0,0,0,0,0,0,0,0,0,0,0,0,0,0,0
COM4,0509,08-Dec-18,2018-12-08 08:00:00,1.0393833333333,1.0019833333333,0.95501666666667,0.95096666666667,0.92623333333333,0.91165,0.94163333333333,5,0,0,0,0,0,0,0,0,0,0,0,0,0,0,0,0,0,0,0,0,0,0,0,0,0,0,0,0,0,0,0,0,0,0,0,0,0,0,0,0,0,0
COM4,0509,08-Dec-18,2018-12-08 09:00:00,1.1499,1.1394666666667,1.0934666666667,1.0953,1.0710333333333,1.0579333333333,1.0926166666667,5,0,0,0,0,0,0,0,0,0,0,0,0,0,0,0,0,0,0,0,0,0,0,0,0,0,0,0,0,0,0,0,0,0,0,0,0,0,0,0,0,0,0
COM4,0509,08-Dec-18,2018-12-08 10:00:00,1.07005,1.0653666666667,1.0255166666667,1.0303166666667,1.00905,1.0006833333333,1.0237833333333,5,0,0,0,0,0,0,0,0,0,0,0,0,0,0,0,0,0,0,0,0,0,0,0,0,0,0,0,0,0,0,0,0,0,0,0,0,0,0,0,0,0,0
COM4,0509,08-Dec-18,2018-12-08 11:00:00,1.10735,1.1078333333333,1.0697333333333,1.0750166666667,1.0573166666667,1.0443333333333,1.0642,5,0,0,0,0,0,0,0,0,0,0,0,0,0,0,0,0,0,0,0,0,0,0,0,0,0,0,0,0,0,0,0,0,0,0,0,0,0,0,0,0,0,0
COM4,0509,08-Dec-18,2018-12-08 12:00:00,1.2678,1.25245,1.2054333333333,1.21055,1.1896166666667,1.163,1.1831666666667,5,0,0,0,0,0,0,0,0,0,0,0,0,0,0,0,0,0,0,0,0,0,0,0,0,0,0,0,0,0,0,0,0,0,0,0,0,0,0,0,0,0,0
COM4,0509,08-Dec-18,2018-12-08 13:00:00,1.4191333333333,1.3967833333333,1.3403,1.3467666666667,1.3249666666667,1.2788333333333,1.29885,5,0,0,0,0,0,0,0,0,0,0,0,0,0,0,0,0,0,0,0,0,0,0,0,0,0,0,0,0,0,0,0,0,0,0,0,0,0,0,0,0,0,0
COM4,0509,08-Dec-18,2018-12-08 14:00:00,1.3853333333333,1.40265,1.3588666666667,1.3726333333333,1.35355,1.3038166666667,1.3201333333333,5,0,0,0,0,0,0,0,0,0,0,0,0,0,0,0,0,0,0,0,0,0,0,0,0,0,0,0,0,0,0,0,0,0,0,0,0,0,0,0,0,0,0
COM4,0509,08-Dec-18,2018-12-08 15:00:00,1.2346833333333,1.2374166666667,1.1968666666667,1.2036833333333,1.1885166666667,1.1410166666667,1.1537166666667,5,0,0,0,0,0,0,0,0,0,0,0,0,0,0,0,0,0,0,0,0,0,0,0,0,0,0,0,0,0,0,0,0,0,0,0,0,0,0,0,0,0,0
COM4,0509,08-Dec-18,2018-12-08 16:00:00,1.41945,1.4079833333333,1.3557166666667,1.3641,1.344,1.2798333333333,1.2881666666667,5,0,0,0,0,0,0,0,0,0,0,0,0,0,0,0,0,0,0,0,0,0,0,0,0,0,0,0,0,0,0,0,0,0,0,0,0,0,0,0,0,0,0
COM4,0509,08-Dec-18,2018-12-08 17:00:00,1.8489833333333,1.8280166666667,1.7567333333333,1.7619166666667,1.7348666666667,1.6467,1.6511333333333,5,0,0,0,0,0,0,0,0,0,0,0,0,0,0,0,0,0,0,0,0,0,0,0,0,0,0,0,0,0,0,0,0,0,0,0,0,0,0,0,0,0,0
COM4,0509,08-Dec-18,2018-12-08 18:00:00,2.4938166666667,2.4559166666667,2.3526166666667,2.3553666666667,2.3124833333333,2.2001,2.1957833333333,5,0,0,0,0,0,0,0,0,0,0,0,0,0,0,0,0,0,0,0,0,0,0,0,0,0,0,0,0,0,0,0,0,0,0,0,0,0,0,0,0,0,0
COM4,0509,08-Dec-18,2018-12-08 19:00:00,2.9254833333333,2.7853833333333,2.6522166666667,2.6395666666667,2.5830333333333,2.4697,2.4437,5,0,0,0,0,0,0,0,0,0,0,0,0,0,0,0,0,0,0,0,0,0,0,0,0,0,0,0,0,0,0,0,0,0,0,0,0,0,0,0,0,0,0
COM4,0509,08-Dec-18,2018-12-08 20:00:00,2.9492,2.7170666666667,2.5624666666667,2.53115,2.466,2.3648,2.3486666666667,4.9733333333333,0,0,0,0,0,0,0,0,0,0,0,0,0,0,0,0,0,0,0,0,0,0,0,0,0,0,0,0,0,0,0,0,0,0,0,0,0,0,0,0,0,0
COM4,0509,08-Dec-18,2018-12-08 21:00:00,2.64355,2.4859666666667,2.3488333333333,2.3214333333333,2.2646333333333,2.1771833333333,2.2160666666667,4.9,0,0,0,0,0,0,0,0,0,0,0,0,0,0,0,0,0,0,0,0,0,0,0,0,0,0,0,0,0,0,0,0,0,0,0,0,0,0,0,0,0,0
COM4,0509,08-Dec-18,2018-12-08 22:00:00,2.6251333333333,2.4528166666667,2.3095666666667,2.2761333333333,2.2141166666667,2.1120666666667,2.17005,4.9,0,0,0,0,0,0,0,0,0,0,0,0,0,0,0,0,0,0,0,0,0,0,0,0,0,0,0,0,0,0,0,0,0,0,0,0,0,0,0,0,0,0
COM4,0509,08-Dec-18,2018-12-08 23:00:00,3.1955833333333,2.9071166666667,2.7146833333333,2.6614,2.57725,2.4452333333333,2.5094333333333,4.9,0,0,0,0,0,0,0,0,0,0,0,0,0,0,0,0,0,0,0,0,0,0,0,0,0,0,0,0,0,0,0,0,0,0,0,0,0,0,0,0,0,0
