COM7,0507,31-Dec-18,2018-12-31 00:00:00,0.56210169491525,0.44896610169492,0.40935593220339,0.39323728813559,0.36972881355932,0.34349152542373,0.34966101694915,4.8932203389831,0,0,0,0,0,0,0,0,0,0,0,0,0,0,0,0,0,0,0,0,0,0,0,0,0,0,0,0,0,0,0,0,0,0,0,0,0,0,0,0,0,0
COM7,0507,31-Dec-18,2018-12-31 01:00:00,0.41055,0.31438333333333,0.28205,0.27046666666667,0.2532,0.23671666666667,0.24221666666667,4.805,0,0,0,0,0,0,0,0,0,0,0,0,0,0,0,0,0,0,0,0,0,0,0,0,0,0,0,0,0,0,0,0,0,0,0,0,0,0,0,0,0,0
COM7,0507,31-Dec-18,2018-12-31 02:00:00,0.34781666666667,0.26471666666667,0.23708333333333,0.2267,0.21213333333333,0.20055,0.20555,4.8,0,0,0,0,0,0,0,0,0,0,0,0,0,0,0,0,0,0,0,0,0,0,0,0,0,0,0,0,0,0,0,0,0,0,0,0,0,0,0,0,0,0
COM7,0507,31-Dec-18,2018-12-31 03:00:00,0.16918333333333,0.13881666666667,0.12623333333333,0.12068333333333,0.11225,0.10246666666667,0.10451666666667,4.8,0,0,0,0,0,0,0,0,0,0,0,0,0,0,0,0,0,0,0,0,0,0,0,0,0,0,0,0,0,0,0,0,0,0,0,0,0,0,0,0,0,0
COM7,0507,31-Dec-18,2018-12-31 04:00:00,0.2741,0.19736666666667,0.1747,0.16443333333333,0.15198333333333,0.13885,0.1414,4.8,0,0,0,0,0,0,0,0,0,0,0,0,0,0,0,0,0,0,0,0,0,0,0,0,0,0,0,0,0,0,0,0,0,0,0,0,0,0,0,0,0,0
COM7,0507,31-Dec-18,2018-12-31 05:00:00,0.5882,0.43306666666667,0.38541666666667,0.3655,0.33893333333333,0.30973333333333,0.31546666666667,4.8,0,0,0,0,0,0,0,0,0,0,0,0,0,0,0,0,0,0,0,0,0,0,0,0,0,0,0,0,0,0,0,0,0,0,0,0,0,0,0,0,0,0
COM7,0507,31-Dec-18,2018-12-31 06:00:00,0.16126666666667,0.17306666666667,0.16256666666667,0.15766666666667,0.14895,0.14095,0.14408333333333,4.8,0,0,0,0,0,0,0,0,0,0,0,0,0,0,0,0,0,0,0,0,0,0,0,0,0,0,0,0,0,0,0,0,0,0,0,0,0,0,0,0,0,0
COM7,0507,31-Dec-18,2018-12-31 07:00:00,0.23695,0.22855,0.21268333333333,0.2066,0.19471666666667,0.18341666666667,0.18755,4.8,0,0,0,0,0,0,0,0,0,0,0,0,0,0,0,0,0,0,0,0,0,0,0,0,0,0,0,0,0,0,0,0,0,0,0,0,0,0,0,0,0,0
COM7,0507,31-Dec-18,2018-12-31 08:00:00,0.32415,0.28548333333333,0.26168333333333,0.25435,0.23893333333333,0.2276,0.23325,4.8,0,0,0,0,0,0,0,0,0,0,0,0,0,0,0,0,0,0,0,0,0,0,0,0,0,0,0,0,0,0,0,0,0,0,0,0,0,0,0,0,0,0
COM7,0507,31-Dec-18,2018-12-31 09:00:00,0.40791666666667,0.35783333333333,0.33023333333333,0.31995,0.30261666666667,0.28413333333333,0.29111666666667,4.8,0,0,0,0,0,0,0,0,0,0,0,0,0,0,0,0,0,0,0,0,0,0,0,0,0,0,0,0,0,0,0,0,0,0,0,0,0,0,0,0,0,0
COM7,0507,31-Dec-18,2018-12-31 10:00:00,0.47393333333333,0.38706666666667,0.35343333333333,0.34326666666667,0.32363333333333,0.30186666666667,0.312,4.4933333333333,0,0,0,0,0,0,0,0,0,0,0,0,0,0,0,0,0,0,0,0,0,0,0,0,0,0,0,0,0,0,0,0,0,0,0,0,0,0,0,0,0,0
COM7,0507,31-Dec-18,2018-12-31 11:00:00,0.59421666666667,0.44135,0.41078333333333,0.39948333333333,0.38116666666667,0.36023333333333,0.36845,4.9,0,0,0,0,0,0,0,0,0,0,0,0,0,0,0,0,0,0,0,0,0,0,0,0,0,0,0,0,0,0,0,0,0,0,0,0,0,0,0,0,0,0
COM7,0507,31-Dec-18,2018-12-31 12:00:00,0.42118333333333,0.3238,0.29698333333333,0.28691666666667,0.27133333333333,0.25825,0.26295,4.9,0,0,0,0,0,0,0,0,0,0,0,0,0,0,0,0,0,0,0,0,0,0,0,0,0,0,0,0,0,0,0,0,0,0,0,0,0,0,0,0,0,0
COM7,0507,31-Dec-18,2018-12-31 13:00:00,0.2929,0.2849,0.26538333333333,0.25785,0.24438333333333,0.23133333333333,0.23561666666667,4.9,0,0,0,0,0,0,0,0,0,0,0,0,0,0,0,0,0,0,0,0,0,0,0,0,0,0,0,0,0,0,0,0,0,0,0,0,0,0,0,0,0,0
COM7,0507,31-Dec-18,2018-12-31 14:00:00,0.31671666666667,0.2994,0.27916666666667,0.27176666666667,0.2579,0.24535,0.2505,4.9,0,0,0,0,0,0,0,0,0,0,0,0,0,0,0,0,0,0,0,0,0,0,0,0,0,0,0,0,0,0,0,0,0,0,0,0,0,0,0,0,0,0
COM7,0507,31-Dec-18,2018-12-31 15:00:00,0.32205,0.31166666666667,0.29213333333333,0.28595,0.27376666666667,0.26118333333333,0.26731666666667,4.9,0,0,0,0,0,0,0,0,0,0,0,0,0,0,0,0,0,0,0,0,0,0,0,0,0,0,0,0,0,0,0,0,0,0,0,0,0,0,0,0,0,0
COM7,0507,31-Dec-18,2018-12-31 16:00:00,0.3859,0.3536,0.32821666666667,0.31881666666667,0.30178333333333,0.2826,0.2883,4.9,0,0,0,0,0,0,0,0,0,0,0,0,0,0,0,0,0,0,0,0,0,0,0,0,0,0,0,0,0,0,0,0,0,0,0,0,0,0,0,0,0,0
COM7,0507,31-Dec-18,2018-12-31 17:00:00,0.69738333333333,0.50243333333333,0.44146666666667,0.41333333333333,0.37878333333333,0.33846666666667,0.34326666666667,4.9,0,0,0,0,0,0,0,0,0,0,0,0,0,0,0,0,0,0,0,0,0,0,0,0,0,0,0,0,0,0,0,0,0,0,0,0,0,0,0,0,0,0
COM7,0507,31-Dec-18,2018-12-31 18:00:00,0.5796,0.42318333333333,0.37448333333333,0.35136666666667,0.32315,0.28918333333333,0.29378333333333,4.9,0,0,0,0,0,0,0,0,0,0,0,0,0,0,0,0,0,0,0,0,0,0,0,0,0,0,0,0,0,0,0,0,0,0,0,0,0,0,0,0,0,0
COM7,0507,31-Dec-18,2018-12-31 19:00:00,0.39901666666667,0.32056666666667,0.29083333333333,0.27611666666667,0.2571,0.2349,0.23953333333333,4.9,0,0,0,0,0,0,0,0,0,0,0,0,0,0,0,0,0,0,0,0,0,0,0,0,0,0,0,0,0,0,0,0,0,0,0,0,0,0,0,0,0,0
COM7,0507,31-Dec-18,2018-12-31 20:00:00,0.59133333333333,0.46558333333333,0.41543333333333,0.39233333333333,0.36195,0.32435,0.32938333333333,4.9,0,0,0,0,0,0,0,0,0,0,0,0,0,0,0,0,0,0,0,0,0,0,0,0,0,0,0,0,0,0,0,0,0,0,0,0,0,0,0,0,0,0
COM7,0507,31-Dec-18,2018-12-31 21:00:00,0.3654,0.27918333333333,0.246,0.2294,0.2089,0.18548333333333,0.1885,4.9,0,0,0,0,0,0,0,0,0,0,0,0,0,0,0,0,0,0,0,0,0,0,0,0,0,0,0,0,0,0,0,0,0,0,0,0,0,0,0,0,0,0
COM7,0507,31-Dec-18,2018-12-31 22:00:00,0.36873333333333,0.2793,0.24885,0.23563333333333,0.21866666666667,0.20076666666667,0.20363333333333,4.9,0,0,0,0,0,0,0,0,0,0,0,0,0,0,0,0,0,0,0,0,0,0,0,0,0,0,0,0,0,0,0,0,0,0,0,0,0,0,0,0,0,0
COM7,0507,31-Dec-18,2018-12-31 23:00:00,1.05265,0.73236666666667,0.64526666666667,0.60805,0.55866666666667,0.50006666666667,0.50631666666667,4.9,0,0,0,0,0,0,0,0,0,0,0,0,0,0,0,0,0,0,0,0,0,0,0,0,0,0,0,0,0,0,0,0,0,0,0,0,0,0,0,0,0,0
