COM7,0507,16-Jan-19,2019-01-16 00:00:00,1.8500169491525,1.5123220338983,1.3627288135593,1.3067627118644,1.2146949152542,1.1270338983051,1.150593220339,4.7,0,0,0,0,0,0,0,0,0,0,0,0,0,0,0,0,0,0,0,0,0,0,0,0,0,0,0,0,0,0,0,0,0,0,0,0,0,0,0,0,0,0
COM7,0507,16-Jan-19,2019-01-16 01:00:00,0.30335,0.54143333333333,0.50658333333333,0.50573333333333,0.4863,0.467,0.4814,4.7,0,0,0,0,0,0,0,0,0,0,0,0,0,0,0,0,0,0,0,0,0,0,0,0,0,0,0,0,0,0,0,0,0,0,0,0,0,0,0,0,0,0
COM7,0507,16-Jan-19,2019-01-16 02:00:00,-0.79665,-0.2369,-0.18975,-0.16376666666667,-0.1412,-0.11886666666667,-0.11898333333333,4.7,0,0,0,0,0,0,0,0,0,0,0,0,0,0,0,0,0,0,0,0,0,0,0,0,0,0,0,0,0,0,0,0,0,0,0,0,0,0,0,0,0,0
COM7,0507,16-Jan-19,2019-01-16 03:00:00,-0.20721666666667,0.012983333333333,0.026583333333333,0.03225,0.0337,0.0339,0.035916666666667,4.7,0,0,0,0,0,0,0,0,0,0,0,0,0,0,0,0,0,0,0,0,0,0,0,0,0,0,0,0,0,0,0,0,0,0,0,0,0,0,0,0,0,0
COM7,0507,16-Jan-19,2019-01-16 04:00:00,-0.22423333333333,-0.031433333333333,-0.00755,0.0031333333333333,0.0077833333333333,0.0105,0.0098666666666667,4.7,0,0,0,0,0,0,0,0,0,0,0,0,0,0,0,0,0,0,0,0,0,0,0,0,0,0,0,0,0,0,0,0,0,0,0,0,0,0,0,0,0,0
COM7,0507,16-Jan-19,2019-01-16 05:00:00,-0.1138,0.0091,0.025433333333333,0.034766666666667,0.036283333333333,0.040466666666667,0.042033333333333,4.7,0,0,0,0,0,0,0,0,0,0,0,0,0,0,0,0,0,0,0,0,0,0,0,0,0,0,0,0,0,0,0,0,0,0,0,0,0,0,0,0,0,0
COM7,0507,16-Jan-19,2019-01-16 06:00:00,-0.12578333333333,-0.017866666666667,-0.001,0.0086,0.012116666666667,0.012583333333333,0.01505,4.7,0,0,0,0,0,0,0,0,0,0,0,0,0,0,0,0,0,0,0,0,0,0,0,0,0,0,0,0,0,0,0,0,0,0,0,0,0,0,0,0,0,0
COM7,0507,16-Jan-19,2019-01-16 07:00:00,0.039583333333333,0.081533333333333,0.083466666666667,0.084216666666667,0.07795,0.07435,0.076966666666667,4.7,0,0,0,0,0,0,0,0,0,0,0,0,0,0,0,0,0,0,0,0,0,0,0,0,0,0,0,0,0,0,0,0,0,0,0,0,0,0,0,0,0,0
COM7,0507,16-Jan-19,2019-01-16 08:00:00,0.073716666666667,0.11995,0.11793333333333,0.11805,0.11273333333333,0.10476666666667,0.10741666666667,4.7,0,0,0,0,0,0,0,0,0,0,0,0,0,0,0,0,0,0,0,0,0,0,0,0,0,0,0,0,0,0,0,0,0,0,0,0,0,0,0,0,0,0
COM7,0507,16-Jan-19,2019-01-16 09:00:00,0.055216666666667,0.08815,0.0858,0.087066666666667,0.082566666666667,0.079316666666667,0.08045,4.7,0,0,0,0,0,0,0,0,0,0,0,0,0,0,0,0,0,0,0,0,0,0,0,0,0,0,0,0,0,0,0,0,0,0,0,0,0,0,0,0,0,0
COM7,0507,16-Jan-19,2019-01-16 10:00:00,-0.030866666666667,0.020833333333333,0.026933333333333,0.029483333333333,0.02675,0.026466666666667,0.028066666666667,4.7,0,0,0,0,0,0,0,0,0,0,0,0,0,0,0,0,0,0,0,0,0,0,0,0,0,0,0,0,0,0,0,0,0,0,0,0,0,0,0,0,0,0
COM7,0507,16-Jan-19,2019-01-16 11:00:00,0.55063333333333,0.34518333333333,0.29868333333333,0.27398333333333,0.24801666666667,0.21351666666667,0.2183,4.56,0,0,0,0,0,0,0,0,0,0,0,0,0,0,0,0,0,0,0,0,0,0,0,0,0,0,0,0,0,0,0,0,0,0,0,0,0,0,0,0,0,0
COM7,0507,16-Jan-19,2019-01-16 12:00:00,0.59673333333333,0.40255,0.34556666666667,0.314,0.28498333333333,0.25461666666667,0.25793333333333,4.9,0,0,0,0,0,0,0,0,0,0,0,0,0,0,0,0,0,0,0,0,0,0,0,0,0,0,0,0,0,0,0,0,0,0,0,0,0,0,0,0,0,0
COM7,0507,16-Jan-19,2019-01-16 13:00:00,0.28336666666667,0.25441666666667,0.2288,0.21683333333333,0.20018333333333,0.18356666666667,0.18598333333333,4.9,0,0,0,0,0,0,0,0,0,0,0,0,0,0,0,0,0,0,0,0,0,0,0,0,0,0,0,0,0,0,0,0,0,0,0,0,0,0,0,0,0,0
COM7,0507,16-Jan-19,2019-01-16 14:00:00,0.21306666666667,0.20583333333333,0.18858333333333,0.17936666666667,0.16826666666667,0.15423333333333,0.15813333333333,4.9,0,0,0,0,0,0,0,0,0,0,0,0,0,0,0,0,0,0,0,0,0,0,0,0,0,0,0,0,0,0,0,0,0,0,0,0,0,0,0,0,0,0
COM7,0507,16-Jan-19,2019-01-16 15:00:00,0.086583333333333,0.10318333333333,0.09845,0.096883333333333,0.09225,0.088466666666667,0.08965,4.9,0,0,0,0,0,0,0,0,0,0,0,0,0,0,0,0,0,0,0,0,0,0,0,0,0,0,0,0,0,0,0,0,0,0,0,0,0,0,0,0,0,0
COM7,0507,16-Jan-19,2019-01-16 16:00:00,0.36838333333333,0.33033333333333,0.30523333333333,0.29543333333333,0.28138333333333,0.27135,0.27811666666667,4.9,0,0,0,0,0,0,0,0,0,0,0,0,0,0,0,0,0,0,0,0,0,0,0,0,0,0,0,0,0,0,0,0,0,0,0,0,0,0,0,0,0,0
COM7,0507,16-Jan-19,2019-01-16 17:00:00,0.19653333333333,0.17128333333333,0.15706666666667,0.14925,0.13941666666667,0.12993333333333,0.13176666666667,4.9,0,0,0,0,0,0,0,0,0,0,0,0,0,0,0,0,0,0,0,0,0,0,0,0,0,0,0,0,0,0,0,0,0,0,0,0,0,0,0,0,0,0
COM7,0507,16-Jan-19,2019-01-16 18:00:00,0.21523333333333,0.15313333333333,0.13148333333333,0.11731666666667,0.10448333333333,0.090433333333333,0.091766666666667,4.9,0,0,0,0,0,0,0,0,0,0,0,0,0,0,0,0,0,0,0,0,0,0,0,0,0,0,0,0,0,0,0,0,0,0,0,0,0,0,0,0,0,0
COM7,0507,16-Jan-19,2019-01-16 19:00:00,0.38261666666667,0.29181666666667,0.25616666666667,0.23498333333333,0.21405,0.19128333333333,0.19436666666667,4.9,0,0,0,0,0,0,0,0,0,0,0,0,0,0,0,0,0,0,0,0,0,0,0,0,0,0,0,0,0,0,0,0,0,0,0,0,0,0,0,0,0,0
COM7,0507,16-Jan-19,2019-01-16 20:00:00,0.12398333333333,0.1224,0.11488333333333,0.10873333333333,0.10148333333333,0.093333333333333,0.0945,4.9,0,0,0,0,0,0,0,0,0,0,0,0,0,0,0,0,0,0,0,0,0,0,0,0,0,0,0,0,0,0,0,0,0,0,0,0,0,0,0,0,0,0
COM7,0507,16-Jan-19,2019-01-16 21:00:00,0.065383333333333,0.071833333333333,0.068133333333333,0.0657,0.061383333333333,0.056733333333333,0.0582,4.9,0,0,0,0,0,0,0,0,0,0,0,0,0,0,0,0,0,0,0,0,0,0,0,0,0,0,0,0,0,0,0,0,0,0,0,0,0,0,0,0,0,0
COM7,0507,16-Jan-19,2019-01-16 22:00:00,0.045583333333333,0.04695,0.043433333333333,0.040316666666667,0.036916666666667,0.034233333333333,0.034466666666667,4.9,0,0,0,0,0,0,0,0,0,0,0,0,0,0,0,0,0,0,0,0,0,0,0,0,0,0,0,0,0,0,0,0,0,0,0,0,0,0,0,0,0,0
COM7,0507,16-Jan-19,2019-01-16 23:00:00,0.1037,0.095316666666667,0.088383333333333,0.084816666666667,0.080783333333333,0.075816666666667,0.078016666666667,4.9,0,0,0,0,0,0,0,0,0,0,0,0,0,0,0,0,0,0,0,0,0,0,0,0,0,0,0,0,0,0,0,0,0,0,0,0,0,0,0,0,0,0
