COM7,0507,29-Nov-18,2018-11-29 00:00:00,0.072372881355932,0.075033898305085,0.073237288135593,0.072372881355932,0.068186440677966,0.064271186440678,0.065745762711864,4.8,0,0,0,0,0,0,0,0,0,0,0,0,0,0,0,0,0,0,0,0,0,0,0,0,0,0,0,0,0,0,0,0,0,0,0,0,0,0,0,0,0,0
COM7,0507,29-Nov-18,2018-11-29 01:00:00,0.17058333333333,0.13155,0.11931666666667,0.1129,0.10445,0.095166666666667,0.095516666666667,4.8,0,0,0,0,0,0,0,0,0,0,0,0,0,0,0,0,0,0,0,0,0,0,0,0,0,0,0,0,0,0,0,0,0,0,0,0,0,0,0,0,0,0
COM7,0507,29-Nov-18,2018-11-29 02:00:00,0.3321,0.22101666666667,0.19061666666667,0.17283333333333,0.15353333333333,0.13191666666667,0.13293333333333,4.8,0,0,0,0,0,0,0,0,0,0,0,0,0,0,0,0,0,0,0,0,0,0,0,0,0,0,0,0,0,0,0,0,0,0,0,0,0,0,0,0,0,0
COM7,0507,29-Nov-18,2018-11-29 03:00:00,0.31653333333333,0.22056666666667,0.19503333333333,0.17808333333333,0.16085,0.141,0.1418,4.8,0,0,0,0,0,0,0,0,0,0,0,0,0,0,0,0,0,0,0,0,0,0,0,0,0,0,0,0,0,0,0,0,0,0,0,0,0,0,0,0,0,0
COM7,0507,29-Nov-18,2018-11-29 04:00:00,0.42503333333333,0.2742,0.23791666666667,0.22176666666667,0.20193333333333,0.18028333333333,0.18403333333333,4.8,0,0,0,0,0,0,0,0,0,0,0,0,0,0,0,0,0,0,0,0,0,0,0,0,0,0,0,0,0,0,0,0,0,0,0,0,0,0,0,0,0,0
COM7,0507,29-Nov-18,2018-11-29 05:00:00,0.24865,0.18968333333333,0.16668333333333,0.15563333333333,0.14258333333333,0.12953333333333,0.13155,4.8,0,0,0,0,0,0,0,0,0,0,0,0,0,0,0,0,0,0,0,0,0,0,0,0,0,0,0,0,0,0,0,0,0,0,0,0,0,0,0,0,0,0
COM7,0507,29-Nov-18,2018-11-29 06:00:00,0.4786,0.43336666666667,0.401,0.38935,0.36801666666667,0.34845,0.35671666666667,4.8,0,0,0,0,0,0,0,0,0,0,0,0,0,0,0,0,0,0,0,0,0,0,0,0,0,0,0,0,0,0,0,0,0,0,0,0,0,0,0,0,0,0
COM7,0507,29-Nov-18,2018-11-29 07:00:00,0.98413333333333,0.89956666666667,0.83805,0.8169,0.7746,0.74188333333333,0.76136666666667,4.8,0,0,0,0,0,0,0,0,0,0,0,0,0,0,0,0,0,0,0,0,0,0,0,0,0,0,0,0,0,0,0,0,0,0,0,0,0,0,0,0,0,0
COM7,0507,29-Nov-18,2018-11-29 08:00:00,1.5427666666667,1.4627833333333,1.3781333333333,1.3528,1.2909833333333,1.2428,1.2776,4.7333333333333,0,0,0,0,0,0,0,0,0,0,0,0,0,0,0,0,0,0,0,0,0,0,0,0,0,0,0,0,0,0,0,0,0,0,0,0,0,0,0,0,0,0
COM7,0507,29-Nov-18,2018-11-29 09:00:00,1.5724666666667,1.4666833333333,1.3825,1.3555,1.2993,1.2572,1.2951166666667,4.48,0,0,0,0,0,0,0,0,0,0,0,0,0,0,0,0,0,0,0,0,0,0,0,0,0,0,0,0,0,0,0,0,0,0,0,0,0,0,0,0,0,0
COM7,0507,29-Nov-18,2018-11-29 10:00:00,1.2720333333333,1.2104833333333,1.1442,1.12315,1.0821166666667,1.05965,1.0862833333333,4.9,0,0,0,0,0,0,0,0,0,0,0,0,0,0,0,0,0,0,0,0,0,0,0,0,0,0,0,0,0,0,0,0,0,0,0,0,0,0,0,0,0,0
COM7,0507,29-Nov-18,2018-11-29 11:00:00,3.5162333333333,3.5193166666667,3.3376166666667,3.2892666666667,3.1855333333333,3.1727666666667,3.2649,4.9,0,0,0,0,0,0,0,0,0,0,0,0,0,0,0,0,0,0,0,0,0,0,0,0,0,0,0,0,0,0,0,0,0,0,0,0,0,0,0,0,0,0
COM7,0507,29-Nov-18,2018-11-29 12:00:00,0.66533333333333,0.67506666666667,0.64813333333333,0.64401666666667,0.62255,0.61251666666667,0.62923333333333,4.9,0,0,0,0,0,0,0,0,0,0,0,0,0,0,0,0,0,0,0,0,0,0,0,0,0,0,0,0,0,0,0,0,0,0,0,0,0,0,0,0,0,0
COM7,0507,29-Nov-18,2018-11-29 13:00:00,0.50163333333333,0.46123333333333,0.43035,0.42021666666667,0.39961666666667,0.38516666666667,0.39425,4.895,0,0,0,0,0,0,0,0,0,0,0,0,0,0,0,0,0,0,0,0,0,0,0,0,0,0,0,0,0,0,0,0,0,0,0,0,0,0,0,0,0,0
COM7,0507,29-Nov-18,2018-11-29 14:00:00,1.6323,1.4456666666667,1.3357166666667,1.2974666666667,1.23305,1.1893666666667,1.2219833333333,4.8,0,0,0,0,0,0,0,0,0,0,0,0,0,0,0,0,0,0,0,0,0,0,0,0,0,0,0,0,0,0,0,0,0,0,0,0,0,0,0,0,0,0
COM7,0507,29-Nov-18,2018-11-29 15:00:00,1.3449,1.3454833333333,1.28195,1.2704333333333,1.2234,1.1989166666667,1.23425,4.8,0,0,0,0,0,0,0,0,0,0,0,0,0,0,0,0,0,0,0,0,0,0,0,0,0,0,0,0,0,0,0,0,0,0,0,0,0,0,0,0,0,0
COM7,0507,29-Nov-18,2018-11-29 16:00:00,1.4134,1.3952166666667,1.3283833333333,1.3175666666667,1.26725,1.2421333333333,1.2779166666667,4.8,0,0,0,0,0,0,0,0,0,0,0,0,0,0,0,0,0,0,0,0,0,0,0,0,0,0,0,0,0,0,0,0,0,0,0,0,0,0,0,0,0,0
COM7,0507,29-Nov-18,2018-11-29 17:00:00,2.1925666666667,2.0645833333333,1.9419666666667,1.9081,1.8193833333333,1.7575333333333,1.8075666666667,4.8,0,0,0,0,0,0,0,0,0,0,0,0,0,0,0,0,0,0,0,0,0,0,0,0,0,0,0,0,0,0,0,0,0,0,0,0,0,0,0,0,0,0
COM7,0507,29-Nov-18,2018-11-29 18:00:00,0.7488,0.7305,0.6855,0.6715,0.63778333333333,0.60973333333333,0.62646666666667,4.8,0,0,0,0,0,0,0,0,0,0,0,0,0,0,0,0,0,0,0,0,0,0,0,0,0,0,0,0,0,0,0,0,0,0,0,0,0,0,0,0,0,0
COM7,0507,29-Nov-18,2018-11-29 19:00:00,0.047866666666667,0.067933333333333,0.069933333333333,0.068733333333333,0.064333333333333,0.0612,0.062716666666667,4.8,0,0,0,0,0,0,0,0,0,0,0,0,0,0,0,0,0,0,0,0,0,0,0,0,0,0,0,0,0,0,0,0,0,0,0,0,0,0,0,0,0,0
COM7,0507,29-Nov-18,2018-11-29 20:00:00,0.2544,0.18161666666667,0.16028333333333,0.14643333333333,0.13335,0.11391666666667,0.11555,4.8,0,0,0,0,0,0,0,0,0,0,0,0,0,0,0,0,0,0,0,0,0,0,0,0,0,0,0,0,0,0,0,0,0,0,0,0,0,0,0,0,0,0
COM7,0507,29-Nov-18,2018-11-29 21:00:00,0.0275,0.045316666666667,0.046866666666667,0.048,0.045466666666667,0.04475,0.046983333333333,4.8,0,0,0,0,0,0,0,0,0,0,0,0,0,0,0,0,0,0,0,0,0,0,0,0,0,0,0,0,0,0,0,0,0,0,0,0,0,0,0,0,0,0
COM7,0507,29-Nov-18,2018-11-29 22:00:00,0.25536666666667,0.1991,0.18135,0.17273333333333,0.159,0.14426666666667,0.14698333333333,4.8,0,0,0,0,0,0,0,0,0,0,0,0,0,0,0,0,0,0,0,0,0,0,0,0,0,0,0,0,0,0,0,0,0,0,0,0,0,0,0,0,0,0
COM7,0507,29-Nov-18,2018-11-29 23:00:00,0.14095,0.10885,0.095833333333333,0.0883,0.079633333333333,0.0703,0.071533333333333,4.8,0,0,0,0,0,0,0,0,0,0,0,0,0,0,0,0,0,0,0,0,0,0,0,0,0,0,0,0,0,0,0,0,0,0,0,0,0,0,0,0,0,0
