COM7,0507,18-Dec-18,2018-12-18 00:00:00,2.2165084745763,1.7492881355932,1.5799661016949,1.4886779661017,1.3720677966102,1.264186440678,1.2945254237288,4.9,0,0,0,0,0,0,0,0,0,0,0,0,0,0,0,0,0,0,0,0,0,0,0,0,0,0,0,0,0,0,0,0,0,0,0,0,0,0,0,0,0,0
COM7,0507,18-Dec-18,2018-12-18 01:00:00,4.0925833333333,3.53715,3.2124666666667,3.0537333333333,2.8289666666667,2.6205,2.6907666666667,4.9,0,0,0,0,0,0,0,0,0,0,0,0,0,0,0,0,0,0,0,0,0,0,0,0,0,0,0,0,0,0,0,0,0,0,0,0,0,0,0,0,0,0
COM7,0507,18-Dec-18,2018-12-18 02:00:00,4.1135166666667,3.4443833333333,3.0765333333333,2.8881833333333,2.6444166666667,2.4118833333333,2.4726,4.9,0,0,0,0,0,0,0,0,0,0,0,0,0,0,0,0,0,0,0,0,0,0,0,0,0,0,0,0,0,0,0,0,0,0,0,0,0,0,0,0,0,0
COM7,0507,18-Dec-18,2018-12-18 03:00:00,1.1171333333333,1.1939833333333,1.0789833333333,1.0324666666667,0.95778333333333,0.8815,0.9045,4.8816666666667,0,0,0,0,0,0,0,0,0,0,0,0,0,0,0,0,0,0,0,0,0,0,0,0,0,0,0,0,0,0,0,0,0,0,0,0,0,0,0,0,0,0
COM7,0507,18-Dec-18,2018-12-18 04:00:00,1.7940833333333,1.6294333333333,1.4547166666667,1.3811666666667,1.2686666666667,1.15325,1.1805833333333,4.8083333333333,0,0,0,0,0,0,0,0,0,0,0,0,0,0,0,0,0,0,0,0,0,0,0,0,0,0,0,0,0,0,0,0,0,0,0,0,0,0,0,0,0,0
COM7,0507,18-Dec-18,2018-12-18 05:00:00,0.65531666666667,0.68475,0.61088333333333,0.57345,0.5243,0.47411666666667,0.48561666666667,4.8,0,0,0,0,0,0,0,0,0,0,0,0,0,0,0,0,0,0,0,0,0,0,0,0,0,0,0,0,0,0,0,0,0,0,0,0,0,0,0,0,0,0
COM7,0507,18-Dec-18,2018-12-18 06:00:00,1.7697,1.5712,1.4098,1.3358833333333,1.2287,1.11775,1.1456333333333,4.8,0,0,0,0,0,0,0,0,0,0,0,0,0,0,0,0,0,0,0,0,0,0,0,0,0,0,0,0,0,0,0,0,0,0,0,0,0,0,0,0,0,0
COM7,0507,18-Dec-18,2018-12-18 07:00:00,1.8411,1.5899833333333,1.41505,1.3358166666667,1.2204,1.1073666666667,1.1366,4.8,0,0,0,0,0,0,0,0,0,0,0,0,0,0,0,0,0,0,0,0,0,0,0,0,0,0,0,0,0,0,0,0,0,0,0,0,0,0,0,0,0,0
COM7,0507,18-Dec-18,2018-12-18 08:00:00,2.6691,2.4166333333333,2.1845833333333,2.08815,1.9274666666667,1.7683666666667,1.8126,4.8,0,0,0,0,0,0,0,0,0,0,0,0,0,0,0,0,0,0,0,0,0,0,0,0,0,0,0,0,0,0,0,0,0,0,0,0,0,0,0,0,0,0
COM7,0507,18-Dec-18,2018-12-18 09:00:00,2.9953333333333,2.8651166666667,2.63575,2.5452,2.37005,2.19135,2.25315,4.8,0,0,0,0,0,0,0,0,0,0,0,0,0,0,0,0,0,0,0,0,0,0,0,0,0,0,0,0,0,0,0,0,0,0,0,0,0,0,0,0,0,0
COM7,0507,18-Dec-18,2018-12-18 10:00:00,2.89965,2.8650833333333,2.6485333333333,2.5763333333333,2.4033166666667,2.2333666666667,2.2934166666667,4.8,0,0,0,0,0,0,0,0,0,0,0,0,0,0,0,0,0,0,0,0,0,0,0,0,0,0,0,0,0,0,0,0,0,0,0,0,0,0,0,0,0,0
COM7,0507,18-Dec-18,2018-12-18 11:00:00,2.4504,2.4464,2.2733833333333,2.2062166666667,2.0551666666667,1.9126833333333,1.9641333333333,4.7833333333333,0,0,0,0,0,0,0,0,0,0,0,0,0,0,0,0,0,0,0,0,0,0,0,0,0,0,0,0,0,0,0,0,0,0,0,0,0,0,0,0,0,0
COM7,0507,18-Dec-18,2018-12-18 12:00:00,1.9807333333333,2.0043833333333,1.8542,1.8028,1.6801666666667,1.5604666666667,1.6072833333333,4.7,0,0,0,0,0,0,0,0,0,0,0,0,0,0,0,0,0,0,0,0,0,0,0,0,0,0,0,0,0,0,0,0,0,0,0,0,0,0,0,0,0,0
COM7,0507,18-Dec-18,2018-12-18 13:00:00,0.56443333333333,0.50655,0.48875,0.48301666666667,0.4665,0.45851666666667,0.47351666666667,4.6466666666667,0,0,0,0,0,0,0,0,0,0,0,0,0,0,0,0,0,0,0,0,0,0,0,0,0,0,0,0,0,0,0,0,0,0,0,0,0,0,0,0,0,0
COM7,0507,18-Dec-18,2018-12-18 14:00:00,0.35395,0.33778333333333,0.32225,0.31913333333333,0.30876666666667,0.30366666666667,0.31218333333333,5,0,0,0,0,0,0,0,0,0,0,0,0,0,0,0,0,0,0,0,0,0,0,0,0,0,0,0,0,0,0,0,0,0,0,0,0,0,0,0,0,0,0
COM7,0507,18-Dec-18,2018-12-18 15:00:00,0.9178,0.94481666666667,0.9089,0.90553333333333,0.88286666666667,0.87738333333333,0.90145,5,0,0,0,0,0,0,0,0,0,0,0,0,0,0,0,0,0,0,0,0,0,0,0,0,0,0,0,0,0,0,0,0,0,0,0,0,0,0,0,0,0,0
COM7,0507,18-Dec-18,2018-12-18 16:00:00,2.6608166666667,2.7563833333333,2.6572166666667,2.6490333333333,2.5871333333333,2.5869833333333,2.66415,5,0,0,0,0,0,0,0,0,0,0,0,0,0,0,0,0,0,0,0,0,0,0,0,0,0,0,0,0,0,0,0,0,0,0,0,0,0,0,0,0,0,0
COM7,0507,18-Dec-18,2018-12-18 17:00:00,1.9805666666667,1.9312333333333,1.8345833333333,1.8110833333333,1.7528166666667,1.7340333333333,1.786,5,0,0,0,0,0,0,0,0,0,0,0,0,0,0,0,0,0,0,0,0,0,0,0,0,0,0,0,0,0,0,0,0,0,0,0,0,0,0,0,0,0,0
COM7,0507,18-Dec-18,2018-12-18 18:00:00,1.8952166666667,1.7608333333333,1.65315,1.6214833333333,1.5570166666667,1.5233666666667,1.5680666666667,4.9216666666667,0,0,0,0,0,0,0,0,0,0,0,0,0,0,0,0,0,0,0,0,0,0,0,0,0,0,0,0,0,0,0,0,0,0,0,0,0,0,0,0,0,0
COM7,0507,18-Dec-18,2018-12-18 19:00:00,0.84445,0.76481666666667,0.7114,0.69023333333333,0.65668333333333,0.62898333333333,0.64536666666667,4.9,0,0,0,0,0,0,0,0,0,0,0,0,0,0,0,0,0,0,0,0,0,0,0,0,0,0,0,0,0,0,0,0,0,0,0,0,0,0,0,0,0,0
COM7,0507,18-Dec-18,2018-12-18 20:00:00,0.58453333333333,0.54448333333333,0.50551666666667,0.48996666666667,0.46416666666667,0.44506666666667,0.45633333333333,4.9,0,0,0,0,0,0,0,0,0,0,0,0,0,0,0,0,0,0,0,0,0,0,0,0,0,0,0,0,0,0,0,0,0,0,0,0,0,0,0,0,0,0
COM7,0507,18-Dec-18,2018-12-18 21:00:00,0.58928333333333,0.50706666666667,0.46736666666667,0.44973333333333,0.42545,0.40466666666667,0.41486666666667,4.9,0,0,0,0,0,0,0,0,0,0,0,0,0,0,0,0,0,0,0,0,0,0,0,0,0,0,0,0,0,0,0,0,0,0,0,0,0,0,0,0,0,0
COM7,0507,18-Dec-18,2018-12-18 22:00:00,0.99056666666667,0.8713,0.80465,0.77878333333333,0.73523333333333,0.69265,0.7102,4.9,0,0,0,0,0,0,0,0,0,0,0,0,0,0,0,0,0,0,0,0,0,0,0,0,0,0,0,0,0,0,0,0,0,0,0,0,0,0,0,0,0,0
COM7,0507,18-Dec-18,2018-12-18 23:00:00,2.2118666666667,1.9876666666667,1.8372333333333,1.7725833333333,1.6736666666667,1.6120833333333,1.6610333333333,4.9,0,0,0,0,0,0,0,0,0,0,0,0,0,0,0,0,0,0,0,0,0,0,0,0,0,0,0,0,0,0,0,0,0,0,0,0,0,0,0,0,0,0
