COM7,0507,03-Dec-18,2018-12-03 00:00:00,0.31725423728814,0.2324406779661,0.20713559322034,0.19566101694915,0.18061016949153,0.16145762711864,0.16238983050847,4.9,0,0,0,0,0,0,0,0,0,0,0,0,0,0,0,0,0,0,0,0,0,0,0,0,0,0,0,0,0,0,0,0,0,0,0,0,0,0,0,0,0,0
COM7,0507,03-Dec-18,2018-12-03 01:00:00,0.24931666666667,0.22665,0.21075,0.20486666666667,0.19503333333333,0.18485,0.18895,4.9,0,0,0,0,0,0,0,0,0,0,0,0,0,0,0,0,0,0,0,0,0,0,0,0,0,0,0,0,0,0,0,0,0,0,0,0,0,0,0,0,0,0
COM7,0507,03-Dec-18,2018-12-03 02:00:00,0.16093333333333,0.1471,0.13728333333333,0.13358333333333,0.12678333333333,0.11961666666667,0.12208333333333,4.9,0,0,0,0,0,0,0,0,0,0,0,0,0,0,0,0,0,0,0,0,0,0,0,0,0,0,0,0,0,0,0,0,0,0,0,0,0,0,0,0,0,0
COM7,0507,03-Dec-18,2018-12-03 03:00:00,0.09255,0.088883333333333,0.0833,0.0816,0.076866666666667,0.072616666666667,0.074283333333333,4.9,0,0,0,0,0,0,0,0,0,0,0,0,0,0,0,0,0,0,0,0,0,0,0,0,0,0,0,0,0,0,0,0,0,0,0,0,0,0,0,0,0,0
COM7,0507,03-Dec-18,2018-12-03 04:00:00,0.1362,0.13078333333333,0.12341666666667,0.122,0.11721666666667,0.1133,0.11643333333333,4.9,0,0,0,0,0,0,0,0,0,0,0,0,0,0,0,0,0,0,0,0,0,0,0,0,0,0,0,0,0,0,0,0,0,0,0,0,0,0,0,0,0,0
COM7,0507,03-Dec-18,2018-12-03 05:00:00,0.18526666666667,0.13223333333333,0.11841666666667,0.11266666666667,0.10665,0.10063333333333,0.10313333333333,4.9,0,0,0,0,0,0,0,0,0,0,0,0,0,0,0,0,0,0,0,0,0,0,0,0,0,0,0,0,0,0,0,0,0,0,0,0,0,0,0,0,0,0
COM7,0507,03-Dec-18,2018-12-03 06:00:00,0.14738333333333,0.14638333333333,0.13846666666667,0.13618333333333,0.1297,0.12406666666667,0.12748333333333,4.9,0,0,0,0,0,0,0,0,0,0,0,0,0,0,0,0,0,0,0,0,0,0,0,0,0,0,0,0,0,0,0,0,0,0,0,0,0,0,0,0,0,0
COM7,0507,03-Dec-18,2018-12-03 07:00:00,0.39031666666667,0.3622,0.33998333333333,0.33393333333333,0.31931666666667,0.3067,0.31363333333333,4.9,0,0,0,0,0,0,0,0,0,0,0,0,0,0,0,0,0,0,0,0,0,0,0,0,0,0,0,0,0,0,0,0,0,0,0,0,0,0,0,0,0,0
COM7,0507,03-Dec-18,2018-12-03 08:00:00,0.62211666666667,0.57675,0.54373333333333,0.53668333333333,0.51551666666667,0.49881666666667,0.512,4.9,0,0,0,0,0,0,0,0,0,0,0,0,0,0,0,0,0,0,0,0,0,0,0,0,0,0,0,0,0,0,0,0,0,0,0,0,0,0,0,0,0,0
COM7,0507,03-Dec-18,2018-12-03 09:00:00,0.3215,0.28788333333333,0.27356666666667,0.27071666666667,0.26078333333333,0.24995,0.26083333333333,4.6133333333333,0,0,0,0,0,0,0,0,0,0,0,0,0,0,0,0,0,0,0,0,0,0,0,0,0,0,0,0,0,0,0,0,0,0,0,0,0,0,0,0,0,0
COM7,0507,03-Dec-18,2018-12-03 10:00:00,0.6078,0.55066666666667,0.52591666666667,0.52093333333333,0.50426666666667,0.4952,0.50791666666667,5,0,0,0,0,0,0,0,0,0,0,0,0,0,0,0,0,0,0,0,0,0,0,0,0,0,0,0,0,0,0,0,0,0,0,0,0,0,0,0,0,0,0
COM7,0507,03-Dec-18,2018-12-03 11:00:00,0.37626666666667,0.37081666666667,0.35283333333333,0.3496,0.33736666666667,0.33153333333333,0.33893333333333,5,0,0,0,0,0,0,0,0,0,0,0,0,0,0,0,0,0,0,0,0,0,0,0,0,0,0,0,0,0,0,0,0,0,0,0,0,0,0,0,0,0,0
COM7,0507,03-Dec-18,2018-12-03 12:00:00,0.69378333333333,0.69356666666667,0.65995,0.65223333333333,0.62941666666667,0.613,0.6282,5,0,0,0,0,0,0,0,0,0,0,0,0,0,0,0,0,0,0,0,0,0,0,0,0,0,0,0,0,0,0,0,0,0,0,0,0,0,0,0,0,0,0
COM7,0507,03-Dec-18,2018-12-03 13:00:00,0.69856666666667,0.71495,0.68706666666667,0.68476666666667,0.66368333333333,0.65416666666667,0.67148333333333,5,0,0,0,0,0,0,0,0,0,0,0,0,0,0,0,0,0,0,0,0,0,0,0,0,0,0,0,0,0,0,0,0,0,0,0,0,0,0,0,0,0,0
COM7,0507,03-Dec-18,2018-12-03 14:00:00,0.32841666666667,0.3353,0.32103333333333,0.3194,0.30926666666667,0.30391666666667,0.31191666666667,5,0,0,0,0,0,0,0,0,0,0,0,0,0,0,0,0,0,0,0,0,0,0,0,0,0,0,0,0,0,0,0,0,0,0,0,0,0,0,0,0,0,0
COM7,0507,03-Dec-18,2018-12-03 15:00:00,0.37796666666667,0.38451666666667,0.3699,0.36778333333333,0.35651666666667,0.34811666666667,0.359,5,0,0,0,0,0,0,0,0,0,0,0,0,0,0,0,0,0,0,0,0,0,0,0,0,0,0,0,0,0,0,0,0,0,0,0,0,0,0,0,0,0,0
COM7,0507,03-Dec-18,2018-12-03 16:00:00,0.53911666666667,0.55268333333333,0.53271666666667,0.5322,0.51626666666667,0.50913333333333,0.52326666666667,5,0,0,0,0,0,0,0,0,0,0,0,0,0,0,0,0,0,0,0,0,0,0,0,0,0,0,0,0,0,0,0,0,0,0,0,0,0,0,0,0,0,0
COM7,0507,03-Dec-18,2018-12-03 17:00:00,0.73305,0.7286,0.6973,0.69385,0.67,0.65651666666667,0.67445,5,0,0,0,0,0,0,0,0,0,0,0,0,0,0,0,0,0,0,0,0,0,0,0,0,0,0,0,0,0,0,0,0,0,0,0,0,0,0,0,0,0,0
COM7,0507,03-Dec-18,2018-12-03 18:00:00,1.3660333333333,1.0873333333333,0.99773333333333,0.96906666666667,0.91853333333333,0.87185,0.89168333333333,5,0,0,0,0,0,0,0,0,0,0,0,0,0,0,0,0,0,0,0,0,0,0,0,0,0,0,0,0,0,0,0,0,0,0,0,0,0,0,0,0,0,0
COM7,0507,03-Dec-18,2018-12-03 19:00:00,0.94786666666667,0.75825,0.68938333333333,0.66208333333333,0.6173,0.56958333333333,0.58066666666667,4.9666666666667,0,0,0,0,0,0,0,0,0,0,0,0,0,0,0,0,0,0,0,0,0,0,0,0,0,0,0,0,0,0,0,0,0,0,0,0,0,0,0,0,0,0
COM7,0507,03-Dec-18,2018-12-03 20:00:00,1.8820833333333,1.2061666666667,1.0630833333333,1.01095,0.94141666666667,0.87311666666667,0.89106666666667,4.9066666666667,0,0,0,0,0,0,0,0,0,0,0,0,0,0,0,0,0,0,0,0,0,0,0,0,0,0,0,0,0,0,0,0,0,0,0,0,0,0,0,0,0,0
COM7,0507,03-Dec-18,2018-12-03 21:00:00,1.27885,1.1071166666667,1.00375,0.9541,0.88036666666667,0.80451666666667,0.82056666666667,4.9,0,0,0,0,0,0,0,0,0,0,0,0,0,0,0,0,0,0,0,0,0,0,0,0,0,0,0,0,0,0,0,0,0,0,0,0,0,0,0,0,0,0
COM7,0507,03-Dec-18,2018-12-03 22:00:00,0.82811666666667,0.62048333333333,0.55293333333333,0.51545,0.4677,0.42241666666667,0.4304,4.9,0,0,0,0,0,0,0,0,0,0,0,0,0,0,0,0,0,0,0,0,0,0,0,0,0,0,0,0,0,0,0,0,0,0,0,0,0,0,0,0,0,0
COM7,0507,03-Dec-18,2018-12-03 23:00:00,1.1398,0.77671666666667,0.6793,0.63226666666667,0.57083333333333,0.49938333333333,0.50688333333333,4.9,0,0,0,0,0,0,0,0,0,0,0,0,0,0,0,0,0,0,0,0,0,0,0,0,0,0,0,0,0,0,0,0,0,0,0,0,0,0,0,0,0,0
