COM7,0507,16-Dec-18,2018-12-16 00:00:00,0.82786440677966,0.67401694915254,0.60815254237288,0.57910169491525,0.53628813559322,0.49223728813559,0.50249152542373,4.9,0,0,0,0,0,0,0,0,0,0,0,0,0,0,0,0,0,0,0,0,0,0,0,0,0,0,0,0,0,0,0,0,0,0,0,0,0,0,0,0,0,0
COM7,0507,16-Dec-18,2018-12-16 01:00:00,0.83243333333333,0.69685,0.62608333333333,0.59258333333333,0.5478,0.49756666666667,0.5085,4.9,0,0,0,0,0,0,0,0,0,0,0,0,0,0,0,0,0,0,0,0,0,0,0,0,0,0,0,0,0,0,0,0,0,0,0,0,0,0,0,0,0,0
COM7,0507,16-Dec-18,2018-12-16 02:00:00,0.59191666666667,0.56143333333333,0.5125,0.49256666666667,0.4567,0.41913333333333,0.42921666666667,4.9,0,0,0,0,0,0,0,0,0,0,0,0,0,0,0,0,0,0,0,0,0,0,0,0,0,0,0,0,0,0,0,0,0,0,0,0,0,0,0,0,0,0
COM7,0507,16-Dec-18,2018-12-16 03:00:00,0.66528333333333,0.62345,0.56753333333333,0.54415,0.50446666666667,0.4625,0.47256666666667,4.9,0,0,0,0,0,0,0,0,0,0,0,0,0,0,0,0,0,0,0,0,0,0,0,0,0,0,0,0,0,0,0,0,0,0,0,0,0,0,0,0,0,0
COM7,0507,16-Dec-18,2018-12-16 04:00:00,0.5873,0.53185,0.48086666666667,0.45928333333333,0.42438333333333,0.38855,0.39663333333333,4.9,0,0,0,0,0,0,0,0,0,0,0,0,0,0,0,0,0,0,0,0,0,0,0,0,0,0,0,0,0,0,0,0,0,0,0,0,0,0,0,0,0,0
COM7,0507,16-Dec-18,2018-12-16 05:00:00,0.55323333333333,0.47043333333333,0.42685,0.4075,0.37715,0.34343333333333,0.35231666666667,4.825,0,0,0,0,0,0,0,0,0,0,0,0,0,0,0,0,0,0,0,0,0,0,0,0,0,0,0,0,0,0,0,0,0,0,0,0,0,0,0,0,0,0
COM7,0507,16-Dec-18,2018-12-16 06:00:00,0.7897,0.55346666666667,0.48258333333333,0.45028333333333,0.40846666666667,0.36401666666667,0.37011666666667,4.8,0,0,0,0,0,0,0,0,0,0,0,0,0,0,0,0,0,0,0,0,0,0,0,0,0,0,0,0,0,0,0,0,0,0,0,0,0,0,0,0,0,0
COM7,0507,16-Dec-18,2018-12-16 07:00:00,0.94636666666667,0.68895,0.6058,0.56721666666667,0.51363333333333,0.45545,0.46306666666667,4.8,0,0,0,0,0,0,0,0,0,0,0,0,0,0,0,0,0,0,0,0,0,0,0,0,0,0,0,0,0,0,0,0,0,0,0,0,0,0,0,0,0,0
COM7,0507,16-Dec-18,2018-12-16 08:00:00,0.96371666666667,0.76201666666667,0.67323333333333,0.63163333333333,0.57778333333333,0.51891666666667,0.53035,4.8,0,0,0,0,0,0,0,0,0,0,0,0,0,0,0,0,0,0,0,0,0,0,0,0,0,0,0,0,0,0,0,0,0,0,0,0,0,0,0,0,0,0
COM7,0507,16-Dec-18,2018-12-16 09:00:00,0.97473333333333,0.90965,0.82941666666667,0.79428333333333,0.73583333333333,0.67363333333333,0.68975,4.8,0,0,0,0,0,0,0,0,0,0,0,0,0,0,0,0,0,0,0,0,0,0,0,0,0,0,0,0,0,0,0,0,0,0,0,0,0,0,0,0,0,0
COM7,0507,16-Dec-18,2018-12-16 10:00:00,0.59328333333333,0.61866666666667,0.56358333333333,0.54108333333333,0.49975,0.45711666666667,0.46803333333333,4.8,0,0,0,0,0,0,0,0,0,0,0,0,0,0,0,0,0,0,0,0,0,0,0,0,0,0,0,0,0,0,0,0,0,0,0,0,0,0,0,0,0,0
COM7,0507,16-Dec-18,2018-12-16 11:00:00,0.5541,0.55625,0.50938333333333,0.48643333333333,0.44826666666667,0.40846666666667,0.41716666666667,4.8,0,0,0,0,0,0,0,0,0,0,0,0,0,0,0,0,0,0,0,0,0,0,0,0,0,0,0,0,0,0,0,0,0,0,0,0,0,0,0,0,0,0
COM7,0507,16-Dec-18,2018-12-16 12:00:00,0.51443333333333,0.49298333333333,0.44708333333333,0.42993333333333,0.39443333333333,0.36066666666667,0.36788333333333,4.8,0,0,0,0,0,0,0,0,0,0,0,0,0,0,0,0,0,0,0,0,0,0,0,0,0,0,0,0,0,0,0,0,0,0,0,0,0,0,0,0,0,0
COM7,0507,16-Dec-18,2018-12-16 13:00:00,0.65576666666667,0.54031666666667,0.51166666666667,0.49813333333333,0.47778333333333,0.46135,0.47713333333333,4.66,0,0,0,0,0,0,0,0,0,0,0,0,0,0,0,0,0,0,0,0,0,0,0,0,0,0,0,0,0,0,0,0,0,0,0,0,0,0,0,0,0,0
COM7,0507,16-Dec-18,2018-12-16 14:00:00,0.5735,0.50025,0.4627,0.44851666666667,0.42741666666667,0.40931666666667,0.41883333333333,5,0,0,0,0,0,0,0,0,0,0,0,0,0,0,0,0,0,0,0,0,0,0,0,0,0,0,0,0,0,0,0,0,0,0,0,0,0,0,0,0,0,0
COM7,0507,16-Dec-18,2018-12-16 15:00:00,0.76841666666667,0.72308333333333,0.67595,0.65926666666667,0.62883333333333,0.60195,0.61566666666667,5,0,0,0,0,0,0,0,0,0,0,0,0,0,0,0,0,0,0,0,0,0,0,0,0,0,0,0,0,0,0,0,0,0,0,0,0,0,0,0,0,0,0
COM7,0507,16-Dec-18,2018-12-16 16:00:00,0.62958333333333,0.60085,0.56685,0.55715,0.53701666666667,0.52765,0.54146666666667,5,0,0,0,0,0,0,0,0,0,0,0,0,0,0,0,0,0,0,0,0,0,0,0,0,0,0,0,0,0,0,0,0,0,0,0,0,0,0,0,0,0,0
COM7,0507,16-Dec-18,2018-12-16 17:00:00,1.1415333333333,0.904,0.8086,0.761,0.70795,0.65763333333333,0.67121666666667,5,0,0,0,0,0,0,0,0,0,0,0,0,0,0,0,0,0,0,0,0,0,0,0,0,0,0,0,0,0,0,0,0,0,0,0,0,0,0,0,0,0,0
COM7,0507,16-Dec-18,2018-12-16 18:00:00,1.8974666666667,1.50075,1.3541666666667,1.2818833333333,1.1949166666667,1.1078333333333,1.1292166666667,5,0,0,0,0,0,0,0,0,0,0,0,0,0,0,0,0,0,0,0,0,0,0,0,0,0,0,0,0,0,0,0,0,0,0,0,0,0,0,0,0,0,0
COM7,0507,16-Dec-18,2018-12-16 19:00:00,1.18805,0.95426666666667,0.87011666666667,0.83283333333333,0.78295,0.73735,0.75395,5,0,0,0,0,0,0,0,0,0,0,0,0,0,0,0,0,0,0,0,0,0,0,0,0,0,0,0,0,0,0,0,0,0,0,0,0,0,0,0,0,0,0
COM7,0507,16-Dec-18,2018-12-16 20:00:00,1.4309,1.1131333333333,1.0057666666667,0.95995,0.9004,0.84106666666667,0.86051666666667,5,0,0,0,0,0,0,0,0,0,0,0,0,0,0,0,0,0,0,0,0,0,0,0,0,0,0,0,0,0,0,0,0,0,0,0,0,0,0,0,0,0,0
COM7,0507,16-Dec-18,2018-12-16 21:00:00,1.7049166666667,1.2784333333333,1.1434333333333,1.0858,1.01115,0.9372,0.95783333333333,4.935,0,0,0,0,0,0,0,0,0,0,0,0,0,0,0,0,0,0,0,0,0,0,0,0,0,0,0,0,0,0,0,0,0,0,0,0,0,0,0,0,0,0
COM7,0507,16-Dec-18,2018-12-16 22:00:00,0.89498333333333,0.72225,0.62885,0.5892,0.53946666666667,0.48518333333333,0.49401666666667,4.9,0,0,0,0,0,0,0,0,0,0,0,0,0,0,0,0,0,0,0,0,0,0,0,0,0,0,0,0,0,0,0,0,0,0,0,0,0,0,0,0,0,0
COM7,0507,16-Dec-18,2018-12-16 23:00:00,0.51536666666667,0.45318333333333,0.39653333333333,0.37038333333333,0.33948333333333,0.30603333333333,0.3108,4.9,0,0,0,0,0,0,0,0,0,0,0,0,0,0,0,0,0,0,0,0,0,0,0,0,0,0,0,0,0,0,0,0,0,0,0,0,0,0,0,0,0,0
