COM7,0507,09-Feb-19,2019-02-09 00:00:00,-0.1601724137931,0.017672413793103,0.0325,0.038706896551724,0.038465517241379,0.039258620689655,0.040103448275862,4.7,0,0,0,0,0,0,0,0,0,0,0,0,0,0,0,0,0,0,0,0,0,0,0,0,0,0,0,0,0,0,0,0,0,0,0,0,0,0,0,0,0,0
COM7,0507,09-Feb-19,2019-02-09 01:00:00,-0.073,0.031,0.0398,0.0415,0.0414,0.039266666666667,0.041433333333333,4.7,0,0,0,0,0,0,0,0,0,0,0,0,0,0,0,0,0,0,0,0,0,0,0,0,0,0,0,0,0,0,0,0,0,0,0,0,0,0,0,0,0,0
COM7,0507,09-Feb-19,2019-02-09 02:00:00,0.36051666666667,0.30525,0.27991666666667,0.27073333333333,0.25338333333333,0.23635,0.24156666666667,4.7,0,0,0,0,0,0,0,0,0,0,0,0,0,0,0,0,0,0,0,0,0,0,0,0,0,0,0,0,0,0,0,0,0,0,0,0,0,0,0,0,0,0
COM7,0507,09-Feb-19,2019-02-09 03:00:00,0.7095,0.54866666666667,0.49253333333333,0.46826666666667,0.43465,0.40241666666667,0.41108333333333,4.7,0,0,0,0,0,0,0,0,0,0,0,0,0,0,0,0,0,0,0,0,0,0,0,0,0,0,0,0,0,0,0,0,0,0,0,0,0,0,0,0,0,0
COM7,0507,09-Feb-19,2019-02-09 04:00:00,0.58523333333333,0.45783333333333,0.40758333333333,0.38738333333333,0.35956666666667,0.33168333333333,0.33913333333333,4.7,0,0,0,0,0,0,0,0,0,0,0,0,0,0,0,0,0,0,0,0,0,0,0,0,0,0,0,0,0,0,0,0,0,0,0,0,0,0,0,0,0,0
COM7,0507,09-Feb-19,2019-02-09 05:00:00,0.56016666666667,0.43355,0.38483333333333,0.36481666666667,0.33661666666667,0.30535,0.3138,4.7,0,0,0,0,0,0,0,0,0,0,0,0,0,0,0,0,0,0,0,0,0,0,0,0,0,0,0,0,0,0,0,0,0,0,0,0,0,0,0,0,0,0
COM7,0507,09-Feb-19,2019-02-09 06:00:00,0.53481666666667,0.42158333333333,0.37343333333333,0.35623333333333,0.32771666666667,0.30143333333333,0.30831666666667,4.7,0,0,0,0,0,0,0,0,0,0,0,0,0,0,0,0,0,0,0,0,0,0,0,0,0,0,0,0,0,0,0,0,0,0,0,0,0,0,0,0,0,0
COM7,0507,09-Feb-19,2019-02-09 07:00:00,1.1039666666667,0.76815,0.67485,0.63388333333333,0.5798,0.52358333333333,0.5353,4.7,0,0,0,0,0,0,0,0,0,0,0,0,0,0,0,0,0,0,0,0,0,0,0,0,0,0,0,0,0,0,0,0,0,0,0,0,0,0,0,0,0,0
COM7,0507,09-Feb-19,2019-02-09 08:00:00,0.76316666666667,0.60225,0.53531666666667,0.50441666666667,0.46365,0.42343333333333,0.43385,4.7,0,0,0,0,0,0,0,0,0,0,0,0,0,0,0,0,0,0,0,0,0,0,0,0,0,0,0,0,0,0,0,0,0,0,0,0,0,0,0,0,0,0
COM7,0507,09-Feb-19,2019-02-09 09:00:00,0.64148333333333,0.62143333333333,0.5715,0.55368333333333,0.52093333333333,0.48695,0.50065,4.6916666666667,0,0,0,0,0,0,0,0,0,0,0,0,0,0,0,0,0,0,0,0,0,0,0,0,0,0,0,0,0,0,0,0,0,0,0,0,0,0,0,0,0,0
COM7,0507,09-Feb-19,2019-02-09 10:00:00,0.51408333333333,0.52951666666667,0.48868333333333,0.47636666666667,0.44503333333333,0.41655,0.42958333333333,4.6,0,0,0,0,0,0,0,0,0,0,0,0,0,0,0,0,0,0,0,0,0,0,0,0,0,0,0,0,0,0,0,0,0,0,0,0,0,0,0,0,0,0
COM7,0507,09-Feb-19,2019-02-09 11:00:00,0.41225,0.36005,0.33518333333333,0.32566666666667,0.31075,0.29023333333333,0.30206666666667,4.4583333333333,0,0,0,0,0,0,0,0,0,0,0,0,0,0,0,0,0,0,0,0,0,0,0,0,0,0,0,0,0,0,0,0,0,0,0,0,0,0,0,0,0,0
COM7,0507,09-Feb-19,2019-02-09 12:00:00,0.4247,0.32098333333333,0.29846666666667,0.29013333333333,0.27753333333333,0.26503333333333,0.27043333333333,4.9,0,0,0,0,0,0,0,0,0,0,0,0,0,0,0,0,0,0,0,0,0,0,0,0,0,0,0,0,0,0,0,0,0,0,0,0,0,0,0,0,0,0
COM7,0507,09-Feb-19,2019-02-09 13:00:00,0.59483333333333,0.54911666666667,0.51753333333333,0.50781666666667,0.48905,0.47781666666667,0.48988333333333,4.9,0,0,0,0,0,0,0,0,0,0,0,0,0,0,0,0,0,0,0,0,0,0,0,0,0,0,0,0,0,0,0,0,0,0,0,0,0,0,0,0,0,0
COM7,0507,09-Feb-19,2019-02-09 14:00:00,0.36508333333333,0.3638,0.3448,0.34116666666667,0.3293,0.32523333333333,0.33385,4.9,0,0,0,0,0,0,0,0,0,0,0,0,0,0,0,0,0,0,0,0,0,0,0,0,0,0,0,0,0,0,0,0,0,0,0,0,0,0,0,0,0,0
COM7,0507,09-Feb-19,2019-02-09 15:00:00,0.22771666666667,0.23621666666667,0.22421666666667,0.2213,0.21346666666667,0.20735,0.21248333333333,4.9,0,0,0,0,0,0,0,0,0,0,0,0,0,0,0,0,0,0,0,0,0,0,0,0,0,0,0,0,0,0,0,0,0,0,0,0,0,0,0,0,0,0
COM7,0507,09-Feb-19,2019-02-09 16:00:00,0.17343333333333,0.16365,0.15206666666667,0.14823333333333,0.1413,0.13683333333333,0.13971666666667,4.9,0,0,0,0,0,0,0,0,0,0,0,0,0,0,0,0,0,0,0,0,0,0,0,0,0,0,0,0,0,0,0,0,0,0,0,0,0,0,0,0,0,0
COM7,0507,09-Feb-19,2019-02-09 17:00:00,0.19735,0.19435,0.18236666666667,0.17706666666667,0.16936666666667,0.1597,0.1635,4.9,0,0,0,0,0,0,0,0,0,0,0,0,0,0,0,0,0,0,0,0,0,0,0,0,0,0,0,0,0,0,0,0,0,0,0,0,0,0,0,0,0,0
COM7,0507,09-Feb-19,2019-02-09 18:00:00,0.27208333333333,0.22943333333333,0.2081,0.19798333333333,0.18455,0.16961666666667,0.17276666666667,4.9,0,0,0,0,0,0,0,0,0,0,0,0,0,0,0,0,0,0,0,0,0,0,0,0,0,0,0,0,0,0,0,0,0,0,0,0,0,0,0,0,0,0
COM7,0507,09-Feb-19,2019-02-09 19:00:00,0.22086666666667,0.1891,0.17358333333333,0.1661,0.15825,0.14545,0.15028333333333,4.9,0,0,0,0,0,0,0,0,0,0,0,0,0,0,0,0,0,0,0,0,0,0,0,0,0,0,0,0,0,0,0,0,0,0,0,0,0,0,0,0,0,0
COM7,0507,09-Feb-19,2019-02-09 20:00:00,0.22656666666667,0.17636666666667,0.16065,0.15051666666667,0.1453,0.12476666666667,0.13321666666667,4.8183333333333,0,0,0,0,0,0,0,0,0,0,0,0,0,0,0,0,0,0,0,0,0,0,0,0,0,0,0,0,0,0,0,0,0,0,0,0,0,0,0,0,0,0
COM7,0507,09-Feb-19,2019-02-09 21:00:00,0.40058333333333,0.32836666666667,0.30116666666667,0.2871,0.27696666666667,0.24903333333333,0.26181666666667,4.8,0,0,0,0,0,0,0,0,0,0,0,0,0,0,0,0,0,0,0,0,0,0,0,0,0,0,0,0,0,0,0,0,0,0,0,0,0,0,0,0,0,0
COM7,0507,09-Feb-19,2019-02-09 22:00:00,0.25563333333333,0.17925,0.15543333333333,0.14173333333333,0.13486666666667,0.10928333333333,0.11813333333333,4.8,0,0,0,0,0,0,0,0,0,0,0,0,0,0,0,0,0,0,0,0,0,0,0,0,0,0,0,0,0,0,0,0,0,0,0,0,0,0,0,0,0,0
COM7,0507,09-Feb-19,2019-02-09 23:00:00,0.14143333333333,0.12043333333333,0.11278333333333,0.10615,0.10508333333333,0.090966666666667,0.098833333333333,4.8,0,0,0,0,0,0,0,0,0,0,0,0,0,0,0,0,0,0,0,0,0,0,0,0,0,0,0,0,0,0,0,0,0,0,0,0,0,0,0,0,0,0
